Hashtag,Total Count
@realdonaldtrump,131
@hillaryclinton,74
@timkaine,34
@cnn,26
@foxnews,24
@gop,20
@kellyannepolls,20
@msnbc,19
@mike_pence,16
@seanhannity,14
@teamtrump,11
@opendebate,9
@krauthammer,9
@katrinapierson,9
#openquestion,9
@danscavino,9
#j4jednation,8
#imwithher,8
#debates2016,8
#trump,8
@elaine_quijano,8
@washtimes,7
#debates,7
#vpdebate,7
@abc,7
@bi_contributors,7
@foxnation,7
@nytimes,6
#bigleaguetruth,6
#ptsd,6
@loudobbs,6
@speakerryan,6
#maga,6
@potus,5
@diamondandsilk,5
@fbi,5
@kayleighmcenany,5
#hillaryclinton,5
@foxbusiness,5
@govpencein,5
@bretbaier,4
#trumppence2016,4
@rudygiulianigop,4
@wilburtwonose,4
@kimkardashian,4
@ingrahamangle,4
@mjpost,4
@nbcnews,4
#cnn,4
@kingjames,4
@youtube,4
@surfinwav,4
@scottienhughes,4
@kurteichenwald,4
@genflynn,4
#veterans,4
#hillary,4
@amyewalter,4
@jackschofield,4
@oreillyfactor,4
#nevertrump,3
@newtgingrich,3
#election2016,3
@cbsnews,3
@foxnewslive,3
@thedemocrats,3
@stuffromymind,3
@realjameswoods,3
@ladyblueclr,3
@kevinjacksontbs,3
@bradheath,3
@donaldjtrumpjr,3
@correctrecord,3
@erictrump,3
@abcpolitics,3
@ap,3
@seanspicer,3
@hale4jesus,3
#trump2016,3
@cnnpolitics,3
@thehill,3
@ajamubaraka,3
@marklevinshow,3
@ivankatrump,3
@lorettalynch,3
@veteran4trump,3
@georgewill,3
@scottbaio,3
@borisep,2
#followthemoney,2
@mcuban,2
#johnson2016,2
@jillharth,2
@markruffalo,2
@democrat_4trump,2
@reince,2
@shirleyvc725,2
@paulbegala,2
@berlinsandra78,2
@angelojohngage,2
@berniesanders,2
@denverpost,2
@senate,2
@lglick1,2
@hrc,2
@marc_lotter,2
@heatherxoxg,2
#uniteblue,2
@peta,2
@kamorphous,2
@washingtonpost,2
@krizzy52,2
@puppymnkey,2
@ing,2
@mikepencevp,2
@jakeblues23231,2
#muted,2
#clintonkaine,2
@infowars,2
@lisabloom,2
@allytaft,2
@mmister,2
@crnc,2
@valente_rick,2
@cbs,2
@maddow,2
@scottwalker,2
@fox5shawn,2
#gop,2
@teamtrumpaz,2
@haley_greentree,2
@rogerjstonejr,2
@barbaranetolic1,2
#wadr,2
@km_gonzo,2
@congress,2
@specialreport,2
@time4kind,2
@senwarren,2
@shakingstick,2
@faccordions,2
#pbsnews,2
@cbseveningnews,2
@upi,2
@2016vpdebate,2
@brikeilarcnn,2
@unipolitica,2
@tedcruz,2
#crookedhillary,2
@sacca,2
@laureldavilacpa,2
@wi06706591,2
@collegedems,2
#constitution,2
@dcexaminer,2
#wikileaks,2
@independents,2
#democrats,2
@billclinton,2
@adamshermanesq,2
@facebook,2
@wikileaks,2
#biased,2
@j4j_usa,2
@results_tweets,2
@lucasfoxnews,2
@repseanduffy,2
@sensanders,2
@seanmcelwee,2
#chelasfortheband,2
@barbaraaresesq,2
@debates,2
#dems,2
#vpdebate2016,2
@video,2
@uninoticias,2
#msnbc,2
#truth,1
#respect,1
@fastny,1
@jmettley,1
@npr,1
#loveland,1
#catholic,1
@gailcara_gail,1
#potusrace,1
@trumpforco,1
@govmikehuckabee,1
@rushlimbaugh,1
@cnnbrk,1
@shareblue,1
@mercedesschlapp,1
@beth_beatty_,1
#purpleheart,1
@civilrights,1
@theonlyjewbacca,1
@auditthemedia,1
@desireeseattle,1
@jolenestrailer,1
#politics,1
@latimes,1
@peaceandjoy101,1
@defconws,1
#superhero,1
@colmorrisdavis,1
@lusciouslindaw,1
@markhalperin,1
#specialreport,1
@bubbasnowboards,1
@mortimershole,1
@adirado29,1
#mendacity,1
@dailykos,1
#sanctity,1
#joelosteen,1
@teamcavuto,1
@_warriorpac_,1
#strongertogether,1
#basketofdeplrables,1
@rescuetracker81,1
@chrischristie,1
@fxnscitech,1
@oldlinepatriot,1
#deplorable,1
#trollparty,1
#facts,1
@tomasantonio67,1
@irishmason,1
#bigpharma,1
#facepalm,1
@ltoddwood,1
@senate_gop,1
@blackamericaweb,1
@januaveritas,1
@drudge,1
@raymondgill_,1
@medium,1
@noticiasrcn,1
@therealezway,1
@ultraviolet,1
@kentuckyblacc,1
@seiu,1
@julianassange_,1
@beladonnarogers,1
@millennials,1
@jeremyhubbard,1
#doyouevenconstitution,1
#rva,1
#eeuu,1
@benensonj,1
@ladyoldandgray,1
#blacks,1
@prisonplanet,1
#milo,1
#hitler,1
@gatewaypundit,1
@fahrenthold,1
@army1man1,1
@hardball,1
@breitbartnews,1
#freeloader,1
@smerconish,1
@dawnellemurray,1
#makeamericagreat,1
@misegr,1
@vicitrue,1
@militarytimes,1
#lgbtq,1
#dirtbagdonnie,1
#mxico,1
#hypocrite,1
@fbiportland,1
@roygmp,1
@linnyitssn,1
#poem,1
@kevindarryl,1
#billclinton,1
@stephenbannon,1
#chickenshit,1
#politicalagenda,1
@cucapa,1
@oann,1
@gretta4trump,1
#chopchop,1
@davebratva7th,1
@flotus,1
#timkaine,1
#unionize,1
@backstreetboys,1
@petezicato,1
#lying,1
@glambertoo1,1
@senatemajldr,1
@barackobama,1
@doggy2511,1
#obama,1
@unsolvedrhyme,1
@wsj,1
@cnni,1
@dano5100,1
@cernovich,1
#trumpwillwin,1
@realcinders2,1
@jonlovett,1
@gopaaron,1
@hunterhrc2016,1
@unitedissues,1
@jimsciutto,1
#free,1
@monicacrowley,1
#smuggling,1
@sampeiffer,1
#cantteachstupid,1
@crooked,1
#republicans,1
@georgesoros,1
@nyinvesting,1
#loserdonald,1
@3tags_org,1
@bartmccoy5,1
#paidseatfillers,1
@knight276,1
@cnevarez0925,1
@juicesaysthis,1
#askforaplan,1
@networksmanager,1
@hectorisfunny,1
@nytopinion,1
@mathiasian,1
@coloradoraven,1
#lockherup,1
@jeremybelmain,1
@revclbryant,1
@montel_williams,1
@brianstelter,1
@wdfx2eu7,1
#trumppence,1
@tobycarey88,1
@andersoncooper,1
#trumptaxes,1
@don_vito_08,1
@morning_joe,1
@sherrilee7,1
@hrtablaze,1
@gingersnap_,1
@breastsr4babies,1
@trumpmypres,1
#gopers,1
#hillaryhadadrone,1
@wellsfargo,1
@amandamarcotte,1
@gmw1wiseman,1
#whatif,1
#tytlive,1
#temperamentproblems,1
#ccot,1
@allenwest,1
#vp2016,1
@nigel_farage,1
@senatorsessions,1
@kurtisshort1,1
@josh_watson,1
#love,1
@roswell2001,1
#makeamericamexicoagain,1
@atensnut,1
@ang_yow,1
#hillary2016,1
#trans,1
@redroadrail,1
@youngdems,1
#hillno,1
#astoundingignorance,1
#davematthews,1
@pattymo,1
@rtisticone,1
#ashlandva,1
@nbc,1
@justintrudeau,1
@kimguilfoyle,1
@twitter,1
@politicususa,1
@the_patriot_v,1
#donaldtrump,1
@laurenjmayk,1
#imwithhertostophim,1
@newyork,1
@gmknowles,1
#foxnews,1
@bedheadred13,1
@robbs_floyd,1
#solidarity,1
@realdjslash,1
@fairimmigration,1
@dan_flynn,1
@kellismith15,1
@fnc,1
@c0nvey,1
@ivanmarquezfarc,1
@nytimescohen,1
#debatenight,1
@housegop,1
@cher,1
@jordansekulow,1
@bishopjane10,1
#childish,1
@brithume,1
#makemanhattangopgreatagain,1
@nypost,1
@laraleatrump,1
@senategop,1
@tgowdysc,1
#latinosfortrump,1
@mschlapp,1
@angela_rye,1
@foxnewspolitics,1
@thefive,1
@saint_209,1
@amullins1joshua,1
@southerntalker,1
@trimman58,1
@ledivagwendyl,1
@balelodi,1
@rsbaum,1
@mitchellvii,1
#feelthebern,1
@connieketchup,1
#hispanics,1
#whentrumplastpaidtaxes,1
@freemarketjay,1
@newday,1
@streamdotorg,1
#vote,1
@vabvox,1
@bryan_blanc,1
#colorado,1
@respect_aust,1
@dotlogica,1
#bigleaguebs,1
#patheticpolitician,1
@kevinfullerdz,1
@barbted1,1
#vote2016,1
@glaad,1
#puppet,1
@kaestrain,1
@joenbc,1
@lawrence,1
@joshuamanning23,1
#epicignorance,1
@coberai16,1
@clintonfdn,1
@govchristie,1
@gigilsd7,1
#pjnet,1
#fox,1
@skb_sara,1
@californiapanda,1
@stand4liberty_,1
@scott69474,1
@end_oligarchy,1
@rubinreport,1
@stellaaaa,1
@ginsburgjobs,1
@shannonbream,1
#liberalshitstorm,1
@joekarce,1
@bosslady2898,1
@talmekia,1
@manhattan_gop,1
#basementdwellers,1
@nicky0472,1
@christenepatti,1
@dystopia47,1
@fxnopinion,1
@highserenity49,1
@repbjnikkel,1
@friendlyjmc,1
@sebgorka,1
#booze,1
@always_trump,1
@gs777gs777,1
@carlhigbie,1
@communism_kills,1
@bg55harpoon,1
@mredtrain,1
@lesterholtnbc,1
#denver,1
@jail_killery,1
@thebuschschool,1
@miryam_burbano,1
#trumptax,1
@jaclopac,1
#church,1
@sentedcruz,1
@rolandsmartin,1
#trumpwon,1
#illegal,1
@robmacanga177,1
@itsmissdenise,1
@godlessnz,1
@italians4trump,1
#muslims,1
@darhuddleston,1
@cgasparino,1
@erikteap,1
@rdannely,1
#mondaymotivation,1
@pattimagnon,1
@realgacinski,1
#voteblue,1
@house_gop,1
@noparty2016,1
#creepyconman,1
@scruffycrunch,1
#ows,1
@mbrohard,1
@lawyercat_,1
#votar,1
@noltenc,1
#americanswillremember,1
@cspanwj,1
@stylistkavin,1
@p0tus,1
@duffy4congress,1
@thedailyledger,1
@ad938bfbaa1849c,1
#newsmedia,1
#std,1
@jonfavs,1
#emailgate,1
#draftdodger,1
@hitam007,1
#gratitude,1
@lookinabout,1
@huffpostpol,1
@vickybrush,1
@ten_gop,1
#virwinia,1
#minors,1
@joeymcintyre,1
@evanmcmurry,1
@realalexjones,1
@petersagal,1
@dailycaller,1
@penowski,1
@credomobile,1
@zuzi_64,1
#gun,1
@feistybunnygirl,1
#p2,1
#soldiers,1
@trumpence16,1
@mreanders,1
@trumpstudents,1
@maxrichalds,1
#vetsagainsttrump,1
#latinas,1
#rnc,1
@driveracash,1
#socialist,1
#trumptheconman,1
@patton4trump,1
@marcdebiak,1
@jasonmillerindc,1
@mao2u2,1
@thelisadoan,1
@denverchannel,1
@hermicane1,1
@boazziz,1
#pravdamsm,1
@barack,1
#romneytax,1
@lindasuhler,1
#trumptrain,1
@ggladouceur,1
@alisonfrankel,1
@yrnf,1
@betsy_klein,1
#business,1
#fnc,1
@ourfreeamerica,1
@rambobiggs,1
@brunoamato_1,1
@thisweekabc,1
@the_saneman,1
@koxinga8,1
@kimmer_show,1
@ambjohnbolton,1
@cmclymer,1
#prolife,1
#vets,1
@jl_chadbourne,1
@keepamergr8,1
@jamesrosenfnc,1
@twitchyteam,1
#dumb,1
@ssmcdan,1
