Hashtag,Total Count
@realdonaldtrump,167
@hillaryclinton,150
@abc,129
@cnn,86
@abcpolitics,68
@nbcnews,63
@foxnews,63
@mj_lee,56
@cbsnews,54
@ananavarro,48
@cnnpolitics,44
@msnbc,40
@vp,35
@kellyannepolls,18
@cnnbrk,17
@nytimes,17
#trump,17
@breitbartnews,15
@brikeilarcnn,15
@politico,14
@usatoday,14
@nbc,13
@washingtonpost,12
@felixsalmon,12
@ap,12
@hardball,11
#neverhillary,11
@danmericacnn,11
#maga,11
@jaketapper,10
@fbi,10
@cnbc,10
@potus,9
@cbspolitics,9
@ac360,9
@morning_joe,9
@nbcpolitics,9
@fmanjoo,8
@nbcnightlynews,8
@hardballchris,8
@cbs,8
@maddow,8
@actualflatticus,8
@kurteichenwald,8
@gma,8
@nuzzel,8
@brithume,8
@newday,8
@jamilsmith,8
@lorettalynch,8
@wikileaks,8
#nevertrump,7
#imwithher,7
@fusion,7
@kingjames,7
@donaldjtrumpjr,7
@erictrump,7
@timkaine,7
@lesterholtnbc,7
@murphylinn,6
@upshotnyt,6
@wsj,6
@cernovich,6
#ptsd,6
@jonalist,6
@victory205,6
@vote4trumpprez,6
#crookedhillary,6
@mike_pence,6
#hillary,6
@maggienyt,6
@govgaryjohnson,5
@mathiasian,5
@reince,5
@paulbegala,5
@berniesanders,5
@seanhannity,5
@oann,5
@bbc,5
@paullewismusic,5
@joebiden,5
@bruce_arthur,5
@abcworldnews,4
@narendramodi,4
@nytopinion,4
@krauthammer,4
#strongertogether,4
@kimkardashian,4
@kairyssdal,4
@opendebate,4
@andersoncooper,4
@theview,4
@jeffbercovici,4
@cspan,4
@mtracey,4
@mat,4
@youtube,4
@gop,4
#openquestion,4
@isusan66,4
@ange_amene,4
@cnni,4
@chriscuomo,4
@mqadri111,4
@trishaw04,4
@melaniatrump,4
@lawrence,4
@aaditweetz,4
@phillyinquirer,4
@alejand12586423,4
@hughhewitt,4
@bbcworld,4
@antone18,4
@arvindkejriwal,4
@thehill,4
@dylanbyers,4
#comey,4
@brgooley,4
@ivankatrump,4
@cbsnewyork,4
@bharatdosi,4
#genius,4
#trumptaxreturns,4
@kapsology,4
@brianstelter,4
@bretbaier,3
#trumppence2016,3
@teamtrump,3
#ontherecord,3
#womensrights,3
@beanfilms,3
@josnoopy29,3
@cnnnewsroom,3
@fahrenthold,3
@earnest_one,3
#ptsdawareness,3
@appsame,3
@wolfblitzer,3
@mediaite,3
@unitedissues,3
@gigizetticci,3
@ancalerts,3
#msm,3
@lachlan,3
@drmartyfox,3
@kimguilfoyle,3
@byronyork,3
@meetthepress,3
@mattmcgorry,3
@carminezozzora,3
@megynkelly,3
#biasedmedia,3
@kalaax008,3
#deplorables,3
#trumptrain,3
@speakerryan,3
#news,3
@asatyanarayanan,3
@hfa,3
@imrghtjs,3
@doctorloveless1,3
#basementdwellers,3
@abcliz,3
@outfrontcnn,3
#debates,3
#wikileaks,3
@shannoneg68,3
@billclinton,3
@portosj81j,3
@yester_news_now,3
@karaswisher,3
@_floridaman,3
#clinton,3
@votevets,3
#ptsdchat,3
@jamesrosenfnc,3
#truth,2
@sopandeb,2
@unspokenbond,2
#childrapetrump,2
#clintonfoundation,2
@mcuban,2
@mauriciomacri,2
#trumptaxes,2
@robinbiro,2
@thinker7721,2
@johnkingcnn,2
@huffpostpol,2
@nickmerrill,2
@chrischristie,2
@n_ellingson,2
#dncleaks,2
#clintons,2
@angelojohngage,2
@iansams,2
@infullbloomus,2
@abcnews,2
#neverlunatictrump,2
@lizzym420,2
#taxes,2
@ricky_vaughn99,2
#boycottsouthkorea,2
@ejdionne,2
#benghazi,2
@jebbush,2
@peta,2
@chrislhayes,2
@rockprincess818,2
@ldbs92,2
#stopthedogmeattrade,2
@barackobama,2
@jeneps,2
#betsyriot,2
@mehdirhasan,2
@katyturnbc,2
@time,2
@ajenews,2
@saramurray,2
@jjohnsonlaw,2
@cnnireport,2
@cnnnews18,2
#foxnewsus,2
@9joe9,2
@georgefayner,2
#hillaryclinton,2
#hillarysemails,2
@rjszczerba,2
#whereismaria,2
@dr_ashok_m,2
@progressweekly,2
@bakari_sellers,2
@martharaddatz,2
@lrihendry,2
#imissyou,2
#wallstreet,2
@chelseaclinton,2
@bryan700,2
@johnjharwood,2
@samuelroukin,2
@beckycouchb,2
@donlemon,2
@dbcdthumper5,2
@chernynkaya,2
@liberalmusings1,2
#gop,2
@beatdonaldtrump,2
@chucktodd,2
@peterfeaman,2
#animalwelfarelaws,2
@veteran4trump,2
@pratyushkamal,2
@danscavino,2
@danabashcnn,2
@thefix,2
@nypost,2
#trumprape,2
@newrepublic,2
@_flor1dawoman,2
@thefive,2
#corruptdnc,2
#vote,2
#c,2
@cnnsitroom,2
#foxnews,2
@japitter,2
@msmbc,2
#deadbeatbillionair,2
@yahoo,2
@zinkywinks,2
@laymangeorge,2
@californiapanda,2
#corrupthillary,2
@doc101103,2
#dal,2
@cascamike,2
@ceegmonster,2
@the_real_u,2
@coulsonjason,2
@machadooficial,2
#friendnotfood,2
@teamtrump5,2
@clewandowski_,2
@debates,2
@foxnewslive,2
@brianbeutler,2
#votetrump2016,2
#trumppence16,2
@thumbug,2
@feitsbarstool,2
@jonsoltz,2
@noltenc,2
#democrats,2
@independent,2
@panny2112,2
@vickieclayb,2
@julie_marco15,2
@lucasfoxnews,2
@hiilaryclinton,2
#brexit,2
@yhwhmyking,2
@r_j_lee,2
@uninoticias,2
@deanbarker,2
@tanpadelusi,2
@cbseveningnews,2
@nickconfessore,2
@joyannreid,2
@79_phoenix,2
@charlesmblow,2
@headbangerpa,2
#criminalhillary,2
@ivn,2
@tonyschwartz,2
@alivitali,2
@cbsthismorning,2
@josephindlindy,2
@steph93065,2
#blindleadingtheblind,2
@jenwoodruff79,1
@borisep,1
@govtomblin,1
@cindypinkceo,1
#redline,1
@drewistotle,1
@npr,1
@stephenproducer,1
@absurdity854,1
@richarddelasky,1
@donnabrazile,1
#scotus,1
@geraintway,1
@denise_olej,1
#taxdodger,1
#orlando,1
@sandiegonewz,1
@channel4news,1
@1youngbuddha,1
#steinbaraka,1
@nicole_soojung,1
@govmikehuckabee,1
@mailonline,1
@wvdemocrats,1
@copsfortrump,1
@tipstoheal,1
@theavgblackman,1
@1200dude,1
@sensitivcontent,1
#wadr,1
#rudy,1
#design,1
#tcot,1
@mitchellreports,1
@cjwerleman,1
#justice,1
#corruption,1
@accuweather,1
@britneyspears,1
#politics,1
#bte210,1
@realscottposton,1
@nbcfirstread,1
@afp,1
@reuters,1
@allstate,1
@miamimama305,1
#campaign2016,1
@colmorrisdavis,1
#cnnnointegrity,1
#onlytrump,1
@diasudiana,1
@greenj,1
@markhalperin,1
@burgundyblog,1
@richardgrennall,1
@rudygiulianigop,1
@jamezdhawaii,1
@khankiso,1
#national,1
#dobetter,1
@newtgingrich,1
#adolphtrump,1
#bernieorbust,1
@chrissycmc,1
@mcc1lung,1
#deadbeatbillionaire,1
@fortunemagazine,1
@joenbc,1
@joshtpm,1
@gecarchitecture,1
@drlisalgbt,1
@overseerlewis,1
#media_chat,1
@donnawertz,1
@joekarce,1
#csforall,1
@iremtuncel,1
@markhlyon,1
#hardball,1
@bridgietherease,1
#sunset,1
@africanbproduct,1
#ailes,1
@salon,1
@noticiasrcn,1
#bullshit,1
@longwoodu,1
@idiplomacy,1
#election2016,1
@denismarkell,1
#nothirdterm,1
#curiousviewer,1
@ngeleyns,1
@znmeb,1
@alfonslopeztena,1
@dayswtweet,1
#biggestloser,1
@epgcon,1
@anthonyvveiner,1
@kbandersen,1
@bdcnetwork,1
@mariatcardona,1
@political_jeff,1
@unarosabianca13,1
@scottpelley,1
@vladduthierscbs,1
#education,1
#civics101,1
#health,1
@cnnsotu,1
#part,1
@benensonj,1
@patrioticpepe,1
#taxevasion,1
@jdkolassa,1
#peacethroughstrength,1
@davidlee8253,1
#brithumesnl,1
@lisskron,1
@defconws,1
@paohiofl,1
@z3pp3in,1
#presidentialdebate,1
@alexburnsnyt,1
@russiaconnects,1
@2alphabet6,1
#winelection2016,1
@nicholeb2000,1
@bosnerdley,1
@prioritiesusa,1
@dailykos,1
#lockherup,1
@njmorrissey,1
#clintonemails,1
@govscottwalker,1
@zantimisft,1
#timemagazine,1
@clairecmc,1
@ubipages,1
@weirdreport,1
@leahr77,1
@star1965,1
@lanataenel13,1
@jeffjarvis,1
@marlemiche,1
@hautedamn,1
#500pctinc,1
@suzannekelleher,1
@kevindarryl,1
@timwalker,1
@danney_williams,1
@davidbarstow,1
@chrismurphyct,1
#bigleaguetruth,1
@nickinnova,1
#easy,1
@jeffzeleny,1
#architecture,1
@ewerickson,1
@joeyyeo13,1
#nhsen,1
#blacklivesmatter,1
@jasonlacanfora,1
@joshohair,1
@tjemery1,1
@citizengatsby,1
#glory,1
@snazzybbq,1
@drbiden,1
@googlechrome,1
@chicagotribune,1
@jonalisag,1
#mediaalert,1
@timochenko_farc,1
@clarapluto,1
@vablue_,1
@braveheart_usa,1
@govbillweld,1
@karey1975,1
@itvnews,1
#shady,1
@faithbased92,1
@llorandofuego11,1
@obama4me2,1
@zesty_bernie,1
@upayr,1
@cbfowler,1
@danberman,1
#clouds,1
@paulkrugman,1
@amandahess,1
@richardweaving,1
@judgejeanine,1
@americangriffin,1
#cnn,1
#standingovation,1
@abc_es,1
@johnberman,1
#trumpwinning,1
@pcsbeard,1
@georgesoros,1
#jillnothill,1
#christianright,1
@yourtake,1
@doro6447,1
#newyork,1
@jahrulz247,1
@amymek,1
@buzzfeed,1
@miltshook,1
#trumpbusiness,1
#makeamericagrateagain,1
@hectorisfunny,1
@almanac,1
@jonhutson,1
#factcheck,1
@magicroyalty,1
#urbanism,1
@carmencrincoli,1
@_makada_,1
#demexit,1
#httr,1
@johnkerry,1
@necn,1
@flameforever1,1
@a3auntie,1
@jessicacavie,1
@serena_alway,1
@scottienhughes,1
@maggie_hassan,1
@mashable,1
@clarincom,1
#clintonscandals,1
@gdbaxter77,1
@porrasjulie,1
#edtech,1
@buzzfeedlgbt,1
@irshroz,1
#snlhost,1
@jkru1421,1
@joshschwerin,1
@deebeethak,1
#cheat,1
@moekamerow,1
@elinabeauchamp,1
@allinwithchris,1
@bikers4trump,1
@bradcooney1,1
@judydee47,1
#dingdong,1
@mikey74321craig,1
@senatorreid,1
@cnbcnow,1
@newshour,1
@wsjeurope,1
#cantmakethisshitup,1
@johnleguizamo,1
@allenwest,1
@latinos4bernie,1
@jane_coolgram9,1
@weirdnews__,1
@antdavisman,1
@harborsenior,1
@colvinius,1
@vanjones68,1
@hannity,1
#thefive,1
@arlethapappas,1
#hypocrisy,1
@walthickey,1
@lorax58,1
@steph_bello,1
@sunlenserfaty,1
@americaavenging,1
@dankois,1
#donald,1
@feelthebern11,1
@zac_petkanas,1
@neil_niru,1
@charlene_rallo,1
@riskreversal,1
#opdeny270,1
@pbs,1
@tea4freedom,1
#podiumgate,1
@bobbyannf,1
@taco_lad,1
@juanllanos,1
@jackie3p,1
@apgre004,1
@angiekay500,1
@texasarmymom18,1
#hillaryfalls,1
@espnnfl,1
@mlcalderone,1
@stevescalise,1
@floridagators,1
#6billiontaxpayerdollars,1
@dianafalzone,1
@stackpointer,1
@dasanil,1
@urnvrwrong,1
@polkpanther,1
@jimmykimmel,1
#never,1
@sophiabush,1
@traylo21,1
@jnovak_yemen,1
@rohitguptahpf,1
@pellett48,1
#potus,1
@bilkat1,1
@peterdaou,1
@floatentime,1
#businessman,1
@amazon,1
@doc_0,1
@kylegriffin1,1
@anitakumar01,1
@rogerjstonejr,1
#warthroughweakness,1
@mariamariaa7,1
@tracytracy52641,1
@aditisi93386013,1
@robbs_floyd,1
@bn9,1
#nationalsecurity,1
#donaldtrump,1
@stan4_america,1
@grnigrl76,1
#thatsamystery,1
@theresa_may,1
@missmandi00,1
#trumpunfit,1
@kimfrederi,1
@bbcnews,1
@davidadecbs58,1
@thelumineers,1
#snl,1
@darrenkavinoky,1
@kazmierskir,1
#safeflight,1
@ocweekly,1
@dbloom451,1
@tgowdysc,1
@orlandopolice,1
#boycottbiasedmedia,1
@tomllamasabc,1
@danschwerin,1
#neverhilary,1
@reverbpress,1
@senatemajldr,1
#liberals,1
@alisyncamerota,1
@hdot42,1
@km_gonzo,1
@thugnastyfysu,1
@amullins1joshua,1
@mjclaxden,1
#octobersurprise,1
@nubianawakening,1
@reformedbroker,1
@kenziegrl3,1
@bduncan975,1
#venezuela,1
@blueskynj,1
@davidwhitford,1
@susaneldridge1,1
#manypeoplearesaying,1
#corruptmedia,1
@chitownmike312,1
#theseal,1
@senatedems,1
@omearan,1
#debates2016,1
@midwesternmama2,1
@ang_yow,1
@alan_j_damulira,1
@harleycarnes,1
#urbandesign,1
@bmoschetti,1
@mamaofautistic,1
@tmz,1
#6billion,1
#corruptgovernment,1
#allofthem,1
@gfvamom,1
#hillaryclintonlost,1
@jryangolden,1
@rolandsmartin,1
@clewandowski,1
#keithlamontscott,1
@greta,1
@ghamilton1213,1
@hawaiidelilah,1
#s,1
@barracudamama,1
@clintonfdn,1
@lawrencereid08,1
#wearemad,1
@lynn24208753,1
#womenofcnn,1
@deleolojede,1
#fox,1
#tree,1
@eagle135a,1
#newt,1
@elpais_espana,1
@nawalf,1
@cynchazen,1
#stealing,1
@glennkesslerwp,1
@carolcnn,1
@jody_span,1
@micheltemer,1
@unipolitica,1
@dwstweets,1
@jennymanriquet,1
#cucknewsnetwork,1
@mittromney,1
#shape,1
@naacp,1
@abdu,1
#insensitive,1
#fluseason,1
@dave_figsz,1
@gogreen18,1
@mistypassions,1
#marginoferror,1
#america,1
@v_of_europe,1
@cnbcfastmoney,1
@mega2e,1
@soundcloud,1
@ericbolling,1
@stacybrewer18,1
@nickswagypyoung,1
#redskins,1
#latimespoll,1
#statedepartment,1
@alwayswinning1,1
#votetrump,1
@joemanchinwv,1
@reaganworld,1
@ironstache,1
@always_trump,1
@demosthns_locke,1
@jtsantucci,1
@teambrewer,1
@loudobbs,1
#solar,1
@tarasetmayer,1
#weseeyou,1
@redmasnoticias,1
@whitehouse,1
@nigelmcphearson,1
@_baylink,1
#dronestrike,1
@prettygirlsface,1
@halliejackson,1
@4x_clubchamp,1
@collegegameday,1
@taydiscus,1
#trumpsidiots,1
@johntmarohn,1
#truecolors,1
@abbyhughes1212,1
@skynews,1
@idesignwis,1
@hboulware,1
@lastword,1
@furt1v3ly,1
#pepe,1
@todayshow,1
#tatiana,1
#sos,1
@lostatcollege,1
#construction,1
@boy,1
#publicity,1
#mondaymotivation,1
@coinabs,1
@davidmuir,1
@padresteve,1
@chrisbdg34smith,1
@orangecosheriff,1
#lmfao,1
@buckfullerton,1
@postpolitics,1
@muradieuj,1
#read,1
#nhpolitics,1
@albanesejoe,1
@jamilahanan,1
@amrightnow,1
@stylistkavin,1
@ukrainetrain44,1
@magnifier661,1
@noturavgduck,1
#lyinmsm,1
@theeconomist,1
@forevertena,1
@realdonoldtrunp,1
@read_my_note,1
@univision,1
@nanaof4,1
#haitians,1
@garypolls,1
#sxsl,1
@amylt7215,1
@2011cth,1
@gkmtntwits,1
#biased,1
@friesenp,1
@drjillstein,1
@cnnarabic,1
@dealfatigue,1
@kanyewest,1
#pv,1
@jamesfallows,1
@surfermom77,1
#specialreport,1
@truthfeednews,1
#bringbernieback,1
@stephenfhayes,1
@thetruejeanette,1
@kirkherbstreit,1
@hale_razor,1
@berkfran,1
@flournoyfarrell,1
@emichaeltee1,1
@evanmcmurry,1
@mgcope,1
@realalexjones,1
@foxnewsalert,1
@rbrutti,1
#animalcruelty,1
#tantrumists,1
@davidcayj,1
@repseanduffy,1
@zuzi_64,1
@ingrahamangle,1
@politicalkiss,1
#colombia,1
#media,1
@ironghazi,1
@hellblazeraiser,1
@andynathan1,1
@briano_malley,1
@zunguzungu,1
@monicacrowley,1
#sky,1
@elmundoes,1
#edchat,1
#dumpdemocrats,1
@drudge,1
@gjosephson1,1
@lolgop,1
#financialabuse,1
@girlsreallyrule,1
#superpredators,1
#thanksbernanke,1
#julianassange,1
@cnbci,1
@justeric,1
@alexsmith2995,1
@ronwyden,1
#urbanplanning,1
@dds82711,1
@katebolduan,1
@maryluvmarc,1
@stevehind,1
@pitbull,1
#secretaryofstate,1
@nycsouthpaw,1
@frates,1
#queenoffaslepromises,1
@mamamadisons,1
@fhollande,1
@uf,1
@wbrcnews,1
#notmeus,1
@marcacaputo,1
@stormhour,1
#truthbombs,1
#period,1
@nickkristof,1
@forbes,1
#election,1
#crooked,1
@johnbiscijr,1
@hillaryforfl,1
@danaperino,1
#jamescomeyresign,1
#proudveteran,1
#wakeupamerica,1
@ludacristiano,1
@iancosgrove,1
@spotify,1
@weatherchannel,1
#wrong,1
@alexwagner,1
@thisweekabc,1
@zwmartin,1
@sinderbrand,1
@john_keim,1
@slandinsocal,1
#newengland,1
#jefflord,1
#tb,1
@erickkruger,1
@treygowdy2016,1
@bloomberg,1
@eloquentspur,1
@joshyaz,1
@jelanistyles,1
#nodana,1
#vets,1
@johnthecho,1
@peteandsuszy,1
@juicesaysthis,1
@democracynow,1
@rickklein,1
@1954candanga,1
@dylan97obrien,1
@stockguy61,1
@swiftonsecurity,1
@vivalaames,1
@mikandynothem,1
@oreillyfactor,1
