Hashtag,Total Count
#vpdebate,1849
#pjnet,868
@realdonaldtrump,860
@timkaine,696
#cosproject,395
@mike_pence,383
#maga,351
@hillaryclinton,349
#termlimits,341
#debates,256
#basementdwellers,241
#imwithher,231
#hillary,191
#tcot,182
#superpredators,180
#trump,178
#neverhillary,170
#trumppence16,156
#pence,155
#tacobowls,154
#trumptrain,145
#kaine,144
@susiesentinel,135
@nbcwashington,131
#timkaine,126
#nbc4dc,125
@jnelson52722,123
#nevertrump,116
#vpdebate2016,96
#crookedhillary,92
#hillaryclinton,90
#basketofdeplorables,86
#nra,84
#deplorables,76
#strongertogether,76
@joshtpm,76
#2a,75
#debates2016,72
#ccot,71
#renewus,69
#trump2016,69
@teamtrump,69
@govpencein,66
#vets,64
#termites,64
#whitetrash,63
#sot,61
@voxdotcom,58
#mikepence,54
#latinosfortrump,51
#makeamericagreatagain,51
#benghazi,50
#blacksfortrump,47
@sahilkapur,40
@foxnews,40
@cnn,37
#clintonkaine2016,37
#bigleaguetruth,37
#wakeupamerica,36
#shesnotfit,36
#debatenight,35
#vpdebates,34
#blacklivesmatter,34
@ustermlimits,33
#supportourtroops,33
#dogloversforhillary,32
#clintonfoundation,32
#millennialsforhillary,31
#lovetrumpshate,31
#veterans,31
#clinton,30
#america,29
#paytoplay,28
#cnn,27
#americafirst,27
#votetrump,27
#lockherup,26
#millennials,26
#usa,26
#military,26
#makemomproud,26
#cruzcrew,25
#blm,25
@cbsnews,24
@sunbeltgirl,24
#nofoxesinthehenhouse,24
#nationaltacoday,24
#honorourveterans,24
#election2016,24
#followthemoney,24
#clintonkaine,23
#wakeupwisconsin,23
#berniesbaristas,23
#indies,22
#bernieorbust,22
#womenfortrump,22
#gop,22
#imwithtim,22
@kellyannepolls,22
#tpp,22
#neverpence,21
@lily_v_shtupp,21
#dncleaks,20
@gop,20
#guccifer2,20
#trumppence2016,20
#donaldtrump,20
#foxnews,20
#blackvotesmatter,19
#hillaryshealth,19
#imwithker,19
#hrc,19
@newyorker,19
#kainemeltdown,19
#debate,19
@msbetsyross,18
#ohio,18
#obama,18
#clintonscandals,18
#redfriday,18
#msnbc,18
#kainevspence,17
#hannity,17
@cernovich,17
@mikepencevp,17
#berniebaristas,17
#vicepresidentialdebate,16
#trumpsarmy,16
#ptsd,16
#creepykaine,16
#latinos,16
#hillarys,16
#demexit,15
#uniteblue,15
#gunsense,15
#fraud,15
@jstines3,14
#sheisnotfit,14
@hfa,14
@marklawlesslc,14
#basketofdeplorabes,14
#gunrights,14
#gunfail,14
#billclinton,13
#feelthebern,13
@nycmia,13
#dumptrump,13
#rednationrising,13
#bluelivesmatter,13
#voteblue,13
#guns,13
#p2,13
#cpsproject,13
@elisac006,13
#hillary2016,13
#trumptaxes,12
#navy,12
#latinoswithtrump,12
#pencekaine,12
#liberal,12
#clintoncrime,12
#sovereignty,11
#tlot,11
#florida,11
#cbs,11
#army,11
@seanspicer,11
#trivone,11
#guncontrol,11
#abc,11
#veteran,11
#ocra,11
#nbc,11
#blacks4trump,10
#killary,10
#prolife,10
@nbcnews,10
@roadkingl,10
#trumpsterwarriors,10
#sov,10
#obamacare,10
#shelied2us,10
@politico,10
#stopandfrisk,10
#imwiththem,10
#trumpeduptrickledown,10
@thedailybeast,10
#bluehand,10
#dncleak,10
@yellowribbonsun,10
@dancarty5,9
#clintoncash,9
#neverkaine,9
#news,9
@mikepence,9
#democrats,9
@danmartin_cards,9
#redohio,9
@1lilybug,9
#teaparty,9
#jewsfortrump,9
#wethepeople,9
#berniesanders,9
@catwahler,9
#blacktwitter,9
@elaine_quijano,9
#trumpfoundation,9
#hillarysemails,9
#evangelicalsfortrump,9
#trumppence,9
#yeswekaine,9
@youtube,9
#familiesfirst,9
#racist,9
#criminal,9
#truth,8
#1600team,8
#copolitics,8
#leos,8
#wallstreet,8
#racisthillary,8
#breitbart,8
@msnbc,8
@homer1051,8
@donaldjtrumpjr,8
#communitypolicing,8
@megynkelly,8
@bigdog_joey,8
#shesnotliked,8
#votetrump2016,8
@cliffwilkin,8
#militarymonday,8
#hiphopawards,8
@seanhannity,8
@vote4kasich2020,8
#democrat,8
#wbrcandme,8
#hillaryforprison,8
#crooked,8
#taxes,8
#lationswithtrump,8
#1a,8
@mitchellvii,8
#vp,8
@patriototus,8
@gbroh10,8
@cosrally,7
@texasshebandit,7
#octobersurprise,7
#deplorable,7
@thedemocrats,7
#potus,7
#liar,7
@loudobbs,7
#notwithher,7
#bimboeruptions,7
@wiggerslynn,7
@potus,7
#kellyfile,7
#donthecon,7
#soldiers,7
@joebiden,7
#americans,7
@patriotjewelusa,7
#wakeupwi,7
#makeamericasafeagain,7
#va,7
@redsteeze,7
#women4trump,7
#longwooddebate,7
@cindyforliberty,7
#basketofadorables,7
#pestcontrol,6
@nfl,6
#articlev,6
#lies,6
#jillnothill,6
#hispanicsfortrump,6
#whereshillary,6
#lnyhbt,6
#vote2016,6
@bigkrit,6
#wikileaks,6
@danscavino,6
@ingrahamangle,6
#krazykaine,6
@reince,6
#loser,6
@judgejeanine,6
#msm,6
@kentremendous,6
#iowa,6
#vote,6
#jobs,6
#airforce,6
#poorlyeducated,6
#hillarylies,6
@robinbirdie316,6
@cosiskey,6
@waynedupreeshow,6
#dems,6
#rude,6
#togetherwewin,6
#hillarycheats,6
@berniesanders,6
#marines,6
@drsuedvm,6
@foxbusiness,6
#us,6
#pencevskaine,6
#killer,6
#warriorwednesday,6
#hillaryliesmatter,6
@dansch2002,6
#socialsecurity,6
#untiltheyallcomehome,6
#2ndamendment,6
#superpredator,6
#troops,6
@fredbookmann,6
@tesumner,6
#police,6
#sickhillary,6
#video,6
#haiti,6
#taxreturns,6
#jillstein2016,5
#timwon,5
#hillaryshacker,5
#northcarolina,5
#gopencego,5
#waronwomen,5
#trumparmy,5
#basementdweller,5
@veteran4trump,5
#kane,5
@2afightr,5
@c0nvey,5
#insiderstotrump,5
@doug_39,5
@goal1321,5
@wikileaks,5
#cokaine,5
@godgunsgutsllc,5
@abc,5
#bringthemtoheel,5
@marvel0usjesus,5
#honorourfallen,5
#bimbos,5
#trumpstrong,5
@java_penguin,5
#releaseyourtaxes,5
@chrislhayes,5
#sethrich,5
@marshahorn66,5
#money,5
#stupid,5
@tacobell,5
#shelied2congress,5
@johnfromcranber,5
#iamwithher,5
@toad6386,5
#racists,5
#speechs,5
@kaepernick7,5
#bigots,5
#welcometweet,5
#politics,5
#imwithkaine,5
#tacotuesday,5
#cleveland,5
#alllivesmatter,5
#unbornlivesmatter,5
@3tags_org,5
#immigrantsfortrump,5
@nvr4get91101,5
#neverforget,5
#emailgate,5
#hillarywon,5
#trumptaxreturns,5
#poverty,5
@amongthedeadtm,5
@mariatcardona,5
#education,5
#feelthekerm,5
#bozo,5
@network_citizen,5
@nra,5
@rogerjstonejr,5
@ap,5
@ericbolling,5
@bpolitics,5
#texas,5
@billclinton,5
#independents,5
#media,5
#tgdn,5
#pittsburg,5
#dnc,5
#nevertrumpers,4
@usaherosalute,4
#muslimbrotherhood,4
#berniesupporters,4
#women,4
#defeatgop,4
#factcheck,4
#kreepykaine,4
@franklin_graham,4
#bernie,4
#indies4trump,4
#cuckkaine,4
@txgundiva,4
#basementofdeplorables,4
@evan_mcmullin,4
#hispanics,4
#corrupthillary,4
@drewklemp,4
@hughhewitt,4
#watchwhsv,4
#radicalislam,4
@jonfavs,4
#rnc,4
#nomorelies,4
@randyrainbow,4
@kimberlyypolk,4
#ss,4
#freedom,4
#gun,4
#kain,4
#emails,4
#insider,4
#guncontrolnow,4
@angela_rye,4
@dougkass,4
#tacobowl,4
@drjillstein,4
#democratsfortrump,4
#sheswithus,4
#ccl,4
#blah,4
#jesus,4
@jan_pierce,4
#electionday,4
@onlyjeanseixasm,4
#blackfortrump,4
@bikininmaine,4
@elizabethforma,4
#hardball,4
@paulbegala,4
#teamtrump,4
#superpredatorhillary,4
@marylene58,4
#breaking,4
@ajdelgado13,4
@ztracer,4
#scartissue,4
#demhistory,4
#johnsonweld2016,4
#pencehomophobiatour2016,4
#cbsnreax,4
#2nddist,4
#medialies,4
@jerry_sypek,4
@facethenation,4
#economy,4
@dds_62,4
#akron,4
#veteranslivesmatter,4
#doyourjob,4
#maddow,4
#racistdems,4
@ophirgottlieb,4
@julieroginsky,4
#teamgov,4
#ncat,4
#ants,4
@frankluntz,4
@gofaithstrong,4
@barackobama,4
#donate,4
@iamdiddy,4
#lgbt,4
#democratic,4
#wakeupwash,4
#moderator,4
#gunviolence,4
#black,4
#millennialsfortrump,4
@kellyjclauss,4
#louisianaflood,4
#molonlabe,4
@myrights1791,4
#job,4
#shitshow,4
@jaketapper,4
@marcogutierrez,4
@harlan,4
#rally,4
#billsvictims,4
#rapist,4
#thankavet,4
#millennialsvsgenx,4
@alyssa_milano,4
@shanegoldmacher,3
#kainesbutt,3
@breitbartnews,3
#decision2016,3
@goldstar_holstr,3
#morgue,3
#phonycalm,3
#unions,3
#dumpryan,3
#ac360,3
@kngmusic_kng,3
#lgbtq,3
#cbsnews,3
#berners4trump,3
#libtard,3
@chaplaintaylor,3
#p4us,3
#latinovotesmatter,3
@jamy208,3
#trumprally,3
#clintoncorruption,3
#shutupkaine,3
#unhingedtim,3
@cosprojectfl,3
@telemundo,3
#hillarysarmy,3
#bleachbit,3
#peoplewehate,3
#millenials,3
#bovine,3
@bentschwartz,3
#incorrectly,3
#dipped,3
#abortion,3
#sickening,3
#facepalm,3
#sugahkane,3
@scripture_truth,3
@darkvoid255,3
@mswarrior55,3
#spiders,3
#votehillary,3
@thehill,3
#iran,3
#blackhistorymonth,3
#toastymctoasterson,3
#vagina,3
#ampat,3
#pencewon,3
@injuryexpert,3
@heatherplonski1,3
#timekaine,3
@msavaarmstrong,3
@usnavy,3
#yourefired,3
#winning,3
#corruption,3
@routwithashout2,3
#nightmare,3
#crookedclinton,3
#racerelations,3
@summersmile16,3
#middleclass,3
#basketofdepolorables,3
#rape,3
#joke,3
#pennsylvania,3
@trinitysfaith,3
@milletisraeli,3
@kingjames,3
#losers,3
#handcuffhillary,3
#prochoice,3
#octoberclownkaine,3
@ananavarro,3
@georgetakei,3
#corruptmedia,3
@drudge_report,3
#demplantation,3
@dloesch,3
#timkane,3
@trufelman,3
#payforplay,3
#basements2016,3
@garretdillahunt,3
#thatman,3
@christianinst,3
@commoncause,3
#hillyes,3
@ezraklein,3
#bs,3
#blackvote,3
#douchebag,3
#letpencetalk,3
@mcuban,3
#militaryfamily,3
#democratsarenuts,3
#clintons,3
@mviser,3
#donsdiary,3
#lovetrump,3
#usmc,3
@borisep,3
#analwarts,3
#loonytoon,3
#ctot,3
@faithgauge,3
#kainescrazycatepillareyebrows,3
#lying,3
@jguybee,3
#voteyourfuture,3
@donaldtrump,3
#demented,3
@2a,3
#criminaljustice,3
#ff1776,3
#kainewon,3
@twitter,3
#msmpropaganda,3
#idiot,3
#cow,3
#miami,3
@cosproject,3
#globalizm,3
#tytlive,3
#liberalsareidiots,3
#libya,3
@davidaxelrod,3
#makedclisten,3
@jackposobiec,3
#mwds,3
#inequality,3
@diamondandsilk,3
#trumpcampaign,3
#indicthillary,3
@nancypelosi,3
#godhelpamerica,3
#obamanation,3
#bigkrit,3
#rodents,3
@greggutfeld,3
#bengazi,3
#ncat17,3
#protectandserve,3
#soroscorruption,3
#virginia,3
#holster,3
#normal,3
#tiot,3
#geniuses,3
#libtardnation,3
@peterdaou,3
#trump16,3
@patriotginger,3
@sheriffclarke,3
@lainey34210,3
#usaflag,3
#imwithkermit,3
#madcowdisease,3
@swalts4,3
@yahoonews,3
#war,3
#basketdwellers,3
#makehillarybrokeagain,3
@taydark_77,3
#trumpteam,3
#history,3
#elainequijano,3
@christians_amer,3
@awebbiz,3
#ciot,3
#ya4hillary,3
#daddebate,3
@frances_d,3
#pos,3
#cigars,3
#taxdodgingdonald,3
#doj,3
@speakerryan,3
#hitlery,3
#voter,3
#thinblueline,3
@nerdette,3
@lesterholtnbc,3
@terigright,3
@nubianawakening,3
#justice,3
#life,3
#kaineoctoberclown,3
#pencefail,3
@davidcorndc,3
#libtards,3
@2ndamendmnt,3
#wakeupnewmexico,3
@wildauburnrebel,3
@thestreet,3
#neverdrumpf,3
@buzzfeed,2
#ohhillyes,2
@elmash16,2
@kylekulinski,2
@donnabrazile,2
#hillarysamerica,2
@gerfingerpoken,2
@trish_regan,2
#schools,2
#bono,2
@letitelemundo,2
@reuters,2
#vote4change,2
#lovingmylord,2
@southboulder,2
@abbymartinm,2
#camera,2
@arappeport,2
#moron,2
#oapolitics,2
@mygirl971,2
@drtonyevans,2
#milspouse,2
#godblessourmilitary,2
@time,2
@amtrump4pres,2
@marketwatch,2
@vanbadham,2
@aldotcom,2
@angelmaximilan,2
@chillipipers,2
@keitholbermann,2
#debatewithffl,2
#openquestion,2
#nevertimkaine,2
@jedediahbila,2
@repstevensmith,2
#notyourfirewall,2
@bethmsh_,2
#clinton2016,2
@ernihaesloop,2
#shutuptimkaine,2
#magic,2
#heals,2
#lawandorder,2
@gerfingerpoken2,2
#undecided,2
@mwrightbaylor,2
@m0l0nl4be,2
@shellykennisto1,2
#crazykaine,2
@jafpro_16,2
@mrbelvidere,2
@joknowles,2
#fothermucker,2
@politicususa,2
@mgahannon,2
@chucktodd,2
#mansonfamily,2
#hispanic,2
#finishthejob,2
@sharonj44257163,2
#murro,2
#crookedkaine,2
@anniewu216,2
#circle,2
#emailscandal,2
@jeffbull5,2
#abortionismurder,2
#prisonsforprofit,2
@mattgertz,2
@latinosfortrump,2
#makehistory,2
#kaineisunable,2
@savvyhuman,2
#ebay,2
@wltaskforce,2
#ferguson,2
@naomifionas,2
#staywoke,2
#iraq,2
#buildthewall,2
#ny,2
@lindasuhler,2
@floridaforhrc,2
#taxgate,2
#nada,2
#pathologicalliar,2
#kaineshutup,2
#death,2
#virginia4democrats,2
#homophobic,2
@sensanders,2
#neglecteddaughters,2
#clownsighting,2
#raffle,2
#patriotic,2
#richmond,2
#minnesota,2
#shelied2you,2
#trumpiswithus,2
#motivate,2
@juliecareynbc,2
@smshow,2
#usarmy,2
@mrctv,2
@cspanwj,2
@mebabihutan,2
#honorourvets,2
#cain,2
@ericboehlert,2
@cspan,2
#spokane,2
@bretbaier,2
@hoperae,2
#tucson,2
@govgaryjohnson,2
@govmikehuckabee,2
#trolls,2
@telemundouy,2
#millenialsfortrump,2
#clintonnewsnetwork,2
#twisters,2
#dumpdadems2016,2
#latinosconhillary,2
@usmc,2
@teamcavuto,2
@terrancecreamer,2
@therickwilson,2
#podium,2
@sdv92,2
#pantsuitpower,2
#dumbass,2
#takeastand,2
@cnm_michael,2
@thchristianwalk,2
#imnotwiththem,2
@margokingston1,2
@shooters_wife,2
#cva,2
@trumpwhitehouse,2
#idiots,2
#americansfirst,2
#clintonway,2
@kayleighmcenany,2
#scorpions,2
@veteranonmove,2
#honorthem,2
@mackeytweets,2
#kookykaine,2
#shelied2fbi,2
@upworthy,2
@ggeett37aaa,2
#monicalewinsky,2
#psu,2
#nkorea,2
#birds,2
#imwithhernow,2
#good,2
@kfile,2
@wreathsacross,2
@wpjenna,2
@blissco1,2
#nextpotus,2
#moralrevival,2
@maria4america,2
@danmalloyct,2
@huffingtonpost,2
#hillarysearpiece,2
@a_strezh,2
#infrastructure,2
#krypton,2
#equalrights,2
@maddow,2
#fairtax,2
@dan_lafrance,2
@jennifelindell,2
#imnotwithher,2
@adbell45,2
#god,2
#takingbackthefrog,2
#isis,2
@abcpolitics,2
@lauren_southern,2
@cracked,2
@kermitthefrog,2
#hilaryclinton,2
#usairforce,2
#liberals,2
#americanlegion,2
#zilch,2
@scottpresler,2
#usnavy,2
@vivienlchang,2
@senwarren,2
#i,2
#___,2
#virginiatech,2
#womencarry,2
@ddale8,2
@yahoo,2
#greenisgood,2
#silverfox,2
#hillaryforprison2016,2
@bsvlmj,2
#rockthevote,2
#clintoncollapse,2
@cnnpolitics,2
#corruptgovernment,2
#ssa,2
@chelseaclinton,2
@nativetatanka,2
#kayne,2
#entrepreneur,2
#pepe,2
#lesterholt,2
@foramerica,2
#immunitypolicing,2
#obamafail,2
#tko,2
#militarylife,2
@curtlandrymin,2
@ajamubaraka,2
@justinbieber,2
#elevate,2
#bringbernieback,2
#mmhonorflight,2
@mkapor,2
@jennyprimas,2
#hypocritehillary,2
#disgusting,2
@amy_siskind,2
#ccw,2
@cdterfy,2
#17time,2
@saraturner19,2
@slone,2
#rudekaine,2
#longwooduniversity,2
@stoptrumpin16,2
#failedtaxaudit,2
@ryansinger3,2
#veterans4trump,2
#garyjohnson,2
#clown,2
@britt___jo,2
@debalwaystrump,2
@name,2
@treehuggingsis,2
#wakeup,2
@reignsfreedom,2
#kandykaine,2
@verumestliberta,2
@allbrightnfl,2
@hillary_hq,2
@proudinfidel33,2
#momentormovement,2
#bees,2
#millennialtalk,2
#takebackthefrog,2
@searchwithgod,2
#hillaryspuppet,2
@lisamarieboothe,2
#lawenforcement,2
@appraiser119,2
@newtgingrich,2
#unhinged,2
@aarp,2
#therealcompetition,2
@rosie,2
@nytimes,2
@prdblckrpblican,2
#ivotepence,2
#vote4families,2
#armystrong,2
@mattortega,2
#leanright2016,2
#yousuck,2
@kk4me2,2
#lord,2
#smoker,2
#riggedsystem,2
#amen,2
#silentmajority,2
@joemygod,2
@amandageaney,2
@rockprincess818,2
@washingtonpost,2
#latino,2
@polling_station,2
#hugavet,2
#moms,2
#paid,2
#clintoncrimefamily,2
#hrc_parkinson_disease,2
#warofwords,2
@vpdebate,2
@patvpeters,2
#trash,2
@chucknellis,2
@americamag,2
@andersoncooper,2
#vote4security,2
@along_w_jesus,2
#socialmedia,2
#large,2
@miigwanikwe,2
@usarmy,2
@consmover,2
#unionproud,2
#apprentice,2
#facebook,2
#thief,2
#micdrop,2
@roxannelwright,2
@detective4life,2
#rfra,2
@brithume,2
@garrisonbaker,2
@todayshow,2
#periodsforpence,2
#getatermiteinspection,2
#polls,2
@scottadamssays,2
#colorado,2
#constitution,2
@sharethis,2
#myvote,2
#bloodmoney,2
#children,2
#racialjustice,2
#kkk,2
@love4military,2
#selfdealing,2
@jaime_wiebel,2
@the_magic_m,2
#queenofcorruption,2
#getridoftheproblem,2
@ms_erika74,2
#trumpence16,2
@politixgal,2
@angelmom337,2
#obamalegacy,2
@margaretmcgui16,2
@revdrbarber,2
@doubledowndon,2
#statesman,2
#haitians,2
#tunnels,2
#kryinkaine,2
#pencemustgo,2
@thejuanwilliams,2
#exodus,2
#sexualabuse,2
@realjeffreylord,2
@wendelld365,2
@kockaannette,2
@pkellstedt,2
#saturdaysalute,2
#nevergop,2
#syrianrefugees,2
@sexyliberaltour,2
#zip,2
#billclintons,2
@maggienyt,2
@mmhonorflight,2
#americanpeople,2
#pa,2
#timinterruptingkaine,2
#lyingpress,2
@renrem86,2
#fl,2
@opgratitude,2
@jaxsaxman,2
@aardvarkblue,2
@donlemon,2
#neverhillaryortrump,2
#progressive,2
#hillarystrong,2
#dav,2
@sharonepack,2
#insects,2
@rmcmartino1,2
#kaineisadouchbag,2
@hardballchris,2
#freepepe,2
@jlo,2
#paidfamilyleave,2
#vfw,2
@shellyfoster13,2
#accused,2
@slappywhyte,2
#hillarykaine2016,2
#mfdebates,2
#newyorktimes,2
@tiffanyatrump,2
@certifiedtpc,2
#gjesus,2
#tshirt,2
@standupanne,2
@yongyuan0162,2
#makeamericahate,2
@dibie_joy,2
#godblessyouforbeingpublicservants,2
#teamkermit,2
@vote_hillary,2
@ac360,2
@kristenvbrown,2
@wsj,2
#jumptheshark,2
@anitadwhite,2
#mygodpenceisasbigaliarastrumpis,2
#backgroundchecks,2
@usafreedomkids,2
#ignorant,2
@_makada_,2
@wdfx2eu7,2
#bully,2
#boycott,2
#clintontaxes,2
#unfit,2
#alinsky,2
@jw_branding,2
#hillno,2
@freedomchild3,2
@johnastoehr,2
@latinovoices,2
#impeached,2
@nimblenavgater,2
#nevertrumppence,2
#packrats,2
#neverhilary,2
#issues,2
#lsu,2
#abolishirs,2
#bigotpence,2
#africanamericans,2
#whywhywhy,2
#kimkardashian,2
#stupiddemvoters,2
#laughattrump,2
#bugs,2
@jlrowe,2
#victims,2
#aca,2
#irs,2
#ourrevolution,2
@dj1darrell,2
#vpdebte,2
@strategysmith,2
#pencewins,2
#greenenergy,2
#elaine,2
@conservesq,2
@reagancoalition,2
#creepyclown,2
#basement2016,2
@v2vdigitalfilms,2
#gaysfortrump,2
@bostonglobe,2
#noh8,2
@365prayingforu,2
#irredeemables,2
@flightspice,2
@berniedoesit,2
#racebaitinghillary,2
@brothersnarmsus,2
#achaia,2
@chrisamccoy,2
#vigil,2
#whoscounting,2
@kevindmcalister,2
@momspennies,2
#lgbtfortrump,2
@drdaveorts,2
@thomaskeister,2
#blackprotest,2
#insanekaine,2
#dimbulbbiden,2
@rrtaylor52,2
#bigeasy,2
#timcaine,2
#teamhillary,2
@laratelemundo,2
@lauracgilleslil,1
#misogyny,1
@dissentingj,1
#rudyguliani,1
@npr,1
@luvsalimkhan,1
@crooksandliars,1
#kainestfu,1
#blackcommunity,1
@melissaafrancis,1
#carelesshillary,1
#jessejackson,1
#steals,1
#dumpthedems,1
#taotrucksonevery,1
#4yearolds,1
#clintonliesmatter,1
@hcdems,1
#smidayton,1
@trumpwelikeyou,1
#drumpf,1
#singlepayer,1
#world,1
#vpdebates2016,1
#therealdonaldtrump,1
@d_perry23,1
@mitchellreports,1
#screensaver,1
#johar,1
@brucewolfchi,1
#medicalteam,1
#deleteyouraccount,1
@johnsonweld2k16,1
@kodie2038donna,1
#newhampshire,1
#laws,1
#waar,1
#agentorange,1
@amlookout,1
#nvsparklers,1
#clowns,1
@adirado29,1
#spreadpositivity,1
#muslim,1
#trumptheloser,1
@dlp2155,1
@jerome_corsi,1
#stopstopandfrisk,1
@rickthomas23,1
#nursing,1
@blackwomen4bern,1
#trumppuppet,1
@dailytelegraph,1
@janda10001,1
#crimeboss,1
#mimethreat,1
#helpus,1
@cr,1
@catherinehanse5,1
@jimdog50,1
#tax,1
#unwedmothers,1
@2relle_two5,1
@king_richard420,1
@janson_chris,1
#promoting,1
#confidential,1
#pencegotthis,1
#vascandal,1
@marymorientes,1
#september11attacks,1
#infrstructure,1
@dianabialkowski,1
@montel_williams,1
@binjoans,1
#themovement,1
#cuckaine,1
#trumptaxevasion,1
#marxist,1
@warsong,1
#morningjoe,1
@hillary_esp,1
@nanagsfunkyjunk,1
@jessiejaneduff,1
@lgbtfortrump,1
@dale_je,1
#banobama,1
@patrioticpepe,1
#nopoliticalcorrectness,1
#multiple,1
#documentthevote,1
#galco,1
@adubs1,1
#uneducated,1
#blackcomb,1
@mharrisperry,1
#libcrib,1
@nii_sarpei,1
#annoyingtim,1
#viletrump,1
@uvicreligionews,1
#kainehasamangina,1
#reddawn,1
#clintonemails,1
#sanantonio,1
@lindaleep,1
#highertaxes,1
@ignu,1
#boston,1
@pmgeezer,1
#learn,1
#fwpsproud,1
#incloset,1
@jedbartlet_,1
#rich,1
#payorplay,1
@robreiner,1
#itsamovement,1
#ivote,1
@americanewsroom,1
#falseequivalences,1
@theview,1
@presstmc,1
#stopislam,1
#militarymon,1
@wusa9,1
@steigerworld,1
#militarycontractors,1
@glambertoo1,1
#tinkaine,1
#pencethebigot,1
#epic,1
#imfixintochangethischannel,1
#weaselpence,1
#unitedstatesarmy,1
@bryantripoli,1
@chloegmoretz,1
@marilynaedmonds,1
#trailerpark,1
#madeinamerica,1
#2adefender,1
#honor,1
@winston_truth,1
@monodi,1
@georgelopez,1
#releasethetranscripts,1
#gunowner,1
#rudy,1
@itsareckoning,1
@incognito912,1
#hiring,1
@joyinthesmokys,1
@battlehamster1,1
#republicans,1
#neverhiliary,1
@zandywithaz,1
@trump4nc,1
#policeshootingsmuststop,1
#gadaffi,1
@realvictornor,1
@trump_videos,1
#cospoject,1
#demeaningwomen,1
#lookinthemirror,1
@getkesocial,1
#newyork,1
#screw,1
#collegeeducated,1
#uslatino,1
#americaisalreadygreat,1
#goodmusic,1
@dotlogica,1
#deletedonald,1
#defundun,1
@jodipicoult,1
@i_am_thechange,1
@bwteim,1
#letmcmullindebate,1
#virgina,1
@joncordova,1
#multi,1
@umdhgic,1
#aheartbeataway,1
@jc1hopekn,1
#thissucks,1
#deletedemails,1
@jacobnbc,1
#sorude,1
#clownlivesmatter,1
#atlanticbeach,1
@martharaddatz,1
@kevinjacksontbs,1
#cheats,1
@jmpalmieri,1
#veepdebate,1
#immigrationvoter,1
@laurajsilverman,1
@chuck090672,1
#reasonableminded,1
@dtrastikeville,1
@thepatriot143,1
#nation,1
@joemoor33349838,1
@eirichjennifer,1
#womenvote,1
@ckparrot,1
#elitistsnob,1
#righthandperson,1
@nikkitur,1
@washtimes,1
@ron_christie,1
#americanmovement,1
#getaclue,1
@quietcypher,1
#goldmansachstranscripts,1
@katmargdemp,1
#_,1
#toodangerous,1
#toxic,1
@dailydot,1
#obstructionofjustice,1
#artknb,1
#intelligence,1
@schweinehund74,1
#votesmatter,1
@wrproj,1
@youngcons,1
#honesty,1
#releaseyourtaxrecords,1
#donald,1
#bankruptcy,1
#christianity,1
#cheaters,1
#louisfarrakhan,1
@luvredwhiteblue,1
@kylekrac,1
#whocares,1
#or,1
#christian,1
#superdildos,1
#conservatives,1
@zachgoeswest,1
#ia,1
@neverhillary,1
#howgross,1
#oh,1
#trump45,1
@phil200269,1
@hillaryformn,1
#moreofthesamekaine,1
#oldglory,1
#dads,1
@melissa_marr,1
#feistypence,1
@worldnetdaily,1
@jumaanewilliams,1
@longhorn_fb,1
#cripthevote,1
#youthvote,1
#solidrock,1
@sophiabush,1
@nprpolitics,1
#melan,1
@tex2westseattle,1
@petermcourtis,1
@navysealmuseum,1
@flipboard,1
#kainesscartissue,1
#liberofascists,1
#karenrebels,1
#sisters,1
#keeptrumpofftwitter,1
#trumpforamerica,1
@peachkhope,1
#nohillary,1
#unfinished,1
@monakatoils,1
#muppetmemes,1
@whylienews,1
@halmay,1
#restingniceface,1
@happybreadstick,1
#dadsfortrump,1
#egypt,1
#landslidevictory,1
#detroit,1
#crime,1
#densewithpence,1
#kingofdeplorables,1
@wapothing,1
#phoenix,1
#clintonchildrensbooks,1
@huylerje,1
#blacklives,1
#hillbilly,1
@timefortruth16,1
@12yr,1
@greenpartyus,1
@jimlibertarian,1
@cutlip98,1
#hbo,1
#ilikemike,1
#hypocrites,1
@truthtrainradi0,1
#kipdynamite,1
#trumpnotqualified,1
#sheswithher,1
@cassandrarules,1
@newpaltzvets,1
#armynav,1
@yuuge_trump_fan,1
@algore,1
#podsix,1
@schickrm,1
#tppanoway,1
@schwanksta,1
#releasingtaxes,1
#maine,1
@tunein,1
@deborahrogan,1
@militaryearth,1
#nothing,1
#bbc,1
@giantsweettart,1
@trump2016,1
#doglovers,1
@screamngeagle,1
@juliancastro,1
#globalization,1
@zaxobumylijo,1
#senatorkaine,1
#dogs,1
#evillair,1
#blackjobsmatter,1
@jwfhillary,1
@blackvotersmatr,1
#cane,1
#corrupt,1
@clintonfdn,1
#emergencyindelhi,1
@youranonnews,1
@secupp,1
#twopeasinapod,1
@geraldorivera,1
@onejesusloves,1
#noclasskayne,1
#mentalillness,1
@happeningnow,1
@chasingnews,1
#careerfair,1
@gabe1925,1
@realwarriors,1
#nojusticenopeace,1
#sec,1
#yawn,1
#clintonkane,1
@bc_tripleclicks,1
#socialists,1
#breakingnews,1
#hometurph,1
#floridachristians,1
#krustykaine,1
@readonaldjtrump,1
@mollybrown28,1
#lmwithher,1
#milleniums,1
@thefix,1
@pmduarte,1
#nyspen,1
@alaskan3401,1
@fdg_brewster,1
#europe,1
#ditchandswitch,1
#olloclip,1
#electionseason,1
#dogsatdinner,1
@iowa_trump,1
#veep,1
#votingtrump,1
@lademos,1
#occupy,1
#stfu,1
#overheating,1
#trying,1
#recognize,1
@mrdane1982,1
#clintoncrimes,1
#ourfutureveep,1
#cgi,1
#mathematics,1
#baristas,1
@numbersmuncher,1
#includingvets,1
#oathkeepers,1
@pourquoinon,1
#vetsrising,1
#bitterclingers,1
#itstime,1
#mondaymotivation,1
#3dfigurer,1
@paytoplay,1
#clownshow,1
#hahahahahalolololll,1
#chill,1
#nobullies,1
@toddstarnes,1
#nv,1
#nt,1
#custom,1
#nc,1
@didimond,1
@oliviercousinie,1
@larrylnichols,1
#nm,1
#nj,1
@thetrumptrain,1
#supportpolice,1
#hillaryisfake,1
#getaneducation,1
#imwithtime,1
@azcardinals,1
@althiaraj,1
#deception,1
#hemp,1
#hilla,1
#over,1
@adamparkhomenko,1
@halleybordercol,1
@yournewswire,1
#broken,1
@invisibellems,1
#deviousdebbie,1
@edhelms,1
#cockroaches,1
@momsdemand,1
@tallahfortrump,1
@tonya_smith1021,1
#diversity,1
@bgoum,1
@pjstrikeforce,1
#dead,1
@hale_razor,1
#brokebillionaireclub,1
@mydailymanna,1
#feelingberned,1
@thenation,1
@ahempster,1
@stevelevangie,1
@bluestein,1
#supportblackbusinesses,1
#ourrevolutioncontinues,1
#desperate,1
#dishonest,1
#mexicanamericansforhillary,1
#radiantchild,1
#lmao,1
@larryqqueen,1
#facialdiscipline,1
#kaineisable,1
@joshjphilipp,1
@nifkinjuice,1
#va07,1
#vice,1
#sbr,1
#alecexposed,1
@upyourstwitr,1
#douglascounty,1
#bimbogate,1
@antitrumprican,1
@bipolarization,1
@milkybuteras,1
@angeloftruth11,1
#votolatino,1
#notrumppence,1
#labor,1
#getridofthemedia,1
@frankrichny,1
@donaldtrump_is,1
#tpot,1
@jackischechner,1
@ralphie_may,1
#insiders,1
@joyannreid,1
@bccmmc3,1
@billspadea,1
#kainetantrum,1
#pluralismfrog,1
@jlsherrill4,1
@racysicilian,1
#usfreedomarmy,1
#irandeal,1
@chris63414391,1
@jordansideas,1
@apple,1
#illegals,1
@bonniemohan,1
#childrens,1
#republican,1
@caroleradziwill,1
#healthcare,1
@lessgovmorefun,1
@bengesek19,1
#rot,1
#freecollege,1
@darren32895836,1
@indems,1
#welcomehome,1
#vicepresidential,1
@gunvote,1
@tyler_tortoise,1
#patriot,1
#stongertogether,1
#sullu,1
#americafortrumppence,1
#apologize,1
@activistpost,1
#az,1
@tom_wright12,1
#whiteboycrazy,1
@12news,1
#occupywallstreet,1
#wearewithtim,1
@marveloussmocha,1
#militarypersonnel,1
#al,1
#drinks,1
@tmartinpnw,1
@galeaz_jenny,1
@artistmaterial,1
#corruptdems,1
#vetsintech,1
@hillaryforco,1
#elections2016,1
@rednationrising,1
#inners,1
#usaf,1
@ladylakemusic,1
@progressiveia,1
#penceforpresident,1
@shakestweetz,1
@itsaanchal_,1
#maryland,1
#pencesage2trump,1
@sopandeb,1
#blackamericaagain,1
@annaeleanor,1
@mifortrump2016,1
@abcliz,1
@clintonkaine_,1
#grandmothers,1
@americanmex067,1
#changetheworld,1
#outofcontrol,1
#millennialproblems,1
#kaineinterrupted,1
@fahrenthold,1
#vcusmclass,1
#pervertbillclinton,1
@yummicoco,1
#pencelost,1
#unstablekaine,1
@ratiochristi,1
#monsoon,1
#undecideds,1
#bw4t,1
#letsteindebate,1
@ou_football,1
#actonclimate,1
@brandonshanker,1
#corruptgov,1
#unfithillary,1
@kcrawfo90933541,1
@drudge,1
@theypolitician,1
#email,1
#pervykaine,1
@wnpr,1
#corrupthillaryclinton,1
@salutesaturday,1
@scotus_scalia,1
@amberforamerica,1
#standfortruth,1
#blackowned,1
#revolting,1
@juliectaylor,1
@tpm,1
#bertacaceres,1
@ragingapathetic,1
#staywokeandvote,1
@lshrug,1
#legislation,1
#kaineunable,1
#soundbitekaine,1
#yourehired,1
@imyerhucklberri,1
@jointactioncomm,1
#cigarsmokinghaters,1
@ghhshirley,1
#surgicalstrike,1
#fallout4,1
@u2,1
@benghand,1
@weareingodsplan,1
#pencevskained,1
#safety,1
#hoosiersfortrump,1
#suicide,1
@kimfrederi,1
@trumpmypres,1
@hillaryforohio,1
#undecidedvoters,1
@dailycaller,1
#depends,1
@fsuadmissions,1
#hypocrite,1
#kainecollapse,1
@desijed,1
#lakemacquarie,1
@daytonunitnaacp,1
#pencehateslgbts,1
@docdhj,1
@mimzway,1
@kennethclass,1
@ilyseh,1
#kaineisinsane,1
#gofigure,1
#jewschoosetrump,1
@pencup,1
#newproblemtuesdays,1
#latinovote,1
@sykescharlie,1
#timkainesonice,1
#___,1
#toxictwins,1
#establishment,1
#snarkydebate,1
#timkainethekindadad,1
#releaseyourtaxreturns,1
@saintly_life,1
@i_aver,1
#biglebowski,1
@ejvazquezelena,1
#herlawyerliedtothefbi,1
#nocontest,1
@oknox,1
@wtov9,1
#liarkaine,1
#basketofdepolorable,1
#amazon,1
@peterbeinart,1
@mysterymeatx,1
#sleepwalkingpence,1
#forwardnotbackward,1
@senatortimkain1,1
@jonlovett,1
#murderer,1
#lookedaway,1
#equalpay,1
#supervoters,1
@weneedtrump,1
@komonews,1
@ministry4u,1
@humanbeing1973,1
#brothers,1
@hspter,1
#realhiphop,1
#penceblabbler,1
@heisgood_always,1
#hoco2k16,1
@bigboater88,1
#hrchealthrecords,1
@javimorillo,1
#lifelongrepgonebluecuztrump,1
#what,1
@shayxkardash,1
@govmattbevin,1
@earthmom07,1
#corppuppet,1
#kinston,1
@mimislo,1
@gutter_politics,1
#chicago,1
#liberallogic,1
#altright,1
#campaigning,1
#washingtonpost,1
#squinting,1
@beyondtreason,1
#hillarycare,1
@forhillary,1
#corruptcnn,1
@vicenews,1
@stefanmolyneux,1
@bimmerella,1
@scottienhughes,1
@samgifford_,1
#antiabortion,1
@blackfortrump,1
#tufff,1
@tiptoe117,1
#rapesnotfunny,1
#peopleofcolor,1
@don_vito_08,1
@thebriefing2016,1
@peakwriter,1
@sarah_oestreich,1
#istandwith,1
@martinoxon,1
@restart_gop,1
#ocforhc,1
#frauds,1
#ubl,1
#woman,1
#glock,1
#obnoxious,1
@heroesoftheusa,1
@billgraff,1
#dropthemic,1
@margotbeezley,1
#nytimes,1
#passions,1
@politicussarah,1
@realizedworth,1
@richardgrenell,1
@wordpressdotcom,1
#penceprejudice,1
#unlikeable,1
#cute,1
@lmfaoklynn,1
@jkatsalis,1
#notcute,1
@love4libya,1
#releasethetaxes,1
#pencesucksass,1
@tomdantherock,1
#delusionalnutjob,1
#estoycontim,1
@arianedatil,1
#blackisbeautiful,1
@david_shorr,1
#demplatform,1
@poniewozik,1
#matrix,1
@chad_59,1
#registertovote,1
#familyvalues,1
#failures,1
#gogreen,1
@li_elfering,1
#__,1
#bingo,1
#jesusloves,1
#rapistbill,1
#mrkmclass,1
@tgreene319,1
#californication,1
@chris_1791,1
#uscg,1
@nestormotojr,1
@vp,1
@chrisrgun,1
#inspiring,1
@kurteichenwald,1
#pence2024,1
#ct,1
#millenial,1
@jrarvelo,1
@camie2007,1
@nycjim,1
@fox29philly,1
#comedy,1
@andieiamwhoiam,1
@noblebarnes87,1
#nixonstandard,1
@alisonspalding2,1
#americansofcolor,1
@enemywithinn,1
#misappropriation,1
@s_t_o_p_terror,1
#iot,1
#voteasifyourlifedependsuponitbecauseitdoes,1
@socalphillie,1
#trumplandslide,1
@bfraser747,1
#smart,1
#demdebate,1
#clownthreat,1
#deportillegals,1
#letgarydebate,1
@sunsetlover65,1
@morehshin,1
@themadelephant,1
#mwd,1
#mroctober,1
#superpedators,1
@kassydillon,1
#trumplying,1
#freeenterprise,1
#satire,1
#musteratx,1
@mallorytq,1
#liberalfreaktimkaine,1
@leyles7,1
@rosemcgowan,1
#shecanttellthetruth,1
#kbfdhalloween,1
#gotim,1
@michaelskolnik,1
#votebluedowntheticket,1
#co,1
@2guysandariver,1
#demorats,1
#ca,1
#pencesoplastic,1
#cc,1
#j,1
#ingodwetrust,1
#vanillakaine,1
@ijessewilliams,1
#f,1
#elections,1
#hillorado,1
@libertyunyieldi,1
@rhondamorrison7,1
@paladinette,1
#weasel,1
@settlejnet,1
#weapon,1
#kaineisntable,1
#shawnlucas,1
@perry_ob,1
@evalongoria,1
#whatdifferencedoesitmake,1
@pub_merchant,1
#puppet,1
#trumpscams,1
@drjjr500,1
#liberty,1
@sxdoc,1
@alex_raffol,1
#spreadlove,1
@garyparrishcbs,1
#farmboypence,1
@nc4trump,1
#nixtrump,1
@catholicdems,1
#sioa,1
@danrather,1
@crusadir,1
#macro,1
@facmagnaamerica,1
#scumbags,1
#comprehensive,1
#pencekayne,1
#democraticparty,1
#loudmouthgovkaine,1
@kimmie99,1
#voters,1
#latinoleaders,1
#strongwomen,1
#cbd,1
#apollo13,1
#eat,1
#hilary,1
#interruptingkaine,1
@jlopezandfamily,1
#hillaryrottenclinton,1
#termitenest,1
#prejudicedpence,1
#womeninsport,1
#gokainego,1
#honorthefallen,1
#wikileaks10,1
@donnags1964,1
#hillaryslies,1
@debv219,1
@maxboot,1
@guardian,1
#google,1
@rtater21,1
#latinasforhillary,1
#ourrcolorado,1
#poodle,1
@angelemichelle,1
#trumpincompetence,1
#rwsw,1
#alcohol,1
@shortpplfedup,1
#whoaup,1
#oha,1
#owned,1
@jakersmom,1
#singlemomsforhillary,1
#bethiphopawards,1
#onlylovecandothat,1
@ninaturner,1
#murica,1
#notwithbigots,1
#building,1
#hbcu,1
@haisespirits,1
#smirking,1
#joker,1
#hats,1
#failure,1
#son,1
#trojanhorse,1
@housegop,1
#hate,1
@benschwartzy,1
#muslims,1
#makeamericagreat,1
#blackexcellence,1
#nedflanders,1
#problack,1
@occupydemocrats,1
@carolinagirl63,1
#swingersannoynous,1
#cuckoldkaine,1
@mattlauer,1
#blackmatters2016,1
@joshuamanning23,1
@dhilburn7,1
#guccifer20,1
@periscopeco,1
@bysajahindi,1
#yechury,1
@jesseloring,1
@stopstophillary,1
@suzannemc1967,1
@amrightnow,1
#askthegays,1
@pescami,1
@emjue,1
#sap,1
#hope,1
#prision,1
@missingreagan,1
@baltimoresun,1
#godblesstheusa,1
@maddowblog,1
#deathtooppression,1
#heartbeataway,1
#superpredatordildos,1
#thankyou,1
@trump,1
#muslimmuderinglyingpostraitor,1
@vwiseconference,1
#buyblack,1
@everytown,1
@kksheld,1
#penceforvp,1
#ellenpage,1
#pr,1
#youandyours,1
#ehrhardtapgov,1
@prolife_wife,1
#piusdebate,1
@jenniferjjacobs,1
@deeibduljackson,1
@ohdems,1
#worldwide,1
@navycrawfish,1
#corrupto,1
@seacorc,1
@monteiro,1
#trumpforuc,1
#votetrumppence16,1
#red,1
#ishedeaforstupid,1
@anncoulter,1
#dws,1
#foodb4vote,1
@iamjorgecruz,1
@trumpstudents,1
#theyrewithus,1
#vetsagainsttrump,1
#neverstupidkaine,1
#gayconversiontherapy,1
#bias,1
#voteordie,1
@qc_cory,1
#flipitdem,1
#cities,1
#flipps,1
@barbs73,1
#makinghistory,1
#lame,1
@retrofuturefunk,1
@samanthakubek,1
#801gun,1
@p0tustrump,1
#fwps210,1
@irs,1
@h_combs,1
#payrolltaxcap,1
#nuzzle,1
#hillary4prison,1
#iwillvote,1
#thisiswhyimgay,1
@spo_original,1
@thestalwart,1
@ohiofortrump,1
@iava,1
@djsoda10,1
#taxwriteoff,1
#americanvalues,1
@thedailyshow,1
@ibdeditorials,1
@chemishalev,1
#wrong,1
@timsclark,1
#communist,1
#sendtheclintonspacking,1
#touche,1
#jackdaniels,1
@toientertain,1
#thanksforasking,1
#invaderpest,1
#enough,1
#npsocial,1
#alexandriava,1
#nancypelosi,1
@leupp,1
@nbcnightlynews,1
#ignorantvoters,1
#treason,1
#americanchildren,1
#abortionrights,1
@babysgramma,1
@housedemocrats,1
@therightgirl585,1
#kkkilary,1
@angdonlon,1
#penceownskaine,1
#outback,1
#politicalcorectness,1
#whatdayisit,1
@jvgraz,1
@greenstarparadx,1
@kmbzradio,1
#basketofdeplorabe,1
@sarahsalviander,1
@mikeandmike,1
#cadilacjack,1
#truthtrain,1
#michaelbrown,1
#beer,1
#kaineisautistic,1
@trump_woman,1
@jrpaws,1
#_,1
@mshelmer,1
#fuckthednc,1
#attackdem,1
@thepastorchris,1
@cynthiamckinney,1
@imchriskelly,1
#regressiveleft,1
@stevedeaceshow,1
#isoptera,1
#prsamediaday,1
#drunk,1
@silenceconsent,1
#piatas,1
@alexa_belle_,1
#2asupporter,1
@girl_iowagirl20,1
@markruffalo,1
@colvinius,1
#progressiveelectedsmattertoo,1
@hellonichole,1
#usveterans,1
@rekendri,1
#rioting,1
#pedokaine,1
#notone,1
@tgscolorado,1
#clintoncages,1
@ianrgillespie,1
#hocoweek2k16,1
@fortunemagazine,1
@billythebigbone,1
#ladies,1
#minoritiesfortrump,1
#nothillary,1
@jturnershow,1
@hillaryhoosiers,1
#terryvohio,1
@dianewinston,1
@dylanesque2604,1
#youngturks,1
#releaseyourreturns,1
#scorpion,1
#nuffsaid,1
#timkayne,1
@brianbeutler,1
#blackgunsmatter,1
#nationaldebt,1
@pnehlen,1
#er,1
#imwithtimkaine,1
#arrigant,1
@davidpsdem,1
#mellinials,1
@madisongesiotto,1
#preach,1
#wlcommunity,1
#ttip,1
#icon,1
#dogsoftwitter,1
#bringbackourgirls,1
#clearchoice,1
@slindauer2011,1
#climatechange,1
#ice,1
@solange_franca7,1
#blacks,1
@vae_llc,1
#killarypuppet,1
#millenialvote,1
@usairforce,1
@tiki_mann,1
#presidentialdebate,1
#bernieorjillneverhill,1
@marc_lotter,1
@erepublicans,1
@kfiam640,1
@nicoamatullo,1
#hillaryforco,1
#bansharia,1
#estoyconhillary,1
@jordanchariton,1
@dukeofearldd,1
#clintonrules,1
#cubanamericans,1
@michaelkitces,1
#reinindc,1
@unitedcitizen01,1
@trebortwo,1
#redin,1
#peacemakers,1
#trumpwa,1
#issiah910,1
@bortjojohoju,1
#vwiseignite,1
#libertarian,1
#cringeworthy,1
#shesnotforamerica,1
@sacca,1
#markcuban,1
#bizskillz,1
#banhillary,1
#irsscandal,1
#aunts,1
#neverryan,1
#muhholocaust,1
#mentalhealth,1
#corruptclintonfoundation,1
#votetrumppence,1
#dayton,1
#vpdebateepichaiku,1
#supportsmallbusiness,1
@owillis,1
#dranks,1
#monica,1
@marchaig,1
@whitfordbradley,1
@naapc,1
#cato2016,1
@breyn2000,1
@michaelshure,1
@debraraes,1
@ohiodemwomen,1
@lkkash,1
@garygwritchie,1
#howto,1
@abicduckie,1
@marilynnepryor,1
@haileemgibbons,1
#blackamerica,1
@2mammadee,1
#climate,1
#wltaskforce,1
@jackiegoss,1
#fraking,1
@mcmcada,1
@mmflint,1
#gameover,1
#mikepencerocks,1
#racialdivide,1
@freddiecr47,1
@bvazz,1
#greenparty,1
#kainandunable,1
@msjackiehaas,1
@blue4blue2,1
@laurenashburn,1
#neverhillaryorkaine,1
@lwilsondarlene,1
@bytemeal,1
#trayvonmartin,1
@jasonmillerindc,1
#kainesucksd,1
@joyousjava,1
#2016election,1
@r5eileen,1
#leo,1
@travlers01,1
#armedforces,1
@lucynolandfox29,1
#atlantaisburning,1
@kxly920,1
#jeffcobestco,1
#unresolved,1
@us_navyseals,1
#octobersuprise,1
#unfittolead,1
#blowhardkaine,1
#minime,1
#aggressive,1
#shotsfired,1
#canada,1
@brooklynspoke,1
#africanamerican,1
@planomike,1
@theroot,1
@motherjones,1
@ffsayew,1
#snowbunny,1
@impactdemocracy,1
#campaignamerica,1
#elizabethwarren,1
#trumpnation,1
@dahveed97od,1
#southflorida,1
@signewilk,1
@mikeyyya2,1
#didimeanfetus,1
#saynotohillary,1
#thomassowell,1
@soldierswhisper,1
#npovms,1
#trumpinaz,1
@margarita,1
#educatedonthate,1
#walmart,1
#clintoncoup,1
#notmeus,1
#rapistdefender,1
#ri,1
#makeamericafirstagain,1
@evepeyser,1
@oldrowswig,1
@florida4trump,1
#topprog,1
#protectourselves,1
@repjuanvargas,1
@erictrump,1
@latinos4trump,1
@johnjharwood,1
#patriots,1
@hogshead3au,1
@kharyp,1
@anthonyvveiner,1
#demsbirthkkk,1
#openthedebates,1
#higherdropouts,1
#timkaineunhinged,1
#sacrifice,1
@desha7,1
@rep_hunter,1
#gorillamindset,1
@sebgorka,1
#imperialist,1
#blow,1
#president,1
#hoosier,1
@darhar981,1
#bringthem2heel,1
#buymeaboat,1
@kimguilfoyle,1
#hillaryfail,1
@opposingviews,1
#dropouthillary,1
#dc,1
#infowars,1
@lizmair,1
@debramax,1
@airwarrior1969,1
#food,1
#experience,1
#bonetactical,1
#thiselectioniskillingme,1
@opencarrychris,1
@smassadi,1
@johnx5555,1
@submarines4ever,1
@politifactva,1
#moreofthesame,1
#pet,1
@chestateees,1
@binkleywtf,1
@bigleaguetrump,1
#areyoudoneyet,1
#theweasel,1
#shitfacekaine,1
#secondamendment,1
#scam,1
#smallbusiness,1
#cop,1
#somilfy,1
@toscaausten,1
#blacklove,1
#apairofdildos,1
#13hoursinhell,1
#godliness,1
#prayforamerica,1
#caribes,1
@polishprincessh,1
#weapons,1
#deplorabletrump,1
@hillaryclintonn,1
@flmilitiapsyops,1
@ezlusztig,1
#ourvotematters,1
#france,1
@kennedynation,1
@catvictory,1
#nobloodtoherbrain,1
#pissed,1
@wealthfront,1
@texasrebelar15,1
#obamabushclintonsberniesanders,1
#patsy,1
#radiant,1
#orangeisthenewpence,1
#neverclintonkaine,1
#iknowbetterthanyou,1
@shepnewsteam,1
#timkainescaresme,1
#neverlynch,1
#neveroutgunned,1
@texasdenny,1
#arnabmodikakuttahai,1
#jokers,1
#sayanything,1
#corruptdnc,1
#trumpprejudice,1
#vaxxedthemovie,1
@pjdahling,1
#bacon,1
@joshua_pederson,1
#nationalsecurityfelon,1
#progun,1
#sneakerheads,1
#bluewave2016,1
#nvblue,1
@bourdain,1
#drinkinggame,1
#equal,1
#shutkaineup,1
@bob_o64,1
#triggered,1
@cdcgov,1
#kaineisterrible,1
#asians4trump,1
#pissanttrumpsadisticdevil,1
#33000emails,1
@ramseur,1
#justicesystem,1
#stophillary,1
#race,1
#cantthink,1
@realdonaldrumpf,1
#facts,1
@averre13,1
#copoltics,1
#timkaines,1
#virginiafortrump,1
@youngdems,1
#activeduty,1
@michaeljfoxorg,1
#wearewithher,1
@defendingtheusa,1
@intrepidheroes,1
#firearms,1
#california,1
@brikeilarcnn,1
#juntossepuede,1
@gulfwarvet123,1
@ladylakejen,1
#norefugees,1
@smoloko123,1
#blackunemployment,1
@pandora_radio,1
#fighttowin,1
#mothers,1
#jamescomey,1
#stopher,1
#hacks,1
#home,1
#holdinher,1
#kainethecuck,1
#thisteam,1
#dems4trump,1
#failedpolicy,1
@maleybetty,1
#idiottimkaine,1
@cmgroupmedia,1
@mittromney,1
#evictun,1
#endpoliticalprivelage,1
@naacp,1
@realangelogomez,1
#ga,1
#latinaimmigrantfirsttimevoter,1
@terrydono12,1
#didyouknow,1
@paulwoll,1
#responded,1
#shame,1
@deray,1
@rharrisonfries,1
@secretsbedard,1
#jesusislord,1
@blackpressradio,1
@rightklick2,1
@uriblago,1
@hunterpence,1
#atlanta,1
@j082298,1
@charlie_carver,1
@grand_infidel,1
@jlcoffeecup,1
#happiness,1
#itsinourhands,1
@whitehouse,1
@livingwater77,1
#maui,1
#camptimkaine,1
#ut,1
#nevermccain,1
@sevigny_rob,1
#maryjones1417,1
@colormered,1
#crookedclintons,1
#justice4benghazi,1
@bernieorjill1,1
#dinosaurs,1
#un,1
#trumpmisogynisticpig,1
@pearl97572c,1
#brushuponyourfacts,1
@lilfireball24,1
@noprezzie2012,1
#puertoricans,1
#illegitimate,1
#notadog,1
@ladygaga,1
#kaineandunable,1
#ar15,1
#nationalhotsauce,1
#wiright,1
#azwithher,1
#il,1
#riggedmedia,1
@steelworkers,1
#debated,1
@caitlinsinett,1
#deplorablesfortrump,1
#defend,1
@residentoffl,1
#laughable,1
#itsallgoodep,1
#clairemccaskill,1
#roaches,1
#lyfe,1
#typical,1
#plainkaine,1
@timm2million,1
@howardkurtz,1
@specialreport,1
#fucktheelection,1
@newsone,1
#notmygop,1
@nalllo1,1
#de,1
#guccifer1,1
@scottisbell_,1
#titleix,1
@newsday,1
#defense,1
#georgia,1
#thereal,1
#jokerface,1
#taxpayer,1
#conservativeclothing,1
@women4trump,1
@armorogod,1
@richzeoli,1
@punchymcgregor,1
#lettrumptweet,1
#national,1
@theworldsfrates,1
@epngo,1
@pats62,1
#txeoc,1
#momsdemandhillary,1
@fox,1
#wow,1
@ivankatrump,1
#lds,1
#kaineclown,1
@jesus_lib,1
#pets,1
@monicacrowley,1
#_,1
@nbcpolitics,1
#clintonfoundaton,1
@ohioforhillary,1
@abbydphillip,1
#kainewins,1
#lovingit,1
#massincarcerationsupport,1
#thecorrupt,1
#pride,1
#riggeddebate,1
@searsal,1
#firsttimevoters,1
#etc,1
#cactustactical,1
#communitypolicetogether,1
@tomservo10,1
#dec10th2016,1
#hitllary,1
@arensb,1
@charliesheen,1
@thesamtracy,1
@briangr72327841,1
#genius,1
#fail,1
#quitlying,1
@soledadobrien,1
@emmyrossum,1
@billclintonnews,1
@nkygirl1,1
#shill,1
@geriprado,1
@censorednewsnow,1
@timcaine,1
#vpdebatemoderator,1
@chloeseashell,1
@omarbula,1
#govpence,1
#shutup,1
#barrygoldwater,1
#justdronehim,1
#uspoli,1
@wallrad,1
#rif,1
@votevets,1
#13hours,1
#flea,1
@paleblueeyes24,1
@catapultleader1,1
@chriscoon4,1
#rip,1
#ambien,1
#backarmyendpolitics,1
#hepaysnotaxes,1
#imwithyou,1
@politician_news,1
#refugees,1
@jwharris,1
#krit,1
#nevada,1
#pencevp,1
#tea,1
#gunextremists,1
#divorceforcollege,1
@redheadandright,1
@keepamergr8,1
@jacklew44lewis,1
@cbsdfw,1
@politics_pr,1
@chuckwoolery,1
#respect,1
#queenbully,1
#bathroomserver,1
@presidentdiary,1
#vote4hillary,1
#artistes,1
#dnccrap,1
#catholic,1
#hardchoices,1
@pgorgewalker,1
@betweentheheebs,1
#unitedagainsthillary,1
#steinbaraka,1
#kida,1
@dstewmba,1
#radicals,1
#godblessamerica,1
@mailonline,1
#fb,1
@prisonplanet,1
@davebratva7th,1
#supportourvets,1
@brianrossi12,1
#corruptclinton,1
#patch,1
@ericbowens,1
#worsethanwatergate,1
#pow,1
#decompose,1
#mo4hillary,1
#rememberthetitans,1
#basketofdeporables,1
@sjpest,1
#hireveterans,1
#twist,1
@uscg,1
@bishopspope,1
#basementdeplorable,1
#assclown,1
@webbhubbell,1
@fhetrick,1
#jeffreyepstein,1
@christichat,1
#paysnotaxes,1
#redface,1
#pray4trumppence,1
#heygary,1
@ellcalvert,1
@alanm755,1
#wealthy,1
@medianpolitics,1
#celldwell,1
@vbarreto1,1
#rekt,1
#lasttimehillarytoldthetruth,1
#weracerioting,1
@heavensangel67,1
#socialinsects,1
@hardball,1
#potus2016,1
@speakerboehner,1
@cvpayne,1
#emotionaloutbursts,1
#kermitpuns,1
#totalcreeper,1
#infidelity,1
@rawstory,1
#dezcaughtit,1
#blackwomen,1
@blessedone333,1
#troopster,1
#louisiana,1
@iwearaonesie,1
@nobarriers2016,1
#porn,1
#saint,1
@aabirusabeel_,1
#privatization,1
@aarpadvocates,1
#bringthemtoheal,1
@cnnsotu,1
@rajshah84,1
#beavoter,1
#timcain,1
#gps,1
#biden,1
@mstoya1913,1
@haylinic,1
#standupforyourrights,1
@jewdygold,1
#shesnotcapable,1
#stopviolence,1
#nana,1
@bethanyculp,1
#yuck,1
#michelleforpresident2024,1
#tw4rw,1
@kayquirk1,1
#bassmouthfish,1
@opendebate,1
#irredeemable,1
@essencemag,1
@refinery29,1
#kermit,1
#uscoastguard,1
#trumplies,1
@nahbabynah,1
#puttingthehinhypocrisy,1
@linnyitssn,1
#whitehouse,1
#raisingkaine,1
#afam,1
@kennethwhalum,1
#yourfiredpresident,1
@wildbillusa,1
#timkaineseyebrow,1
#badass,1
#justsaying,1
#charlotte,1
@moniquemanna,1
#cheating,1
#heartlessbastard,1
@wduz,1
#thirdparty,1
#teambone,1
#blacktober,1
#latimes,1
@lookoutcoffee,1
#abajojilari,1
#qatarturkeypipeline,1
@markdice,1
@rayajenee,1
@dagnyred,1
#kaineunhinged,1
#allegedbillionaire,1
#betterthanthis,1
#occupythedebates,1
@dbloom451,1
#sisepuede,1
#usatoday,1
#meteor2016,1
@ewtn,1
#vile,1
@jw4hillary,1
@brianefallon,1
@keemstar,1
#blackactivistsmatter,1
#rapefugee,1
#,1
#ypempowered,1
#hillaryqualified,1
#dumpyrump,1
@syptweet,1
@katiepack,1
#salutesaturday,1
@jcool523,1
@votenov2016,1
#free,1
@iamkidpresident,1
#alec,1
#occupydemocrats,1
#merica,1
@redstate,1
@pereira_ariela,1
#deplorablehillary,1
#governmentsponsoredrobbery,1
@abitx2u,1
#wi,1
#wa,1
#nutrition,1
#settledown,1
@2alaw,1
#borderzine,1
@oldfolksmatter,1
@anthony76730120,1
#apples,1
@scalpatriot,1
#illegalimmigration,1
#neverdws,1
@amymek,1
#pests,1
#frustrated,1
#blackactivist,1
@bobbyjindal,1
#doublestandard,1
#ailes,1
@usaneedstrump,1
#waste,1
#eyes,1
#watergate,1
@militarydotcom,1
#class,1
#blogposting,1
#sexcapades,1
#mishecan,1
@gordondcole,1
#momsdemand,1
@truthpuking,1
@talksouthradio,1
@politifact,1
#pray,1
#hillarysjester,1
#vicepresidentaildebate,1
#poorjudgement,1
#kkain,1
#scams,1
#morals,1
#md,1
#votingrights,1
#afroart,1
#comveep,1
@hrtablaze,1
#supportveterans,1
#pittsburgh,1
#whateverpence,1
#followthe,1
@laurenwtov9,1
#ngot,1
#bimboday,1
@hokeisit,1
#usarmedforces,1
#oakland,1
@asamjulian,1
@deanesmay,1
#warpoetry,1
#giftgate,1
#peace,1
#nbcnews,1
#toowhiteanduneducated,1
@davies20162,1
#thunderbirds,1
#bullshitter,1
#opdeny270,1
#lifematters,1
#wetrumphate,1
#pennstate,1
#vgdebate,1
#taxcredit,1
@godgirlusa,1
@jay_carper,1
#daughters,1
#wrds,1
#salute,1
#ourmoment,1
#crookeddems,1
#globalwarming,1
#droneassange,1
#thefive,1
@rudyhear,1
#trumpburnsamerica,1
@origintent,1
#moochertrump,1
#riptaylor,1
#amerigedden,1
#notfitforpresident,1
@powerman4evr,1
#fagotcaine,1
#pewpew,1
#thanksobama,1
#fcpsgov,1
@politicsghost,1
#lifeinchrist,1
@chavezlinda,1
#elpaso,1
#ldr,1
#freeeducationnow,1
#health,1
@ljhoesii,1
#gunowners,1
#bettertogether,1
@trump_truther,1
@people,1
#itspossible,1
@fox5dc,1
#khujli,1
@teamtrumpaz,1
#gfy,1
#basementdwellars,1
#latinoamerica,1
#trumpispresidential,1
@garysinise,1
#never,1
#northernterritory,1
#patrioticpence,1
@lizzyvoice,1
@op_homefront,1
#ohiostate,1
@bobmcdonnell,1
@onceasloan,1
#acknowledge,1
@southrngirl77,1
#care,1
#sheswiththem,1
#noillegals,1
#niggah,1
@nevil_howard,1
#chloegracemoretz,1
#militaryspouses,1
@jefftriplej,1
#coalisnottheenemy,1
@_juliannemoore,1
#funding,1
#sanewithkaine,1
#notallpepes,1
#commoncore,1
#vetslivesmatter,1
@derajd17,1
#noobama3rdterm,1
#vietnam,1
#honorflight,1
@jrivera64,1
@lmurphy140,1
@freedavidking,1
@cnni,1
@fox43,1
@mamanastase,1
#rnrtn,1
#notgonnahappen,1
@justjoyceo,1
#methodist,1
#prescottvalleyaz,1
#firstrespndrs,1
#kanemeltdown,1
#hilaryforprison,1
@beachykate69,1
@trump2016donald,1
@re_3d,1
@thediblognews,1
@bart_39,1
#clintonsoros2016,1
@govbillweld,1
@bmenezes,1
#nowaydems,1
@motto,1
#nbcnightlynews,1
#hardtodefendcorrupthillary,1
@paulvallely,1
@viking5150,1
#voddbate,1
#hrcoriginalbirther,1
@isa_theword,1
@darlenehbrook,1
#nixon,1
@beercarspoker,1
#congress,1
@soberalaska,1
@ponynurse,1
@glogangtay,1
#continued,1
#seniors,1
@fivethirtyeight,1
@puppymnkey,1
@abc7newsbayarea,1
@gopblackchick,1
#throwbacktuesday,1
#blackmen,1
#veteransforhillary,1
@nathanmhurst,1
@dillendanger,1
@blackservative,1
@cenmcconnell,1
#nvtogether,1
#catyourtongue,1
#brainwashing,1
#trumps,1
#responsible,1
#technology,1
#watchparty,1
#kainewontshutup,1
@tfmetals,1
#yes,1
@awzurcher,1
#cino,1
#hypedup,1
#glennbeck,1
@doc_chrismoore,1
#progressivesstandup,1
#blackchristians,1
#whiteants,1
@2utc,1
@umgevents,1
@mscella,1
#obamaransomplane,1
@karenhunter,1
#trusttrump,1
@blackvoices,1
#dog,1
#neveragain,1
#basetofdeplorables,1
#hilarious,1
@yrnf,1
@sarahspain,1
#fortbliss,1
@glennkesslerwp,1
#emailscandals,1
#prophesy,1
@browns4trump,1
#afrogwecanbelievein,1
#nothingisfree,1
@rmirskiy,1
@liberty4libya,1
@unipolitica,1
#newyorkfilmfestival,1
@shannonbream,1
#humor,1
#hawaii,1
#writingprompts,1
@billperiman,1
#masa,1
#scoutpopcorn,1
#disruption,1
#cuddlemood,1
#bimboeruption,1
#getreal,1
#again,1
#sosad,1
@pakopako1955,1
@billmaher,1
#help,1
#mouthbreathers,1
#lyinghillary,1
#freedomisnotfree,1
#debt,1
#imissthem,1
@friendlyjmc,1
#pestcontrolinindia,1
@vonnimediamogul,1
@always_trump,1
@anitampantoja,1
@frateo83,1
#lol,1
#neverhilliarythemonster,1
#joy,1
@mredtrain,1
#denver,1
#law,1
#leadershipmatters,1
#p4p,1
#crook,1
#stonetear,1
@senatorkaine,1
#leaders,1
#nomorepc,1
#milfmafia,1
@tomilahren,1
@nccollegians,1
@cousinsyl,1
#bravo,1
#berniebeatshillary,1
@conservativeca4,1
@raymondbraun,1
#shakeupdc,1
#blackart,1
#matthew,1
#ottawa,1
#notrump,1
#innercity,1
#walk,1
@trump2021,1
#corruptpoliticians,1
@jaynepenelope,1
@dodazzle501,1
#laughs,1
#voteforhillary,1
#americanmilitary,1
#imnotinsane,1
#makemorehappen,1
#farts,1
#ows,1
#mlk,1
@kingrefish2,1
@cgforgive,1
@noltenc,1
#carpet,1
@gxacademy,1
@magnifier661,1
#lockthemup,1
#mexicans,1
#hookem,1
#apeoplesjourney,1
@alclubb1967,1
#onlystupidloserspaytaxes,1
#rednecks,1
#kainestestosteronescore,1
#badticker,1
#bikersfortrump,1
@iupui,1
@nolibszone,1
@well_brewed,1
@wherehegonzalez,1
@jondonzz,1
#pay,1
#myideaofahero,1
#crookedhiliary,1
#disabledveterans,1
#milfieclub,1
#datenight,1
#coprights,1
@velarsiraptor,1
#putzpence,1
@kvue,1
@nyt,1
#hawkgrips,1
#feraltrumper,1
@dailynewsbin,1
@saharahshae,1
#vote4jobs,1
#rainbowconnection,1
#dirtydonald,1
#now,1
#trumpsoftballs,1
@addthis,1
@govhowarddean,1
#solidrockmbc,1
@cubs,1
#joytrain,1
@albertbrooks,1
#thebenghazi4,1
#gunvote,1
@danaschwartzzz,1
#mo,1
#mn,1
#mm,1
#socialist,1
#saynotohate,1
#me,1
#ma,1
@izzyrxdriguez,1
#imbecile,1
#clintoncrimefdn,1
#julianassange,1
#socialism,1
#voterfraud,1
@richardnbc10,1
#liars,1
@thinkprogress,1
#fl23,1
#cluelessdbag,1
#belairbulldogs,1
#wapo,1
@theintercept,1
#lady,1
@teaparty,1
#hillaryemails,1
#blackcaucus,1
@danaperino,1
#trumpliesmatter,1
#womenaretrash,1
@usafortrump2016,1
@raheemkassam,1
@tinamorphis,1
#policeabuse,1
#___,1
#malcolmxhadadreamtoo,1
#hillaryshate,1
@lesliemarshall,1
@zerohedge,1
@rabiasquared,1
@abc7news,1
@governorbullock,1
#abovethelaw,1
#berniebros,1
#blackwomenlead,1
@overthemoonbat,1
@airborneangels,1
@fboloud,1
#fence,1
#pray4america,1
#closernation,1
#voting,1
@lilmissrightie,1
@2016opinion,1
@maliagriggs,1
#income,1
