Hashtag,Total Count
#vpdebate,1902
@realdonaldtrump,1001
@mike_pence,665
@timkaine,590
#nbc,428
#maga,379
#trumppence16,358
#isis,329
#hillaryclinton,311
#makeamericagreatagain,276
#debates,268
@hillaryclinton,253
@abcpolitics,242
#foxnews,237
#,229
#cbs,226
#,222
@susiesentinel,210
#abc,206
#pence,200
@nbcwashington,189
#nbc4dc,180
#,178
#makeamericasafeagain,178
@thisweekabc,170
#_,167
#abcpolitics,159
#thisweek,159
#trump,148
#,141
@foxnews,131
@cnn,130
#kaine,127
#e3teqal,122
@msnbc,118
#mikepence,109
@govpencein,108
#timkaine,106
#_,95
#debates2016,92
@abc,90
#_,78
#trumptrain,74
#imwithher,72
#hillary,62
#cnn,61
@geeveem,56
#vpdebate2016,49
@realclearnews,49
@jnelson52722,47
#neverhillary,43
#donaldtrump,38
#crookedhillary,36
@teamtrump,36
#iraq,35
@nbcnews,35
#kellyfile,34
#trump2016,33
#obama,33
#usa,28
#nevertrump,27
@elaine_quijano,27
#iran,26
@vine,25
#debatenight,25
#debate,25
@cbsnews,24
@potus,24
@megynkelly,24
#msnbc,24
@mikepencevp,23
#_,22
#election2016,22
#,22
#kainevspence,21
#benghazi,21
@foxandfriends,21
#syria,20
@foxbusiness,20
#clinton,19
@cnnpolitics,19
#trumppence2016,19
@kellyannepolls,19
#tcot,19
@mikepence,18
#vpdebates,18
#americafirst,17
#news,17
@cbs,17
#america,17
@ingrahamangle,17
#video,17
#bush,16
@draiochta14,16
#us,16
#qatar,15
@facebook,15
#votetrump,15
#clintonkaine,14
@gma,14
#pencekaine,14
#vicepresidentialdebate,14
#strongertogether,14
#libya,14
@nbc,14
@fahrenthold,13
@microsoftpulse,13
@theview,12
#terrorism,12
#bigleaguetruth,12
#imwithtim,12
@rebeccagberg,11
@bevh111,11
#irandeal,11
@gop,11
@cbraunnj,11
@c0nvey,10
#clintonkaine2016,10
#basketofdeplorables,10
#binladen,10
@danscavino,9
#gop,9
#potus,9
@barackobama,9
#debate2016,9
@oreillyfactor,9
@kilmeade,9
@seanhannity,9
@ap,9
#truth,8
#bbc,8
#psu,8
@maddow,8
#leanright2016,8
#president,8
#bluelivesmatter,8
@cnnbrk,8
@asimendinger,8
#vp,8
#liar,8
@colleencpa,8
@ac360,8
@nightline,7
#lies,7
@bretbaier,7
#hrc,7
@tacobell,7
#immigration,7
@nytimes,7
#unga71,7
@jonathanmerritt,7
#un,7
#wakeupamerica,7
#americans,7
@hardball,7
#trumppence,7
@wsj,7
@cnni,7
#cspan,6
#osamabinladen,6
#kaineandunable,6
#deplorables,6
@theblaze,6
#killary,6
#trumpstrong,6
#putin,6
@wolfblitzer,6
#realdonaldtrump,6
@vp,6
#military,6
#ivotepence,6
#cnbc,6
@ajdelgado13,6
@time,6
@youtube,6
@mitchellvii,6
@cyndilhayes,6
#kainewreck,5
#_,5
@crampell,5
@sarahhuckabee,5
#cbsnews,5
#,5
#uniteblue,5
#neverpence,5
#__,5
#daesh,5
#virginia,5
#_,5
#abcnews,5
@sagehillfarms,5
#barackobama,5
@cherylc88,5
@joyannreid,5
#isil,5
#ap,5
#howsway,5
#corruption,5
#reuters,5
#dumptrump,5
@thebriefing2016,5
#orlandostrong,5
#trumpsterwarriors,5
@vplus,5
#,5
@abc7ny,5
#basementdwellers,5
#,5
#rude,5
#_,5
#breaking,5
#,5
#_,5
@cnbc,5
@vanjones68,5
#imwiththem,5
@rolandsmartin,5
@nbcpolitics,5
#extremevetting,5
#pentagon,5
#potus2016,5
#__,5
@abc13houston,5
#lgbt,5
#_,5
#shit,5
#russia,5
#osama,5
#republicans,5
#,5
#,5
#,5
#,5
@npr,4
#vpdebates2016,4
#,4
#blameamerica1st,4
#,4
@thedemocrats,4
#carolcostello,4
#,4
#,4
#,4
#,4
#,4
#uk,4
@heyifeellike,4
#hispanic,4
#neverkaine,4
#mosul,4
@kee4short,4
#,4
#pjnet,4
#,4
#,4
@detectivelily,4
#trumpsarmy,4
#nyt,4
#wtf,4
@spookyclowns,4
#indiana,4
#,4
#__,4
#,4
@martharaddatz,4
@jongarysteele,4
#,4
#rednationrising,4
@nbcsnl,4
#,4
#,4
#corruptmedia,4
#facethenation,4
@winorgohome,4
#w,4
@demarko_gage,4
#biasedmedia,4
#thishour,4
#,4
#guccifer2,4
#hillyes,4
#,4
#,4
#,4
#clinton2016,4
@machiavelli_spe,4
#voteyourfuture,4
@iacoguy,4
#,4
@joexg30,4
#,4
@brithume,4
@todayshow,4
@jamesarkin,4
#,4
#lawandorder,4
#neverforget,4
#killarysucks,4
#pencemustgo,4
@venusvotes,4
#fail,4
@dougkass,4
#alqaeda,4
@jaketapper,4
#clintonfoundation,4
#,4
#,4
@alexburnsnyt,4
#,4
#war,4
#,4
@govbillweld,4
#nbcnews,4
#hillary2016,4
#,4
#mtp,4
@juddzeez,4
@foxnewspolitics,4
#masa,4
#veterans,4
@myrudy32,4
#abcnetau,4
#,4
@sarahpalinusa,4
#antihero,3
@breitbartnews,3
#decision2016,3
#world,3
#jillstein2016,3
#timwon,3
#assad,3
#joke,3
#billclinton,3
@businessinsider,3
#trumprally,3
#kreepykaine,3
#bernie,3
#ccot,3
@chucktodd,3
#governorpence,3
#imwithhim,3
#bothclassless,3
@clintonfdn,3
@hfa,3
#saudi,3
#buildthewall,3
#wearred4trump,3
#democrats,3
#,3
#ksa,3
@nickconfessore,3
@marsaxsteenhoek,3
@abcnews,3
@kayleighmcenany,3
#crookeddonald,3
#unfit,3
#ivotekaine,3
@jonlovett,3
@cnstitutionprty,3
@infowars,3
#hurricanematthew,3
#china,3
#,3
#msm,3
#mikepens,3
@roadkingl,3
#mountrushmore,3
#notyourdebatedonald,3
#whitewater,3
#sot,3
#gwb,3
#teamgov,3
#obamacare,3
@wsbtv,3
@foxnewsinsider,3
#politics,3
@newtgingrich,3
@worldstar,3
@paulbegala,3
@svdate,3
@berniesanders,3
@johnpodesta,3
#presidentialdebate,3
#blacklivesmatter,3
#paytoplay,3
#tim,3
@erictrump,3
#jihadists,3
#assclown,3
@mrsperrin,3
#dear,3
@rebeccaballhaus,3
@bi_politics,3
#trumparmy,3
@amjoyshow,3
#propaganda,3
#supreme,3
@cnngo,3
#shutup,3
#imwithyou,3
#kainemeltdown,3
#imwithkaine,3
@mariabartiromo,3
#nuclearwar,3
#,3
#hillaryforprison,3
@frankluntz,3
#benladen,3
@irritatedwoman,3
#fbi,3
#elainequijano,3
#wsj,3
#trumpcampaign,3
@darrellcastle,3
#winners,3
@pbs,3
#daddebate,3
@gracesmom48,3
#deplorablehillary,3
#pencelies,3
@lawrence,3
@morgan_maher,3
@speakerryan,3
#fox,3
#lyinghillary,3
#northface,3
@davidaxelrod,3
@harlan,3
#longwooddebate,3
#likemiddleschool,3
#racist,3
#missuniverse,3
#libcrib,3
#timcaine,3
#dnc,3
@millennials4her,2
@reuters,2
#supportourpolice,2
@jonkarl,2
@iran,2
#pencekainedebate,2
@beachplaces,2
#rudetimkaine,2
#hannity,2
#clintoncash,2
@littlejudyblue,2
@klayvolk,2
#clintonemails,2
#copolitics,2
#waelex,2
@flotus,2
@enews,2
#cmdebatecoverage,2
#president_obama,2
#american,2
@funnyvines,2
#michelleobama,2
#jews4trump,2
#2a,2
@aoa444,2
#nydebate,2
@richardgrenell,2
#veepdebate,2
#israel,2
#likewatchingpaintdry,2
#conservatives,2
@voxdotcom,2
#kane,2
#northkorea,2
@adamjohnsonnyc,2
#livetweets,2
@june15again,2
#untrustworthy,2
#hillaryfailed,2
#yazidi,2
#leadershipamericadeserves,2
@israel,2
#is,2
@jimsha9,2
#unitedstates,2
#havingfunwiththisdebate,2
@jakes3mama,2
#music,2
@naturegirl1980,2
@g_keillor,2
#lnyhbt,2
#stfu,2
@hughhewitt,2
@thehill,2
@cbsmiami,2
@mj73foo,2
@richlowry,2
#behindthemask,2
@mandamccauley,2
@ryanepstein17,2
@lindasuhler,2
#ben,2
#pepperseed,2
@danisellsjax,2
#whitegenocide,2
#proudamerican,2
@kungfoopanda76,2
#lmao,2
#rnc,2
#timekaine,2
#yahoo,2
#republican,2
@ashleyrcummings,2
#leader,2
@morningsmaria,2
@cspan,2
#marcorubio,2
#onenightonly,2
@matthewjdowd,2
#kaineshutupforfivesecondsplease,2
#,2
#clueless,2
#factcheckthat,2
#americantroops,2
#crookedclinton,2
#djt,2
@hollyandhomer,2
@fiirtationship,2
@up2itru,2
#vicepresident,2
#statusofforces,2
#nevertump,2
@feraljokes,2
#gotothetape,2
@andreatantaros,2
@rosieriveter4,2
#kain,2
#deplorablesunite,2
#sorrynotsorry,2
#believe,2
#narcissistic,2
#basketofdeplorabes,2
#exposed,2
@komonews,2
@1010wins,2
#,2
#hillarygottago,2
@france4hillary,2
#losers,2
@scottienhughes,2
@donaldjtrumpjr,2
#honor,2
#nytimes,2
@raymondarroyo,2
@brownbearvk,2
@beamer241321,2
#my2pence,2
#moderatormissing,2
@brohumors,2
#gov,2
@timkane,2
@aurania101,2
#hilaryclinton,2
@angela_rye,2
@weloverobdyrdek,2
@sherri_wag,2
@guardbum28,2
@citizencohn,2
#epicfail,2
#i,2
#weasel,2
@danpfeiffer,2
@loudobbs,2
@cuteemergency,2
@fab_uni,2
#joker,2
#leadright2016,2
@dloesch,2
@movement_trump,2
#hilary,2
#timkane,2
@johnfromcranber,2
@thewomenswatch,2
#altright,2
@mrhinnh,2
#boycott,2
#lyingmedia,2
#hillarylies,2
@syd_shank,2
#condescending,2
#donthecon,2
#sad,2
#chelsea,2
#blamegame,2
@jamilsmith,2
@ajamubaraka,2
#biased,2
@cucciamc,2
@waynedupreeshow,2
#abcachat,2
#p2,2
#creepykaine,2
#notpresidential,2
#bias,2
@p0tustrump,2
@rc_939,2
@juliannac_md,2
@hockymom5,2
@marcylauren,2
@relatablequote,2
#billmaher,2
@borisep,2
#2016vpdebate,2
@akuma_river,2
@jeffjpetermann,2
#unity,2
@giphy,2
@nydailynews,2
#billions,2
@larrywade19,2
#godhelpus,2
#liberal,2
@bon_vivant007,2
@hillarysoldier1,2
#delusional,2
@microsoft,2
#pneumonia,2
#deplorable,2
#itllsuckass,2
#mtrushmore,2
@tricianc1,2
@pjstrikeforce,2
#capitalistarmy,2
@katiecouric,2
#nocucksuckas,2
@washingtonpost,2
@franks_3111,2
@chriscuomo,2
@ghetto,2
#latino,2
@polling_station,2
#saddamhussein,2
@sykoed,2
#americanpatriot,2
@mtracey,2
#iranransom,2
#winnawinnachickendinna,2
@joedavismedia,2
@johnnymercerfan,2
#canada,2
#terror,2
@sallykohn,2
@andersoncooper,2
#campaignamerica,2
#trumpinaz,2
#socialmedia,2
@lpdonovan,2
@peggynoonannyc,2
#rfra,2
@mdlmurray,2
#misogynstic,2
#immigrants,2
@judgenap,2
@wkamaubell,2
#anklebiter,2
@twitter,2
#breakingnews,2
@gstephanopoulos,2
@daleytom8,2
@csgv,2
#micdrop,2
#westworld,2
#,2
#clintonvstrump,2
#the,2
#kainetheinterrupter,2
@rschles,2
@imargo_ceo,2
#forces,2
@therickwilson,2
@hardballchris,2
#stay,2
#star,2
#alqueda,2
@californiapanda,2
#saveamerica,2
#sarcasmfontenabled,2
@facethenation,2
#hateful,2
@tregp,2
@jamescdownie,2
@tonygoldwyn,2
#invaded,2
#balloonmakeroftalltails,2
#kaineistheman,2
@taylar_springer,2
@kenr12,2
#imwithdonald,2
@hippiechickie58,2
@nancyjoys,2
#murderer,2
#trumpfoundation,2
#alert,2
@pkellstedt,2
#obl,2
#failing,2
#shelostcontrol,2
@amandacarpenter,2
@tforesha,2
#canweallagree,2
#socialsecurity,2
@arsenmissyirvin,2
#letitkaine,2
#foreignpolicy,2
@joshuharris,2
#nsa,2
#agreement,2
@triplezmom,2
@beantownedits,2
@govmikepence,2
@mariatcardona,2
@fbi,2
@mikebates,2
#bengahzi,2
@thelastword,2
#media,2
#wheresweldtho,2
#govpencein,2
#heatbreak,2
#refused,2
@hillarysmen,2
#dumptheidiottrump,2
@amymek,2
#pences,2
#vpdebat,2
#pulse,2
@kleegrubaugh,2
#michaeljackson,2
#yourtruthsarelies,2
@thr,2
#jerk,2
#quitinterrupting,2
@hlntv,2
#thanksobama,2
#ya4hillary,2
@meetthepress,2
@emmaroller,2
#youvelostreality,2
#safe,2
@ditaknights,2
#radicalislamicterrorism,2
#avalancheofinsults,2
#leadership,2
#unbelievable,2
#hillary4prison,2
@brianefallon,2
#yeswekaine,2
#trumps,2
#needrealchange,2
@tedcruz,2
#bernie2016,2
@katiezez,2
@ericbolling,2
#banmuslimrefugees,2
@bpolitics,2
#wrong,2
@voteequality,2
#lol,2
@tim,2
@tomilahren,2
#ttt16,2
@senatortimscott,2
#storyteller,2
#clownkainealert,2
#killary4prison,2
@follownewsnow,2
#mexicans,2
#topplethemsm,2
@perfectsliders,2
#tgdn,2
#criminal,2
#americansoldiers,2
#winespritzer,1
@lz_sune,1
@armond_ealey,1
#ohhillyes,1
@jessiecarter200,1
@getperk,1
#alec350,1
@melissaafrancis,1
#shortfingeredvulgarian,1
#trumphasnoclue,1
#homegrownradicals,1
#lockherup,1
@austan_goolsbee,1
#drumpf,1
#enoughisenough,1
@mitchellreports,1
@brucewolfchi,1
@queenofscott,1
#badguys,1
#dicktator,1
@joudyalghamdi,1
@nerdynegress,1
#zipit,1
@waff48,1
@paintsandsings,1
@realobf,1
@bhoffmann98,1
@jnrocky,1
#hillarycollapses,1
@lolli_logan,1
@youngdems4trump,1
@senpaulryan,1
@youngbasedwindu,1
@realdonadtrump,1
@nfl,1
#toronto,1
@bet,1
#conniechung,1
@imarathegreat,1
#lerarenopleiding,1
#tax,1
@mandahhlane,1
#patheticpence,1
#itisongwbushandthegop,1
#ktv,1
#lavegas,1
#mcmullin2016,1
@docmurdock,1
#debateintate16,1
#mostprepared,1
#alwaystrump,1
#boombox,1
#jerrysandusky,1
@thenation,1
@stephenkruiser,1
@tweet_harp,1
@darkmission1,1
@xtraceyann,1
#nuclearprogram,1
#daddyrusty,1
@mattmmille,1
@texasinfidel67,1
@genflynn,1
#tacobowlengagement,1
@patrioticpepe,1
#saynotomisogyny,1
#letsgotothetape,1
@moesusldn,1
#boston,1
@telemundonews,1
@kabbfox29,1
#simple,1
#not,1
@patriarchtree,1
#femalestrong,1
#neveryou,1
@millier22,1
@samuelcpw,1
@vpdebatelive,1
@jesseberney,1
@bwildectv,1
@demedlinjr,1
#libtard,1
#pencebot,1
#highschooldebatetactic,1
#englang,1
@wusa9,1
@blackppltweet,1
@realjameswoods,1
@christinawilkie,1
#iphone,1
@connectzfactory,1
@kleytoncooper,1
@chloegmoretz,1
#boom,1
#women,1
@katyturnbc,1
@ireland0828,1
#youraliar,1
#vpdebateactionmovie,1
@michaelrwarren,1
#fieryverse,1
@panicatthedisco,1
#russians,1
@mrtoronto1,1
#britainfirst,1
#haveastroke,1
#goldstarfamily,1
#bigleaguefacts,1
#mike_pence,1
@dominickevans,1
#,1
@stillwithher,1
#cancermoonshot,1
@jjohnsonlaw,1
#jillnothill,1
#films,1
#newyork,1
#sarcasm,1
@ericpavlat,1
#deephouse,1
#magic,1
#neverunderestimatetheniceguy,1
@sharonday,1
#vpotus,1
#cuba,1
#kainelies,1
@ssnitker,1
#islamicstate,1
#shutupkaine,1
@ottawacitizen,1
@joelshaffer2,1
#flatearth,1
@jmac10211,1
@mikepense,1
#justwow,1
@kark4news,1
@franklin_graham,1
@bianca_mandl,1
@thepatriot143,1
@texdohu,1
#orlandoislamterror,1
#peace,1
@trumpindallas,1
@ember_george,1
#donors,1
@justkate038,1
#righthandperson,1
#fave,1
@washtimes,1
#angelamerkel,1
#bingo,1
#angrytim,1
@stephenathome,1
@vj44,1
#hottopics,1
#kaineisamoron,1
#pander,1
#nohardchoices,1
@tammycoveney,1
#seals,1
@oldgriz507,1
#bosslady,1
@tressiemcphd,1
@andrewcmccarthy,1
#pencegettingtkod,1
#christian,1
#neverislam,1
#toypoodle,1
@frank_turk,1
@texasarmymom18,1
@made__usa,1
@jojnewyork,1
#wrongtrack,1
@rezaaslan,1
@brologics,1
@indgop,1
#sexoffender,1
#transparent,1
@criminals,1
@margauxac,1
@imdeplorable,1
@creetoris,1
#blumenthal,1
#trumpmovement,1
#corruptclinton,1
#pickoftheweek,1
@davenportqca,1
#notgonnadoit,1
@maccosmetics,1
@kayleehiggins1,1
#millenials,1
@videodubs,1
@clownparanoia,1
#nohillary,1
#stephenking,1
@wombat_socho,1
#podesta,1
@prozdkp,1
@kristinesheftel,1
#todayshow,1
#chalkboardconversations,1
#yomkippur,1
#egypt,1
@autistikids,1
#people,1
@timefortruth16,1
@danamcmullen7,1
#icamefromafarm,1
@blkwomenshealth,1
#ilikemike,1
#octobersurprise,1
@wordsmatter3,1
@profheadggc,1
#gopunfit2leadorgovern,1
@pannlewis44,1
@radionolan,1
#feelthebern,1
#interjection,1
#ww3,1
#hispanics,1
#weplaydeephouse,1
#buildthatwall,1
#jumpthegun,1
#ia,1
#havesomerespect,1
#penceiskillingit,1
#tumblr,1
#twittercencors,1
#hell,1
@tedtalksports,1
#goblin,1
#standupwithevan,1
#captainkirk,1
@karlrove,1
#il,1
#africanmusic,1
@momoms4trump,1
#kimjungun,1
#bodylanguage,1
#demonrat,1
@nra,1
#nevertrumporpence,1
#integrity,1
@christiec733,1
#yawn,1
#vox,1
#sen,1
#hellnaw,1
#bosnia,1
@serinaroseeadeh,1
@statsonfire,1
#gaming,1
#mbs,1
#__,1
@oniyoth,1
@kdrum,1
@scottsaxman1,1
#fyi,1
#fuckyou,1
#journalismisdead,1
@zerlinamaxwell,1
@peterschwartz2,1
#deplorablepence,1
#makeup,1
@reaganworld,1
@lampthedog,1
#markibold,1
@twbutts,1
@grandlinda3033,1
@nytfood,1
@khalilahloves,1
#willcnnmentionthis,1
#openquestion,1
#mnbc,1
@lappinmichael,1
@marksimoneny,1
@boblauria,1
#muslimbrotherhood,1
#classic,1
@outfrontcnn,1
#theafricangrooveshow,1
#lastyear,1
@leftcoastspud,1
@mlb,1
#vote2016,1
#tlot,1
@debramessing,1
#wrongteam,1
#khartoum,1
#istandwithevan,1
#debate16,1
@hillaryforpa,1
@syfy,1
#nv,1
@lexyvestal,1
#nevercain,1
#nc,1
#talkingpoint,1
#no,1
@cbsnlive,1
@zigmanfreud,1
@momsdemand,1
@cbsnewspress,1
@ginger_jasper,1
#nbcsn,1
@huffpostpol,1
@ashleybornancin,1
#judgecuriel,1
@joshnoneyabiz,1
@addiestan,1
#death,1
@tippairie7665,1
#octobersveryown,1
@thefunnyvine,1
@lorettalynch,1
#next,1
@cbsnewyork,1
@sensanders,1
#countrystrong,1
#lebanon,1
@tomlobianco,1
#tincan,1
#gig,1
@cdiener82,1
#governmenttakeoverattempt,1
@enddemocracynow,1
#vlvoices,1
#yourcityhere,1
#denial,1
@virginia00016,1
#reality,1
@housefloor,1
#esn,1
#interrupting,1
#tunein,1
#thirst,1
#economicpolicy,1
#legalimmigration,1
#tpot,1
@msavaarmstrong,1
#allcamssameshot,1
#presidentialnominee,1
@_pamelaaaaa,1
@debates,1
#usarmy,1
@redibrahim,1
#clownkaine,1
@cspanwj,1
@birdistheherd,1
#soulesshillaryclinton,1
@womenalsoknow,1
#unamerican,1
#sarahpalin,1
#thisisus,1
@mikememoli,1
@saysshetoday,1
@kstills,1
#wolf,1
@bros4hillary,1
#guardia,1
#usnationaldebt,1
#fasteddie,1
#terrorist,1
#kkkaine,1
@barrywaldo,1
#unfollow,1
#az,1
@mrstommo11,1
#profit,1
#al,1
#aa,1
@govgaryjohnson,1
#debatebingo,1
@rickhasen,1
@govmikehuckabee,1
#verneandgary,1
#winning,1
#mattfact,1
@royer_em,1
#millenialsfortrump,1
@jsince824,1
#hollywoodbubblehead,1
#eatabagofdickstrump,1
#trumpthefraud,1
#dreamforce,1
@ohnostudio,1
@nycmia,1
@abroad4hillary,1
@savellifranco19,1
#tk4vp,1
@vergfam,1
#krazykaine,1
@usmc,1
@graytteee,1
@yossigestetner,1
#xfinity,1
@reince,1
@teamcavuto,1
#helium,1
#factcheck2016,1
@ccn,1
#thismonth,1
#basisonderwijs,1
#kahn,1
#slayed,1
#vodebate,1
#passthebuck,1
#facts,1
#sdlive,1
@honestgorilla,1
#skeletor,1
#waroncoal,1
@lopoyda,1
@tpm,1
#jillstein,1
@un,1
@michelleobama,1
@trumpwhitehouse,1
#,1
#nuclearpower,1
@buffingactions,1
#hesnotwearingaflagpen,1
#please,1
#milo,1
#activationnight,1
#cuckoo,1
#safety,1
@elianabenador,1
#recipes,1
#va,1
#acidblackcherry,1
#acorn,1
@featmarklee,1
@gbelton_23,1
#patriotsawake,1
#wordsmatter,1
@kiarazhanae,1
@abcnews24,1
@lukebay77,1
@jones_jinxie,1
@anniemarie64,1
@therangebar,1
#rudekaine,1
#underthedome,1
#latinovote,1
@capthlr,1
@senjohnmccaln,1
#timkainethekindadad,1
@chrislhayes,1
@freedavidking,1
#obamaout,1
@houstonrockets,1
#blue,1
#arrogant,1
@ketugaamega,1
#fact,1
#hrc2016,1
@emilylgoodin,1
@cernovich,1
#comingsoon,1
#showmeyourtaxes,1
@chuck270,1
@nhl,1
#less,1
#horror,1
@niccook9,1
@owenbernard,1
@nielslesniewski,1
@katiepavlich,1
@angelinaguzmann,1
#yasu,1
@klfstudio,1
@pagop,1
@dfisher34109,1
#belowdeck,1
@imaginebitiesi,1
@ifdanyt,1
#invasion,1
#washingtonpost,1
@lucidlymner,1
@arianfoster,1
@cnnfieldsuper,1
@celticsjunkies,1
#trumpputin,1
#funny,1
#makeit,1
@jays2629,1
#youarebiased,1
@dlq_421,1
@morning_joe,1
@richardcruzc,1
#gotrumppence,1
@doctorevil_1995,1
@huffingtonpost,1
#guernseycounty,1
#conman,1
#hillarysearpiece,1
#chappaqua,1
#mike,1
#frankfurter,1
#harmonicas,1
@cfr_org,1
@pollsterpolls,1
#middleeast,1
#dabates,1
#raqqa,1
@siutoiogy,1
@afan_oftruth,1
#factsmatter,1
@davewellwisher,1
@carlbernstein,1
@papalevi,1
#nomoreweakness,1
#tothekidstable,1
#snarky,1
#donkeyoftheday,1
@glorialariva,1
@wilkowmajority,1
@foxyrox32,1
#turkey,1
#maria,1
@smitty_one_each,1
@1kidrevolution,1
@walmart,1
#loveher,1
#,1
#rapistbill,1
#anotherfuckingcitizenname,1
#hotmess,1
@jomainevent,1
#seinfeld,1
#cheryl,1
@jada_pulka,1
#vppence,1
@angelsary_l,1
#england,1
@mikence,1
#believeitkaine,1
#headdesk,1
#bluray,1
#crazy,1
#donaldjtrump,1
@paeznyc,1
#asshole,1
@georgetakei,1
#liberalbias,1
#itsrigged,1
#clintonandkaine,1
@danabashcnn,1
#creepycrookeddems,1
#snl,1
@profmichelson,1
@cameo1601,1
#lyingmsm,1
#letgarydebate,1
@nypost,1
#bananarepublic,1
@bigdog_joey,1
#producers,1
@msjenniferlaw,1
#unitedwestand,1
#,1
#poise,1
#lala,1
@cleverkate,1
#mainstreammedia,1
@jeffreygoldberg,1
#illwait,1
@denzel51497,1
#australia,1
@devinnelson77,1
@outlanderhome,1
@thebachel0rette,1
#godaddy,1
@gloriaborger,1
#vote,1
@franciscomedrep,1
#mostexperienced,1
@mollyesque,1
@veteransforhill,1
#nhl,1
#indy500,1
#imperialism4eva,1
#nafta,1
@danswright,1
@lebronized,1
@votolatino,1
@logannorch,1
#vienna,1
@debatethenation,1
#ourkidsdeservebetter,1
@poisedcupcake,1
#thedonald,1
#whatskainespin,1
#rambo,1
@kimberleymonari,1
@raynebowmom,1
#checklist,1
#cba,1
#trumptheinsultdog,1
#kurds,1
#philippines,1
@postalmary,1
#newyorkknicks,1
#votetrumppence2016,1
#notpresidentialmaterial,1
#hillaryslies,1
@guardian,1
#google,1
#pewpewpew,1
#legal,1
#kaines,1
#getshelpfromcbs,1
@k8gould,1
#dumbasstrump,1
#statedepartment,1
@annfishman,1
#homeoffice,1
#gotimgo,1
#qaddafi,1
#tv,1
#twitter,1
@lukeamck,1
#moderatorfail,1
@geebouras,1
#payforplay,1
#bethiphopawards,1
#anal,1
@chelseaclinton,1
@obamahater24,1
#timscott,1
#millennials,1
#puppet,1
#illegal,1
#temenunaposicion,1
@bdamatin,1
#lyrics,1
#raganmsft,1
@cape_cod_jim,1
#voteforme,1
#corruptclintons,1
@cloeetaylorr,1
#islamistheproblem,1
@realbobwoodward,1
#birthdayweek,1
#dreamchasers,1
#ties,1
#fished,1
#nomercy,1
#wabashdw,1
@realdenaldtrump,1
#previousrt,1
@andreamccarren,1
@glennbeck,1
@francesfrancine,1
@kaepernick7,1
#abetteroption,1
#cowards,1
#lyingkaine,1
#westpac,1
#,1
@jnjnews,1
#cottonhill,1
@liberalslose,1
@drjillstein,1
@paulforbesnyc,1
#christiansunite,1
#deanambrose,1
#thankgoodness,1
@steeone,1
@workclassjane,1
@imeegracia,1
#bringbernieback,1
#piusdebate,1
#angerissues,1
@foxnashville,1
@cspjo,1
@jill_dresser,1
#disgusting,1
@aspiesmom,1
@demsabroad,1
@parra456,1
#penceforconveraiontherapy,1
#abc13,1
@cdoranharader,1
@bamadan78,1
#red,1
@freedomlover50,1
#republicansforhillary,1
@anncoulter,1
#cain,1
@dory,1
#africanamercian,1
#whiteguy,1
@akconservative9,1
@littlecaesars,1
#presdential,1
@dncpress,1
@nbcnewsus,1
#,1
#letsbefair,1
#temperament,1
@stewartstarlit,1
@baruchcollege,1
#jokergrin,1
#interruptions,1
@kaine,1
#cdoranharader,1
@ezraklein,1
#neverlyinghillary,1
@nycsouthpaw,1
@pmicc33,1
#fun,1
#ronaldreagan,1
@rayann2320,1
#defeatgop,1
@duaneeubanks,1
@donfelixspm,1
@jugawoapgov,1
#disabilities,1
#yellowjournalism,1
#exceptfortheending,1
@thedailyshow,1
#oil,1
#beatdown,1
@the1stbellicose,1
#nationaltacoday,1
@chemishalev,1
#deb,1
#biz,1
@varadmehta,1
#dems,1
#vpdebatek,1
#nwo,1
@brianmclight,1
#bansharialaw,1
@freedomusa4,1
#yourefired,1
@charli,1
@nbcnightlynews,1
#legalimmigants,1
#conservative,1
#bethiphopaward,1
@jammiewf,1
#donaldtrumpocalypse,1
#mikepense,1
#letpencetalk,1
@samheughan,1
@lindaksienkwicz,1
#presidential,1
#dhs,1
@jdcato19,1
@rerinlloyd,1
@blm_protest,1
@teamtrumpnc,1
#orlando,1
#vpdebatepence,1
#pin,1
@leeofficialt,1
#scaryclowns,1
@_diamoniquiie,1
#hiphopawards,1
#freudian,1
@stevedeaceshow,1
#balancedbudget,1
#blankcamers,1
@dwstweets,1
@vpdebate,1
#muzzleagreatape,1
@markruffalo,1
#illegalimmigrantz,1
@jakereesmogg,1
#suppliersepatu,1
#facesofkaine,1
#bedtime,1
#makeamericarichagain,1
@politico,1
#statusofforcesfailure,1
#potus16,1
#dncleaks,1
@cucumber1emons,1
#nuclearweapons,1
@aarp,1
#stud,1
@casscj,1
#establishingmyauthenticity,1
@rosie,1
@cbspolitics,1
@terriingrassia,1
@longwoodu,1
#,1
#nationaldebt,1
#eu,1
@woodwardsfriend,1
@_political_p,1
@nytpolitics,1
#bordersecurity,1
@donlemon,1
@activist360,1
#pfw,1
#slamdunk,1
#criminalaliens,1
#perfection,1
#ice,1
@michelegruba,1
#kainehasnoselfcontrol,1
#blacks,1
#uranium,1
#presidentialcandidates,1
#voteready,1
@bannerite,1
#gender,1
@local12,1
@lucidhurricane_,1
#ambasssdorstevens,1
@g987fm,1
#rickscott,1
@justinbarasky,1
#fl,1
#kaineinterrupts,1
#trumpreality,1
@ronfair43,1
#,1
#realamericans,1
@timlammersfox61,1
@leahr77,1
@politicsreid,1
#german,1
#factshelp,1
#libertarian,1
@indiana_edc,1
@juliathewriter,1
@jburleson4,1
#banhillary,1
#chalupa,1
#noicamefromafarmfirst,1
@indythisweek,1
@hessjolland,1
#proudtobearepublican,1
#hirebetterpeople,1
#wethepeople,1
#eyebrows,1
#vicepresidentdebate,1
@heralddeparis,1
@maureenshaw,1
#cato2016,1
@afrimma,1
@trueeo,1
@fletcherashlynn,1
@slopiccolo21,1
@upayr,1
#outdoor,1
@karoli,1
#anz,1
#policereform,1
#greenparty,1
#win,1
@karla_westcoast,1
#worldwide,1
#perktv,1
@jasonmillerindc,1
@myradingle,1
#loserdonald,1
#2016election,1
@senjohnmccain,1
#arizona,1
#deportation,1
@mimiandpoppyx2,1
@johnkerry,1
@vaccinescanharm,1
#younusalgohar,1
#mysafetymatters,1
@ramansour,1
#mikethecaddy,1
#,1
#importingpoverty,1
@obsoletedogma,1
#lovetrumpshate,1
#dubya,1
@ryan_lever,1
@rld5426,1
#hothead,1
#votehoney,1
#truelove,1
@camillekinlock,1
#hypocriticalhillary,1
#mansplaining,1
@bearbo,1
#newrelease,1
#loreal,1
@obamascrewingus,1
@rexhuppke,1
@kelseymsutton,1
#perpetual,1
@leablackmiami,1
#djcourtney,1
@admginger,1
#michelleforpresident,1
@amleg1830,1
#xijinping,1
@rach_ic,1
@theplumlinegs,1
@kinsellawarren,1
#decisions,1
@cavemanssponge,1
#republicanscheat,1
@rudygiulianigop,1
#workhardplayharder,1
#fox5dc,1
@advanceguynotes,1
#dc,1
@elianselmi,1
#fuzzyhistory,1
#pleasedontgo,1
#democrat,1
@realjeffreylord,1
#maya,1
#wearescrewed,1
@sandraeckersley,1
@onepogranny,1
#humanrights,1
@ejhirschberger,1
#october9,1
@abwhite7,1
#tytluve,1
@nvr4get91101,1
#saltlife,1
#production,1
@allanbrauer,1
#whatabilliondollars,1
@futuredanger6,1
#schooljaar,1
#bbot,1
@professorf,1
#penceblowout,1
@hillaryclintons,1
@foxnewslive,1
#austria,1
@taina_santana13,1
#dash,1
@thefix,1
@cnnmoney,1
@stewartmillsmn,1
@news4sa,1
#aljazeera,1
#latinos,1
#tytlive,1
#reggae,1
@angebattles2,1
@ndnonprofitprof,1
#liberalsareidiots,1
#corruptdnc,1
#rhodes,1
@peterhamby,1
#doitforthevets,1
#,1
#aburglarsguidetothecity,1
@fanofjj48,1
@nancykaffer,1
#warmongering,1
@adjunctprofessr,1
#bluewave2016,1
#makeamericagreat,1
@bourdain,1
@mattfrieds,1
#pencehomophobiatour2016,1
@marcorubio,1
#6billion,1
@jackposobiec,1
#americansoldier,1
#myvote,1
#killingit,1
@realdonaldrumpf,1
#spicymayonaise,1
#fuckyerguns,1
#buffering,1
@trumptrain,1
#temperamental,1
#illegalaliens,1
#healthdisparities,1
@ebay,1
@jrsbbq,1
#daddycolonel,1
#prisons,1
#insultdrivencampaign,1
@lauracgilleslil,1
#hacks,1
#selfdealing,1
@finneyk,1
@diamondandsilk,1
#improper,1
@apolloxxxx,1
@mkmolnar,1
@racheltrue,1
#sunkcostsareirrelevant,1
#semperfi,1
@timkeane,1
@telltalegames,1
#orlandoshooter,1
#stop,1
#reporights,1
@myrealtalkradio,1
#winteriscoming,1
@craiglavon,1
#amazing,1
@tommyshida,1
@whitehouse,1
#baruchvote16,1
@blacktwitterati,1
@hannahgauvs,1
@love3i,1
#pencevskaine,1
#cripthevote,1
#_,1
#notsmart,1
@michaelharrisdr,1
@tamara515,1
@tetsudo_771,1
#blackfolksbettervote,1
#economy,1
#celtics,1
@italians4trump,1
#mtbe,1
@rollcall,1
@bellareena13,1
#ig,1
@club_reid,1
@msdramateacher,1
#comeondude,1
#comeonpeople,1
@people4bernie,1
@wpxi,1
#voteblue,1
#obamanation,1
@mchooyah,1
#stakestoohigh,1
#setup,1
#trustnoone,1
#obamalegacy,1
@senatorshoshana,1
@morningmika,1
#deplorablesrising,1
#rufusreid,1
#nevillechamberlain,1
@illuminateregui,1
@la_maness,1
@rnc,1
@jimsciutto,1
@rtv6,1
#trumpunfit2leadorgovern,1
#farmville,1
@mikedece_cspg,1
#emailgate,1
#brilliant,1
#dickcheney,1
#smug,1
#dissonance,1
@liltjonesss,1
#releasetaxreturns,1
#univision,1
#tours,1
@hholdingsusa,1
@lauraingle,1
@realalexjones,1
@joshddenton,1
@ivankatrump,1
#tincain,1
@supermacybourn2,1
#soldiers,1
#mobile,1
#notfit,1
#clown,1
#mybodymyrights,1
#seriouslythatiswhatyouretweeting,1
#metoday,1
#ironicfont,1
@pamcurtis4210,1
#brexit,1
#liesandlyingliars,1
#presidentialelection2016,1
#baghdad,1
@mmaaruuk,1
#,1
#etc,1
@newsweek,1
@writingbymatt,1
#justinlin,1
#debut,1
@instapundit,1
#ytv,1
@cbseveningnews,1
#goblackhawks,1
#genius,1
#onfleek,1
@supportdonald,1
#transactions,1
#shill,1
#togotohell,1
@julieroginsky,1
#mostqualified,1
@tbk1955,1
@joebiden,1
#iwithher,1
#getoutofhere,1
@realpresdonald,1
@lisadrummey,1
@rtnba,1
@nba,1
#clintonfoundationhack,1
#refugees,1
@dreamfoodz,1
@baloneymander,1
@tvogvo,1
#crookedclintonfoundation,1
@charlesmblow,1
#jonnyquest,1
#houstonrockets,1
#freedom,1
@cdcwhistleblowr,1
@cctv,1
#orangeguy,1
@connorwmommy,1
@nyomiebutler,1
#kainepence,1
@abcworldnews,1
#kurdistan,1
#steinbaraka,1
#haiti,1
@nathanfletcher,1
#womenforhillary,1
@altagrace121,1
#fb,1
@periwinklewwish,1
@schulerdiane,1
@kyleclark,1
@rudreshm,1
#travelgate,1
#oilfield,1
#trump16,1
#michaelharrisdr,1
@christichat,1
@jelanijenkins3,1
@nicolemerchut,1
#birther,1
#chertoff,1
@iamsophianelson,1
#letbilldebate,1
#overcoached,1
#americaunite,1
#ha,1
#blockchain,1
#bigpharma,1
@catras4040,1
#khan,1
@catwalk2711,1
@cvpayne,1
@briiiaaa99,1
#whatshisname,1
#debatedrinkinggames,1
#mediabias,1
#insults,1
@ryanpodolak,1
@nprpolitics,1
@ejsiro,1
@davidfrum,1
#domainname,1
@deborahpeasley,1
@oranpsmith,1
#crooked,1
@rob_mctavish,1
#knowyourcandidates,1
@aarpadvocates,1
@susansarandon,1
#rockthehashtag,1
#paris,1
#smallthings,1
@patriciathe2nd,1
#foreverwar,1
#truthhurts,1
#taxes,1
@anointedjoshua,1
#prezdebateau,1
@condea5179,1
#trumpandpence,1
@smerconish,1
@opendebate,1
#reagan,1
#patriotism,1
@warlock978,1
@gillianhturner,1
#vile,1
#whitehouse,1
@theperezhilton,1
#vaisdisapointed,1
#scary,1
#,1
@cleanairmoms,1
#cuckhold,1
#trumptrain2016,1
@r_desanti,1
@wethepeople,1
@carlquintanilla,1
#trumplies,1
#series,1
@ddkochel,1
#gopfail,1
@timthetim823,1
#fairandbalanced,1
#bbott,1
#agenda,1
#scampaign,1
#events,1
@stevestfler,1
#cabletv,1
#,1
#,1
#embargo,1
#yemen,1
#bitcoin,1
#kaineintheass,1
@sexualgif,1
#badobama,1
#fajr,1
#picklesandpancakes,1
@fivethirtyeight,1
#awesomeness,1
#vipdebate,1
#kaineisabitch,1
@adedapolinda,1
@bcuzimdamomma,1
#teamtrumppa,1
#bizness,1
#trumpteam,1
#taxcuts,1
#illegalimmigration,1
@kristenshamus,1
@pambesteder,1
@politifact,1
#mikejudge,1
@eurweb,1
@realdylanclark,1
@thetumblrposts,1
#bully,1
#loveulynn,1
@msn,1
@courteneycox,1
@billputnamphoto,1
#schedule,1
#sausage,1
#rigged,1
@patriotmaga,1
#weaselkaine,1
@asamjulian,1
#notfittolead,1
#noexceptions,1
@newshour,1
#jrleague,1
@_julezzz_13,1
@bhlonline,1
@_bsnell,1
#familyguy,1
@mckenzieharper_,1
#ifunny,1
#wow,1
@clownlngs,1
#daddysandy,1
#duterte,1
#bigbrother,1
#bigly,1
#doitright,1
#fanya,1
@abigaildisney,1
@tomcarterforms,1
@2sense2,1
@oncejeongguk,1
@clayaiken,1
#shoponline,1
@stevesanantone,1
#alabama,1
#timkains,1
@teamtrumpaz,1
#lockhimup,1
#moneylaundering,1
#security,1
#heresjohnny,1
#iraqifreedom,1
#wescraven,1
#gopidiots,1
#fireballthedog,1
@dmnqbrowning,1
@ron6754,1
@manstagram_,1
#plannedparenthood,1
#kanewon,1
@lifeasbros,1
#protectlgbtqfromislam,1
#johnsonweld2016,1
@marcuspeters,1
#middleclass,1
#shameonu,1
@masg66,1
#factcheck,1
#kainetheclown,1
@joeygatto,1
#debatenighy,1
@ericdecker87,1
#activatefortump,1
#loosenukes,1
#america1st,1
#,1
#holdtheirfeettothefire,1
#tearsofjoys,1
#stupid,1
#ocforhc,1
#hardcore,1
#womenfortrump,1
#pornvideos,1
#girl,1
@19tiko66,1
#banks,1
@wemisscamping,1
@msjbe20a,1
@ccriderjohn,1
@michael31thomas,1
@jamss3468,1
#nokaine,1
#incredible,1
@newday,1
@frank__nicholas,1
@onlytruthreign,1
@metpoliceuk,1
#real2016,1
#anythingforpower,1
#theretheygoagain,1
@ksoltisanderson,1
#conspiracy,1
#douche,1
@cnnsitroom,1
@beastfromthene,1
@ahmedbaba_,1
#firethemall,1
#tattooedgirls,1
#govmikepence,1
@johnand2015,1
#substance,1
#billionhits,1
@jimmiewrites,1
#macselena2016,1
@hpuestow,1
#2016vp,1
#fucktimkaine,1
#fop,1
#mastersoftheuniverse,1
#ourrevolution,1
@kmledf2,1
#aleppo,1
@ppact,1
#fantasyland,1
#republicansagainsttrump,1
@newborntight,1
@etreetro,1
@jjauthor,1
@eubankstanner,1
#vpdebate8,1
@starlitblond,1
#pencewins,1
@malinisramaiyer,1
#foroglobal,1
#connexion,1
#elaine,1
#newsengagementday,1
#pay2play,1
#seattle,1
@brian_bosma,1
@nickturse,1
@mandyjune74,1
@breanna_berger,1
#stophillary,1
@lesterholtnbc,1
#righttie,1
@nieves_rd,1
#boycottmsmpolls,1
@milagro48357132,1
@3085,1
#stopisis,1
#hrcemail,1
@windemere22,1
@nubianawakening,1
@stxlesparadisee,1
#nuclearproliferation,1
@iamdiddy,1
@cgasparino,1
@dcexaminer,1
@wordsmithguy,1
@lywags,1
#missionnotaccomplished,1
#wikileaks,1
#bigot,1
@fritchee,1
@kane,1
@minnesotadfl,1
@paigestancavage,1
#whatpenceisthinking,1
#peacethrustrength,1
#segurosocial,1
#fullofshit,1
#trumpturd,1
@jtmobleyfla,1
#_,1
#emailserver,1
#misogynist,1
@therealcornett,1
#diva,1
#banislam,1
@newschannelnine,1
@richardengel,1
#racism,1
@love_to_sing11,1
#pencefail,1
#notbuyingit,1
#iraqblindness,1
#dirtydonald,1
#dancehall,1
#seriously,1
@jrocco525,1
#legally,1
#cray,1
#receipts,1
@buzzfeednews,1
#debatenight2016,1
@hanksilverberg,1
@jonathantamari,1
#rockstarsfortrump,1
#mara,1
#julianassange,1
#burn,1
#wherewaspence,1
#gwbush,1
@cafedotcom,1
@djjessej,1
@samperry_07,1
@chriscquinn,1
@gabsterg_,1
#nra,1
@theonlyadult,1
#wapo,1
@madamclinton,1
@nwg83,1
#fuck,1
#prepshaming,1
@aliceollstein,1
#activate,1
#hounews,1
@schatzilein8,1
#progress,1
#nofilter,1
@cool_as_heck,1
@raheemkassam,1
#tigerwoods,1
#hilarysupporters,1
@_proud_american,1
@noamlevey,1
#mikepencethekindadad,1
#gunsense,1
@alyssaray_2014,1
@debdew2,1
@jebbush,1
@lmadisonn,1
#obamaandhillarycreatedisis,1
@arkandove,1
#johnnycochran,1
#,1
@mkamensek,1
@grownassmidget,1
@riegerreport,1
@usafortrump2016,1
#fnc,1
@largepeas,1
@instrumentdaily,1
