Hashtag,Total Count
@hillaryclinton,372
#nevertrump,102
#trump,100
@realdonaldtrump,98
@mattylovesadele,91
#usa,82
#hiring,80
#deals,75
@jenscorpio83,74
#donaldtrump,58
#imwithher,54
#hillaryclinton,51
@bigkahuna919191,50
#ebay,47
@c0nvey,45
#2016election,44
#careerarc,42
#jobs,39
#clinton,36
#neverhillary,34
@cnn,32
#donthecon,31
#latinos,31
#crookedhillary,30
#job,30
#barackobama,29
#career,27
#cnn,27
#jobsearch,26
@judeclemente,24
#obama,24
@ofa,24
#2017president,23
#hillary,23
#conspiracy,23
#ohio,22
#veterans,22
@foxnews,22
#trumptaxes,21
#ptsd,21
#maga,20
#blackvotematters,19
#uselections,19
#florida,18
#hospitality,18
#cbsnews,17
#retweet,17
#taxplan,16
#abcnews,16
@gop,15
#potus,15
#un,15
#election2016,14
#hrc,14
#gop,14
#trumppence2016,14
#oh,14
@krauthammer,13
@repseanduffy,13
#dems,13
#fl,13
#whitehouse,13
#blm,13
#women,12
#nc,12
#az,12
#strongertogether,12
@msnbc,12
@cnnpolitics,12
#gopwomen,12
#indie,12
#students,12
#ff,12
#lgbt,12
#seniors,12
@thedemocrats,11
#michelleobama,11
@ebay,11
@brikeilarcnn,11
#trumptaxreturns,11
#debate,11
@abc,10
#trump2016,10
#funny,10
#retail,10
#politics,10
@kellyannepolls,10
#us,10
@love,9
@abaesq,9
#games,9
#gamer,9
#gaming,9
#dumptrump,9
#furniture,9
@asid,9
#home,9
@amermedicalassn,9
#news,8
@nytimes,8
#toys,8
@wikileaks,8
@tacobell,8
#healthcare,8
@bmw,8
#sales,8
#factsonly,7
#wikileaks,7
#vets,7
#buynow,7
@nbcnews,7
#trumptrain,7
#voteblue,7
#followthemoney,7
#tcot,7
#fun,7
#americafirst,7
@seanhannity,7
#uniteblue,6
#welfarequeentrump,6
#deplorables,6
@potus,6
#delusional,6
#unga71,6
#vet,6
#america,6
#trumplies,6
@cbsnews,5
#2a,5
@clive_carter,5
#feelthebern,5
#breakingnews,5
#lies,5
#trumpisanabuser,5
#play,5
#au,5
#privilege,5
@kingjames,5
@loudobbs,5
#manufacturing,5
@scottbaio,5
@chriscuomo,5
#anniversary,5
#flotus,5
@mailonline,5
#clintonscandal,5
#foxnews,5
@barackobama,5
#clerical,5
@joenbc,4
#obamaverb,4
#deal,4
@danscavino,4
@reince,4
#hypocrite,4
#sonic,4
@cbs,4
@kurteichenwald,4
#propaganda,4
#donaldducks,4
#veja,4
@senwarren,4
@buzzfeedandrew,4
#p2,4
#garyjohnson,4
@vanjimbo,4
#auction,4
#blacklivesmatter,4
#draftdodger,4
@foxbusiness,4
#bargains,4
#debates,4
@ingrahamangle,4
@nbcpolitics,4
#trumpfoundation,4
@cbseveningnews,4
@oreillyfactor,4
#un4refugeesmigrants,4
@youtube,4
@forbes,4
@dcexaminer,4
@billclinton,4
#ohhillyes,3
#amandaknoxdoc,3
@thetweetest,3
@golfbollox,3
#samsung,3
#iphone,3
#clintonkaine,3
#happyanniversary,3
#donald,3
#assange,3
#trumpeteers,3
#fitness,3
@timkaine,3
#it,3
@joan690,3
@hfa,3
#saudi,3
#read,3
@lindasuhler,3
#tablet,3
@joyannreid,3
#savemoney,3
#dallas,3
#bigleaguetruth,3
#unfit,3
@majorcbs,3
#amazon,3
#pathetic,3
#factsmatter,3
#reportero24,3
#vote,3
#wessmith123,3
@kategillieart,3
#akron,3
#eredcarpet,3
#repost,3
#phone,3
@politico,3
#defund_dc,3
#hisorangeness,3
@trumpscard2deb8,3
#trumpthegenius,3
#apple,3
#extratv,3
#cdnpoli,3
@andersoncooper,3
#sonypictures,3
@commuternyc,3
@matthewdlehman,3
@mitchellvii,3
#polls,3
@jackposobiec,3
@kevingroenhagen,3
#decor,3
@realalexjones,3
@commonsensesays,3
#mtvstars,3
#wakeupamerica,3
#wakeupohio,3
@nbc,3
@jaketapper,3
#clintonfoundation,3
#healthy,3
#dailydeals,3
@teamtrump,3
#toledo,3
#bernieorbust,3
@ashman_andrew,3
#transportation,3
@fbi,3
#taxes,3
@thedailybeast,3
#granada,3
#fbi,3
@abusedtaxpayer,3
@ap,3
#russia,3
#colorado,3
@cnnsitroom,3
#batman,3
#lebronjames,3
@pryan,3
#julianassange,3
#msnbc,3
@ericaj58,3
#nuevayork,2
#,2
#starwars,2
#trumphasnoclue,2
#lockherup,2
#aerolneapeanieto,2
@mitchellreports,2
#nursing,2
#camera,2
#bush,2
#marvel,2
#retrogaming,2
#espanha,2
#sanantonio,2
#mxico,2
#openquestion,2
@realjameswoods,2
@senatemajldr,2
@donaldjtrumpjr,2
@katyturnbc,2
#millennials,2
#accounting,2
#lasvegas,2
#newyork,2
@everytrumpfan,2
#bernie,2
#ccot,2
@jaredwyand,2
#innovation,2
@gmknowles,2
#political,2
#trumpchosechina,2
#nike,2
#sale,2
#standupwithevan,2
#corrupt,2
#pjnet,2
@goldieaz,2
@mrdane1982,2
#trumpwon,2
@thehill,2
#vpdebate,2
#commonsense,2
#rnc,2
@tomlobianco,2
#trumpincuba,2
#hillarystandard,2
#cosmetology,2
#chelasfortheband,2
#debatenight,2
@debates,2
#houston,2
@caseyneistat,2
#wtf,2
#nationalboyfriendday,2
@govmikehuckabee,2
#pence,2
#corruption,2
@sopandeb,2
#seanduffy,2
#facts,2
#email,2
@michelleobama,2
#kids,2
#purposeworldtour,2
#figures,2
@spoken_sence,2
#debates2016,2
@faithbased92,2
#good,2
@infowars,2
#money,2
#retro,2
@magicroyalty,2
#presidentialelections,2
@thebriefing2016,2
@morning_joe,2
#juppe2017,2
#msm,2
@buzzfeednews,2
@maddow,2
@abcpolitics,2
@mollybogart,2
@newsweek,2
#perspective,2
#d,2
#shoes,2
#voters,2
#buzz,2
@adamweinstein,2
#hotsprings,2
@onderick_onder3,2
#tinyhands,2
#gabyarellanove,2
#whattrumpsaid,2
@intelligencer,2
#pa,2
#pt,2
@mlcalderone,2
#kingjames,2
#sheswithus,2
#hillyes,2
@minorities4maga,2
#br,2
@nycsouthpaw,2
#veterans4trump,2
#aj2017,2
@nbcnightlynews,2
@ericbradner,2
#policies,2
#lasttimetrumppaidtaxes,2
#deplorable,2
@quest_real,2
#health,2
@rkmeldor,2
#trumppence16,2
#paytoplay,2
@washingtonpost,2
#imwithjill,2
#nasa,2
#rusia,2
@brianstelter,2
#twitter,2
#lovetrumpshate,2
@wellsfargo,2
#trumpptsd,2
#president,2
#globalists,2
#dc,2
#berniesanders,2
#democrat,2
#trumpster,2
#westworld,2
@pjdefilip,2
#france,2
#parttime,2
#leonardodicaprio,2
@unnuevodia,2
#undecideds,2
#ivoted,2
#lawandorder,2
#portugal,2
#poll,2
@mike_pence,2
#hillarytrump,2
#stakestoohigh,2
#election,2
@reederschloss,2
#principlesoverpolitics,2
@chriscoon4,2
@dbushtree,2
@hillarysoldier1,2
@cnnbrk,2
#hillaryforprison,2
#sanders,2
#crooked,2
@hardball,2
#stoptrump,2
@opendebate,2
#trumpsniff,2
@riromtz,2
#mex,2
@backstreetboys,2
#oppositeday,2
@mbi_alcaldia,2
@buzzfeed,2
#ohiovotes4trump,2
#avengers,2
@thejusticedept,2
@tom1234west,2
#stopandfrisk,2
#hillary2016,2
@kenvogel,2
@ricky_vaughn99,2
#mtn,2
#engineering,2
#marketing,2
#fake,2
@sailordave1974,2
@newday,2
#presidency,2
@loudobbsnews,2
#el_pais,2
#aristeguionline,2
@bfry1981,2
@always_trump,2
#lol,2
#treasonous,2
#hypocrisywatch,2
@faceripermonkey,2
#bizzaroworld,2
#curiosidades,2
@harlan,2
#hillarysemails,2
#policy,2
#automotive,2
#unconstitutional,2
#decency,2
@ac360,2
#makeamericagreatagain,2
#uselection,2
@bi_contributors,2
#bbcbreaking,2
#live,1
#hillarysmafia,1
#fakeconservatives,1
#otd,1
@the_trump_train,1
#twilight,1
#longread,1
#elecciones2016,1
@imoore8904,1
#poeticaacciones,1
#drumpf,1
#decision2016,1
#crescita,1
@hillarytaunt,1
#therealdonaldtrump,1
@michaels_leigh,1
#chantilly,1
#halloweenin5words,1
#nevertrumpers,1
#dramaalert,1
#hero,1
#wearespeedway,1
#duarte,1
#tax,1
#bodymoves,1
#donkingshutup,1
#teenlit,1
#marinadelrey,1
#lasttimetrumppayedtaxes,1
#trumptaxevasion,1
#banking,1
#allstatejobs,1
#releasethereturns,1
#omaha,1
#snifflingtrump,1
@fahrenthold,1
#coldwar,1
#best,1
#airliebeach,1
#trumpstaxes,1
#nberlat,1
#crookeddonald,1
@brainykid2010,1
#copolitics,1
#sparks,1
#terribauman,1
#mormon,1
#bike,1
@airbagoficial,1
#trending,1
#bigbanks,1
@haleybureau,1
@theview,1
@flotus,1
#jersey,1
@shuli_ren,1
#raleigh,1
#england,1
#ericholder,1
#merecumbiandofu,1
@jasoninthehouse,1
#onlineshopping,1
#raptors,1
#myrealtalkradio,1
@chloegmoretz,1
#erikaosanoja,1
@frontlinepbs,1
#pantsonfire,1
#oakbrookterrace,1
#rain,1
@atlanticcouncil,1
#johnson,1
@mattyglesias,1
#westvalleycity,1
#american,1
@attorneyfrey,1
#disneyinfinity,1
#jillnothill,1
@politicjunkfood,1
#passion,1
@disimonetony,1
#ericwilderok,1
#speedpainting,1
@juicesaysthis,1
#bstreetcafepueblo,1
#anniluce,1
#withherfirst,1
#dealmeinhillz,1
@tayiorhq,1
@huffpostarts,1
@millennialviews,1
#senate,1
@bk_pitt,1
#usapol,1
#empleo,1
#culture,1
@southernbaptist,1
@franklin_graham,1
@o_ema,1
#cheap,1
#harvardbiz,1
@safeway,1
#tiernosmsjses,1
#wallstreet,1
@correctrecord,1
#oakhurst,1
@leodicaprio,1
@southpark,1
@lula2018e2022,1
#waronwomen,1
#hypocrisy,1
#koalababy,1
#cyberattack,1
#utica,1
#style,1
#veteransagainsttrump,1
#christian,1
@bobbeckel,1
#trumpoversy,1
#birmingham,1
@postfightpress,1
#jessicafreddy3,1
#fraudtrump,1
#kellyayotte,1
#presents,1
#808news,1
#nintendo,1
#wars,1
#ericgarner,1
@abrahammateomus,1
#cto,1
#rachelmaddow,1
@green_footballs,1
#newyorktimes,1
#ftworth,1
#contratar,1
@smerconish,1
@luisbaram,1
#brucespringsteen,1
#jokedujour,1
#tedmed,1
#wheresgeorge,1
#draftdodgerdonnie,1
@ipswichdude,1
#kansascity,1
@evan_mcmullin,1
#octobersurprise,1
#venezuela,1
#pamcerdeira,1
@josibarra14,1
#manypeoplearesaying,1
@brackster39,1
#mapoli,1
#bartender,1
#knowyouraudience,1
#lasttimetrumppaidtax,1
@sheena_8886,1
#force,1
@jbiardeau,1
#madamepresident,1
#troutdale,1
#correoorinoco,1
#bakelite,1
#ronjohnson,1
#taxdodgers,1
#marcellus,1
#concert,1
#asia,1
#cd9lipsinquea,1
#checkers,1
@brianmorgan470,1
#clintonkid,1
#norquestpledge,1
#emailscandal,1
@kevinplantz,1
#ripollet,1
@silerabbit,1
@ew,1
#top,1
#feast,1
@koaa,1
#dumpsterfire2016,1
@ajaxivan,1
#pettychildren,1
#misleading,1
#pedophile,1
@malenahc,1
#arianne,1
#steven_m_lloyd,1
#manypeoplesaid,1
#bushcrimefamily,1
#music,1
#ukrainiangirl,1
@ecoyuri,1
#energy,1
@epn,1
#northbrook,1
#gobigorgohome,1
@pplsummit,1
#alejandrovara,1
#coulditroubleyoufor,1
#la_patilla,1
#taxloophole,1
#whocares,1
@jheil,1
#wearescrewed2016,1
#reallove,1
@seabreezecheryl,1
#teddyforpres,1
#vote2016,1
#tlot,1
#mondaymotivation,1
#nyt,1
@michael_j_bravo,1
#nowplaying,1
#game,1
#trumpsarmy,1
@suluna10,1
@hramosallup,1
#latinosdontvotefortrump,1
#ny,1
#bullshitartist,1
#democrats,1
@rmanzo251,1
#proof,1
#auburn,1
#lincoln,1
@marklevinshow,1
#biigfatlie,1
@ten_gop,1
#diversity,1
@fbuenabad,1
#meshmadness,1
#mexico,1
#govjerrybrown,1
@dailycaller,1
#eartg,1
#whatistrumphiding,1
@jonalisag,1
#song,1
@lorettalynch,1
#kaine,1
#posttraumaticstressdisorder,1
#trumplogic,1
@maedrms,1
#spider,1
#nicolasmaduro,1
@trumps,1
#madison,1
#fullerton,1
@alexsmith2995,1
@uaw,1
@tennismatador,1
@leena_1119,1
@kimkimmwaters,1
#votolatino,1
@jimmya_shook1s,1
#gxldengods,1
#labor,1
#halloween5wrods,1
@nextgenclimate,1
@billmckibben,1
#ronan,1
#gotv,1
#sociopath,1
#cellphones,1
#lockhimup,1
#thriller,1
@knownunkn0un,1
#got7,1
#wallstsuccess,1
#republican,1
#hillarytaunt,1
#loomis,1
#asian,1
@sherds34,1
#csxjobs,1
#nypd,1
#spokane,1
#jewelry,1
#robportman,1
#erikafontalvo,1
@stevenwhirsch99,1
#evolution,1
#allen,1
@hillaryforco,1
@joeecervi,1
#indiana,1
#artsandcrafts,1
#treasonoustrump,1
@riskyliberal,1
#incompetent,1
#clintonnewsnetwork,1
#blogs,1
#superhero,1
@acidfast1,1
#cd9,1
#thewho,1
#longbeach,1
@rudygiulianigop,1
#stopracism,1
@teamcavuto,1
@nextgenpa,1
#basketofdeplrables,1
#ibisbarcelonaripollet,1
#texarkana,1
#ballotquestion,1
#bbcworld,1
#meencantariaque,1
@alfredojalifer_,1
#kurtcobain,1
#veteranshealth,1
#iloveyou,1
#massachusetts,1
#palominoscu,1
#hillarynotforwomen,1
#tatiana,1
#chuckgrassley,1
@wendyachill,1
#timewarner,1
@larissacostas,1
#yalit,1
#kardashian,1
@jmkarg,1
@princelh2,1
#cyberloversbook,1
@brettschulte,1
@tedlieu,1
@westjournalism,1
#jillstein,1
#evil,1
#ingrahamangle,1
#thearistocrats,1
#idiots,1
#uspoli,1
@cnnnewsroom,1
#thuglife,1
#freedom,1
@prisonplanet,1
#anonymous,1
#womenunite,1
@electionsmith,1
#nbachampionships,1
@barronsasia,1
#silly,1
#laramie,1
#disasterinwaiting,1
#hunger,1
@suzannekelleher,1
@bellatrova,1
#juanptello,1
@alongitinna,1
@customjewel,1
#tmz,1
#prolife,1
#dearborn,1
@teapainusa,1
@chrislhayes,1
#berniesupporters,1
@atomicelbow1,1
#projectmgmt,1
#pennsylvania,1
#earlyvoting,1
#putin,1
@ajplus,1
#shinee,1
#like,1
#untj4270,1
#galeria,1
@gwilymmcgrew,1
#loser,1
#saintcharles,1
#neverhensarling,1
#pistons,1
#animals,1
@monicacrowley,1
@momsthoughts,1
#ideas,1
@judgejeanine,1
#misogynist,1
#keemstar,1
#aflcio,1
#batonrouge,1
#pranks,1
#facilitiesmgmt,1
#accountability,1
#hurricanematthew,1
@conservative_vw,1
#arlington,1
@repandybarr,1
#letrasolvidada,1
@wpjenna,1
#china,1
#trumptrasheswomen,1
#wegotyourback,1
@montel_williams,1
#wethepeopledemandyourtaxreturnstrump,1
#onlyinbos,1
#trumpputin,1
#nearbillionnolisnotgoodbusinessacumen,1
#sports,1
#jd_constitution,1
@huffingtonpost,1
#mrtr,1
#pueblopride,1
@idreeseofficial,1
#hillarysearpiece,1
#usnews,1
#cops,1
@rozaneathome,1
#blackisbeautiful,1
@rcrevelone,1
#back2back,1
#newmexico,1
#dogs,1
@denverchannel,1
@davidthomas38,1
#5defermentdon,1
@teaparty_ca,1
#registertovote,1
#feelingdamie,1
#vote4hilary,1
@johnmackerman,1
#relationships,1
@numbersmuncher,1
#conway,1
#turtleman,1
#umusicmexico,1
@vp,1
#jwonder,1
#southbay,1
@tdonald8,1
#isis,1
#drake,1
#atlantahawks,1
#strictlybidness,1
#canwejustendthisalready,1
#crazy,1
@itsmarkhamill,1
#scotus,1
#crickets,1
@kewlju,1
#trip,1
#chjluc91,1
@soapfangh50,1
#southbend,1
@nancycordes,1
#trumpeffect,1
@true_pundit,1
#wadr,1
#smart,1
#newcomers,1
@nypost,1
@georgewept,1
@tgowdysc,1
@browardpolitics,1
@brianmoore666,1
@thefive,1
@tydiringer,1
#liberals,1
@katya_zamo,1
@nia4_trump,1
@ella_boo_bella,1
#managerspro,1
@bidenshairplugz,1
#lupus,1
#kellyjobs,1
#modestachadick3,1
#amphrosia,1
#forceofchange,1
#e,1
#governorenzi,1
@nate_cohn,1
#dolt,1
@thebuschschool,1
#umbrella,1
#donkeygone,1
#gayrepublican,1
#thinkbeforeyoutweet,1
#euro,1
#naturalgas,1
@rickjsage,1
#40s,1
@chipnjaz,1
@fladems,1
@eazymf_e,1
#giuliani,1
#dhs,1
#nope,1
#wikileaks10,1
@nestormotojr,1
#siliconbeach,1
#basementdwellers,1
@michpoligal,1
#hotelselfie,1
@chadcalifa,1
#nevertyranny,1
#bella,1
#capeelizabeth,1
#onlybrocodes,1
#disgraceful,1
#siria,1
#payforplay,1
#mojavedesert,1
#christmas,1
@flipitdem,1
#legendary,1
#entertainment,1
@msmerricat,1
#army,1
#failure,1
@freemarketjay,1
#tampa,1
#jamescomey,1
#boardgame,1
#trumpcouldnthandle,1
#eventaryng,1
#votersuppression,1
@gasinteract,1
#sad,1
#tweetmute,1
#lmfaochiidhood,1
#lockthemallup,1
@amerita,1
#eating,1
#bankitalia,1
#thefoundation,1
#dishonestdonald,1
#trumpschumps,1
#saudiarabia,1
#madedifferent,1
#foreignpolicy,1
@miamidolphins,1
#edward,1
#hatesthetroops,1
#sanmarcos,1
@lisaling,1
#scampaign,1
@270towin,1
@advodude,1
#new,1
#lindasuhler,1
#zerohedge,1
#donaldtrumpsupporters,1
#bigots,1
#mesa,1
#neverprincesstinymeat,1
#fashion,1
#law,1
#truetoname,1
#tkinder,1
#crookedtrump,1
#gopgreed,1
#tech,1
#sheeple,1
#smartphones,1
#aids,1
#dec,1
#betterthanthis,1
#monsanto,1
@mrburkemath,1
#big,1
#msdamn,1
#horadelhumor,1
#cbcnews,1
#conservative,1
#portland,1
@jamesrosenfnc,1
@borisep,1
#notrust,1
#releasedtrumptaxes,1
#presidential,1
@mcuban,1
@shelsyd1,1
#sitroom,1
#undocumentedimmigrants,1
#rich,1
@dirtydoug6,1
#elections2016,1
#clinton2016,1
@truthtotweet,1
#theyrenotsendingustheirbest,1
#plutonium,1
#hasbeen,1
#kamily_kcdc,1
@markhalperin,1
@godsswornsword,1
#punished,1
#tokyo,1
@fxnscitech,1
#ohwait,1
#digital,1
#higherstandards,1
#ajarabic,1
#democracyday,1
@modisgeneral,1
#norfolk,1
#rapistassange,1
#ap,1
#mansfield,1
@adnildyob,1
#canyougetenough,1
#opinions,1
#sayswho,1
#nobelprize,1
@berniesanders,1
#the40s,1
@entheosshines,1
#aluizcosta,1
#climatechange,1
@kimkardashian,1
@rondarousey,1
#fashionista,1
@benensonj,1
@ibtoast,1
#so,1
#syria,1
@pigsandplans,1
#presidentialdebate,1
#surf,1
@modestus1,1
@schadjoe,1
#talkradio,1
#indianapolis,1
#medfield,1
#benghazi,1
#rundontwalk,1
@skrafftfox10,1
#zootopia,1
@stageplaywright,1
@chrissnyderfox,1
#lebron,1
#geniustrump,1
#i__gg,1
#dirty,1
#dvd,1
@burientiger,1
#springfield,1
#fixypurpwnhouse,1
#bestpotusever,1
#wethepeople,1
@solangeknowles,1
@masspolitica,1
#videogames,1
@cia,1
#latino,1
#television,1
#productmgmt,1
@pecorarobrad,1
#actuarial,1
@sexy4z,1
#admin,1
#davidfahrenthold,1
@hallerin,1
@repchriscollins,1
@okcthunder,1
#lahabra,1
#healthwelfare,1
#fwrt,1
#alameda,1
#trayvonmartin,1
#logistics,1
#beachdreamin291,1
@senjohnmccain,1
#bilclinton,1
@pastorbones,1
#valencia,1
@52fairway,1
#peppersairliebeach,1
@now7grandkids,1
#orangedemon,1
#terror,1
#notfittolead,1
#nbaglobalgames,1
#clintonscandals,1
#natgeo,1
#whinylittlebitch,1
#doglovers,1
#boomerforbernie,1
#denver,1
#running4profit,1
#soyvalparaiso,1
@camera_kouji,1
@creflo_dollar,1
#ciumeselena,1
#rn,1
#aurora,1
#sabrinaannlynn,1
@cnbc,1
#belieberproudbr,1
@repostapp,1
@erictrump,1
@fox13news,1
#graspingatstraws,1
@stosh1049,1
#stlouis,1
#empattack,1
#altonsterling,1
#wikileaksarelies,1
#bailout,1
#candidate,1
#immigrants,1
#basketofdeplorables,1
@kimguilfoyle,1
#de,1
#mmpadellan,1
#madeinchina,1
@leonardodgrosso,1
#artist,1
#mamanager2,1
#dorismac64,1
#cabinetsecretary,1
#cop,1
#pensacola,1
#blacklove,1
#miami,1
@headstrongproj,1
@zachuseswords,1
#lesseroftwoevils,1
@funnyfarmer10,1
#neverorangeidiot,1
@brithume,1
@ktd101551,1
@phillyd,1
#latinosfortrump,1
#collectible,1
@jrmcclaren,1
@theatlantic,1
@paigevanzantufc,1
#renewableenergy,1
#latism,1
#libya,1
@jr777771,1
#clarincom,1
#goldstar,1
#physician,1
#bluewave2016,1
#legalize,1
#weakminded,1
#quijoteando,1
@sharethis,1
#stophillary,1
@shaylagthatsme,1
@tcot,1
#mnminneapolis,1
@californiapanda,1
@zerohedge,1
#sacramento,1
@putinrf_eng,1
#robbery,1
#the40scultur,1
@unclesatan1,1
@steelers,1
@coverstreet81,1
#sabqorg,1
@tnpaw,1
@redbroward,1
#hillaryshelth,1
@teacherfortrump,1
@chadhgriffin,1
#fishing,1
#votetrump,1
@constitutionnat,1
#24thweddinganniversary,1
@bonniegranny,1
#amazing,1
@sabqorg,1
#firstlady,1
@monmouthpoll,1
@phillycam,1
@winningwalk,1
#hackers,1
#benchtannehill,1
#jenniferguerrat,1
@jne4klpk,1
#chicago,1
@f1artsandmedia,1
#trumpeduptrickledown,1
@steelworkers,1
@foxandfriends,1
#videogame,1
#dtx,1
#wiggleroom,1
@leoshane,1
#kingsbeach,1
@morningmika,1
@jamilahanan,1
@blaiseingoglia,1
@anjeljackson,1
#twilightsaga,1
#voteirl,1
#iartg,1
#everygiri,1
@dfaaction,1
@halsteadg048,1
#art,1
@theralphretort,1
#ivantrumpsky,1
@hollybdc,1
@1shawnster,1
@khonnews,1
#national,1
#thedemocrats,1
@vine,1
#cle,1
#nigerianews,1
#hony,1
#coupons,1
@samiafox10,1
#pets,1
#englewood,1
#614now,1
@shellykay2013,1
#west,1
#followthatmoney,1
#opponent,1
@jonathanchait,1
#cerritos,1
#notpayingtaxesisunpatriotic,1
#nevergop,1
#kill,1
#donaldchump,1
#syrianrefugees,1
#puppets,1
#taxpayers,1
@trishintel,1
@exposeliberals,1
@thegopreport,1
#usedcars,1
#cherylmills,1
#katyperry,1
#weak,1
#ohpolitics,1
#sdpd,1
#lakesaintlouis,1
#avinpresidencial,1
@joebiden,1
#poverty,1
@asavagenation,1
#vpdebate2016,1
@sansla0,1
#oakbrook,1
#wauwatosa,1
@queenhollyfay,1
@evagolinger,1
@khshan,1
#freddiegray,1
#respect,1
#pil,1
#nature,1
#delaware,1
#catholic,1
@frappebieber,1
#richardburr,1
@fdawomen,1
#fm,1
@neilturner_,1
#freespeech,1
#ilikehillary,1
@f_desouche,1
#bengaluru,1
#riggedpolls,1
#synopsismissfire,1
@ingodidotrust,1
#paytaxes,1
#birther,1
@knowlesitall,1
#melysoria_077,1
#vampire,1
@atilioboron,1
#nsa,1
@sheriffclarke,1
#johnmccain,1
#palmer,1
@diamondandsilk,1
#question4,1
#potus2016,1
#clintonsmemory,1
@cvpayne,1
#trumpuniversity,1
#notmypresident,1
#manalapantownship,1
#debunked,1
@spaceman_56,1
#vetsvshate,1
#trumpisafraud,1
#imhereallweek,1
#gameboy,1
#westdesmoines,1
#dolartoday,1
#jones,1
@hrc,1
#victoriaamateo,1
#uuafrica,1
@niallofficial,1
#series,1
#cannabis,1
#travel,1
#favorite,1
#scary,1
#amwriting,1
#trumppence,1
#philandocastile,1
#true,1
#draftdodging,1
#newsflash,1
@tomasnjill,1
#kid,1
#girl,1
#got7official,1
#cruisejobs,1
#nygovandrewcuomo,1
@time,1
#donthedraftdodgingcon,1
#losertrump,1
#lapd,1
#sweetcheeks,1
@rustyprestridge,1
#vintage,1
#nra,1
#forsale,1
@larry_kudlow,1
#draughts,1
#babyshower,1
@codylillich,1
@jeffreybacic,1
#vetsagainstrump,1
#misogyny,1
@ken200960,1
#phl,1
@whpresscorps,1
#graphicnovel,1
@billstill,1
@opm4evernot,1
@vote4hrc,1
#disney,1
#remember,1
@paulmasonnews,1
#hinews,1
@lubrio,1
#_,1
#hypocrites,1
#fyou,1
@gastechevent,1
#1of1,1
#genoa,1
#coward,1
@asamjulian,1
#parker,1
#gymstimulus,1
#ldskar,1
#rocker,1
@allenwest,1
#moviephraseses,1
#obamas,1
#gift,1
#thefive,1
#wellover60,1
@scott_calvert,1
#ilatoday,1
@richardhine,1
#captainamerica,1
@martingarrix,1
#briannakeilar,1
#1a,1
#supplychain,1
#belongtostyless,1
#nevertrumppence,1
#costofwar,1
#shimmytothewhitehouse,1
@hamillhimself,1
#awesome,1
#natgas,1
#blacksfortrump,1
#puebloco,1
#cars,1
#cincinnati,1
@theheraldsun,1
#lyingdonald,1
@bgr,1
@guesswho158,1
#commoncore,1
#chrislhayes,1
#susanrice,1
#weneednine,1
@aflcio,1
@david747heavy,1
@eliehaddad1234,1
#trumprape,1
@buddynevins,1
#manga,1
#boycottsafeway,1
@abremollera,1
#banks,1
@streamdotorg,1
#pow,1
#markkirk,1
#sehuntrack,1
@dlmluckytiger,1
#networks,1
#ddos,1
#evening,1
#racistrepublicans,1
#americanroyalty,1
@lawrence,1
#criminal,1
#empleos,1
#taxdodgingdonald,1
#doj,1
@speakerryan,1
#lomalinda,1
#taxreturn,1
@kachninja,1
@shannonbream,1
#humor,1
#hawaii,1
#arcadiacalls,1
#historic,1
#pecesiqueira,1
#tuskegee,1
#joclau53,1
@ericbolling,1
#yesfor4,1
@bingwisdom,1
#hot,1
#climate,1
#chriscollins,1
@voteequality,1
#mulliniallgirl,1
#solar,1
@lesterholtnbc,1
#snl,1
@halliejackson,1
#sustainability,1
#rpbp,1
#women4trump,1
#artproject,1
#notaxtrump,1
#realestate,1
#bravo,1
#photo,1
#thomasville,1
@trusting34,1
#yodecido,1
@negrosfortrump,1
#corruptpoliticians,1
@4randyroamer,1
@goldmansachs,1
#trumptydumpty,1
#ponzischeme,1
#bieber,1
#neverlittleusdickus,1
#weightloss,1
#pattoomey,1
#sxsl,1
#life,1
#show,1
#police,1
#abrahammateo,1
#newswithed,1
#huffingtonpost,1
#racism,1
#specialoccasions,1
#loislerner,1
#jimcomey,1
#pingpong,1
#racist,1
@rephensarling,1
#justinbieber,1
#studentjobs,1
#whatishehiding,1
#buy,1
#southchinasea,1
#mi,1
@tolan_morgan,1
#mart,1
@makeeshathomas,1
@sdutideas,1
#southsanfrancisco,1
#nba,1
#nbc,1
#joeygraceffa,1
#solangeknowles,1
@politicodivers2,1
#lasttimetrumppaid,1
#wapo,1
@viperutah,1
#sweethearts,1
@danaperino,1
#creative,1
#angiepereztv,1
@sergueimakarov,1
@jeniferkyoung,1
#basketofadorables,1
#globalist,1
#stgeorgeseries,1
#sthelena,1
#lorettalynch,1
#wellsfargo,1
#deleteyourcampaign,1
@michaeldavsmith,1
