Hashtag,Total Count
hillary,31
trump,31
maga,26
2a,22
trumppence16,21
ccot,21
tcot,21
minoritypolitics,20
teamtrump,20
wakeupamerica,20
millenials,20
neverhillary,18
americafirst,11
debatenight,9
debates,7
crookedhillary,7
trumptrain,7
trump2016,6
clinton,6
poll,6
sundaymorning,6
imwithher,6
thisweek,6
cnn,5
corrupt,5
trumplies,5
cnnsotu,5
trumpwon,5
basementdwellers,5
votetrump,5
foxnews,4
humanbeing,4
vote,4
blacks4trump,4
iregistered,4
troglodyte,4
liar,3
hillaryforprison,3
lasttimetrumppaidtaxes,3
gop,3
libya,3
cheating,3
clintonfoundation,3
trumpvsclinton,3
tyrannical,3
trumpwins,3
bansharia,2
billclinton,2
sundayfunday,2
virginia,2
feelthebern,2
basketofdeplorables,2
followthemoney,2
dncleak,2
hillaryclinton,2
swingstate,2
leadership,2
upfront,2
clintonscandals,2
alecbaldwin,2
wikileaks,2
msm,2
isis,2
sethrich,2
eng,2
media,2
snl,2
lying,2
rednationrising,1
failedtaxaudit,1
gems,1
firstpresidentialdebate,1
nyslimes,1
trumparmy,1
hope,1
whatwegoingtodo,1
veterans,1
careers,1
protectamerica,1
bernforher,1
breakingnews,1
latinoswithtrump,1
norefugees,1
trumpscomeback,1
lindasuhler,1
dumbocrats,1
deadbeatdonald,1
abasementtobelievein,1
blacksfortrump,1
truth,1
mystoryisnt,1
bernie,1
technews,1
jackmoore,1
election,1
deplorables,1
millennials,1
newstime,1
bigdata,1
sotu,1
good4nyt,1
jobs,1
business,1
dalef3,1
drose,1
basketofadorables,1
waronwomen,1
rep_of_nofear,1
1uvote,1
trumprevolution,1
hillaryonservice,1
stephencolbert,1
voteon,1
dobbs,1
doge,1
balldontstop,1
voterfraud,1
trumptaxes,1
nra,1
clintoncontamination,1
donaldtrump,1
dianafakhouri,1
meek,1
mtp,1
polls,1
election2016,1
operationtacobowl,1
estadosunidos,1
ivoted,1
trumpstaxes,1
assange,1
vgems,1
conspiracy,1
dems,1
shooting,1
thewayupshow,1
amjoy,1
hillno,1
freeenterprise,1
comedy,1
leftist,1
president,1
america,1
thinkdifferent,1
comedyvine,1
hillary2016,1
uchose,1
jimmyfallon,1
prosecutefraudtyrannytreason,1
registertovote,1
