Query,Tweet,Date/Time,User,Hashtags
#ryder,(BBC News):#Ryder #Cup 2016: United States beat Europe at Hazeltine : The United States.. https://t.co/bqN0TjfJG2 https://t.co/UnMyU8sVGl,Sun Oct 02 23:02:01 +0000 2016,newsoneplace,"ryder, cup"
#ryder,#Palmars de la  #Ryder  #Cup https://t.co/6cdopiT4nJ,Sun Oct 02 23:01:28 +0000 2016,deportes_eco,"palmars, ryder, cup"
#ryder,#Palmars de la  #Ryder  #Cup https://t.co/UK8RM2woZL,Sun Oct 02 23:01:28 +0000 2016,act_feed_1,"palmars, ryder, cup"
#ryder,Won 3 points today @SeaforthGolf  #DanHalldorson #Ryder Cup #teamwork,Sun Oct 02 22:57:22 +0000 2016,BergmannKen,"danhalldorson, ryder, teamwork"
#ryder,"(The Star):#Americans win #Ryder Cup in style : Phil Mickelson, Patrick Reed and Ryan.. https://t.co/74td8KCY2J https://t.co/HfTx170FF0",Sun Oct 02 22:57:10 +0000 2016,latestcanada,"americans, ryder"
#ryder,"Should alcohol sales be banned 
from the #RyderCup before Noon? 

#RyderCup2016 #drunk
#USA #Ryder @GolfChannel",Sun Oct 02 22:55:19 +0000 2016,recovery__tips,"rydercup, rydercup2016, drunk, usa, ryder"
#ryder,Team USA celebrates #Ryder Cup victory. https://t.co/QgMjFr8OUj,Sun Oct 02 22:53:59 +0000 2016,MPRweather,ryder
#ryder,"Played    until I was captain, hammered @keithfelly &amp;. @AndyL4 #Skins  #Ryder cup",Sun Oct 02 22:53:37 +0000 2016,rtikblon,"skins, ryder"
#ryder,The Latest: Americans Closing In on Ryder Cup Victory #ryder https://t.co/qWdfLUn0gC,Sun Oct 02 22:53:05 +0000 2016,golf_agent,ryder
#ryder,The Latest: Americans Closing In on Ryder Cup Victory #ryder https://t.co/lvyOU8GYeF,Sun Oct 02 22:53:05 +0000 2016,golf_agent,ryder
#ryder,Not one golfer protested National Anthem at the Ryder Cup...too much class. Congrats to U.S. Team.  #Ryder Cup,Sun Oct 02 22:46:21 +0000 2016,jimhuckeba,ryder
#ryder,@DreamyBigStick Yep. Easy greens by many measuring sticks. Perfect for #Ryder Cup excitement. This isn't the championship of anything.,Sun Oct 02 22:36:28 +0000 2016,joepassov,ryder
#ryder,"RT @Italians4Trump: Congratulations to the #USA for winning the @RyderCup!
#RyderCup 
#RyderCup2016 
#Ryder 
#RyderRED https://t.co/avka4uY",Sun Oct 02 22:34:55 +0000 2016,bctcarr23,"usa, rydercup, rydercup2016, ryder, ryderred"
#ryder,"#Golf Ryder Cup 2016. Un superbo Patrick Reed lancia il team Usa alla conquista del trofeo #Golf, #Ryder #Cup ... https://t.co/VmGlViEDDc",Sun Oct 02 22:32:05 +0000 2016,zazoomblog,"golf, golf, ryder, cup"
#ryder,#Ryder Cup champions!!! #USA #USA #USA,Sun Oct 02 22:28:23 +0000 2016,chrlsbnnet,"ryder, usa, usa, usa"
#ryder,An emotional @bubbawatson calls 2016 #Ryder Cup his greatest accomplishment - https://t.co/FKzQ0wiAz8 https://t.co/vLBVKw6mHk,Sun Oct 02 22:27:14 +0000 2016,GrowbotMedia,ryder
#ryder,An emotional @bubbawatson calls 2016 #Ryder Cup his greatest accomplishment - https://t.co/R79hkQId7N https://t.co/p3CCOIxx6J,Sun Oct 02 22:27:14 +0000 2016,KevanBoone,ryder
#ryder,"USA brings the #Ryder Cup home for the first time in 8 years, besting the European team 17-11! Go USA!",Sun Oct 02 22:26:55 +0000 2016,KenDoggie,ryder
#ryder,"RT @charlygp: Uuuyyy, vaya error de Reed que puede hacer que Rory llegue al 18 buscando 0,5 puntos #Ryder yo",Sun Oct 02 22:25:40 +0000 2016,Reflejo_Dorado,ryder
#ryder,(Le Tlgramme):#Ryder #Cup. Les Etats-Unis s'imposent aprs trois checs conscutifs :.. https://t.co/UHYSdUCVJh https://t.co/gzP9c2KSrD,Sun Oct 02 22:20:29 +0000 2016,titrespresse,"ryder, cup"
#ryder,RT @volkskrant: VS winnen de #Ryder Cup voor het eerst in acht jaar https://t.co/EK6eFrVoSI https://t.co/hA6NjxhhZH,Sun Oct 02 22:18:40 +0000 2016,BochovePvdA,ryder
#ryder,RT @channelsmart: #ryder cup won for #TeamUSA with our @VZEnterprise  partners celebrating https://t.co/FYSGKGZner,Sun Oct 02 22:13:03 +0000 2016,WendyPetty3,"ryder, teamusa"
#ryder,(Daily Express):#Ryder Cup as it happened: Relive all the action at Hazletine as #USA.. https://t.co/U0BDT2hjbe https://t.co/dcqH4NTBWF,Sun Oct 02 22:11:26 +0000 2016,newsoneplace,"ryder, usa"
#ryder,volkskrant: VS winnen de #Ryder Cup voor het eerst in acht jaar https://t.co/awpqQKoe50 https://t.co/6Mnxmqc0gU #NLNieuwsAlert,Sun Oct 02 22:04:50 +0000 2016,NLNieuwsAlert,"ryder, nlnieuwsalert"
#ryder,BunkeredOnline : RT MMcEwanBunkered: Only 726 more days until the next Ryder Cup... #Ryder https://t.co/etBbfjCdqU https://t.co/BjmdrDvcA1,Sun Oct 02 22:02:25 +0000 2016,Golf_2_Win,ryder
#ryder,@capefearchris @ImmoralReport @CampbellSoupCo Better sports at #Ryder,Sun Oct 02 22:01:42 +0000 2016,NightScribbler,ryder
#ryder,(WalesOnline):#USA regain the #Ryder Cup with victory over Europe : Europe needed to.. https://t.co/2g0iPrS8iI https://t.co/uVvZlXYu4p,Sun Oct 02 22:01:19 +0000 2016,newsoneplace,"usa, ryder"
#ryder,"@PReedGolf. So proud of u guys.  Great golf, the emotion u showed was absolutely awesome !!! Proud to be an American!!#Ryder Cup Champ",Sun Oct 02 22:01:10 +0000 2016,rock23royal,ryder
#ryder,(DirectMatin.fr):#Ryder #Cup: les Etats-Unis s'imposent aprs trois dfaites conscutives.. https://t.co/iDhoeXV9S7 https://t.co/P8MLgbL2Zv,Sun Oct 02 21:59:54 +0000 2016,titrespresse,"ryder, cup"
#ryder,#US wins #Ryder #Cup! #golf,Sun Oct 02 21:57:44 +0000 2016,anjojak,"us, ryder, cup, golf"
#ryder,VS winnen de #Ryder Cup voor het eerst in acht jaar https://t.co/EK6eFrVoSI https://t.co/hA6NjxhhZH,Sun Oct 02 21:57:11 +0000 2016,volkskrant,ryder
#ryder,@bubbawatson You are an amazing man! #Ryder Cup,Sun Oct 02 21:55:06 +0000 2016,MSmokeemgm,ryder
#ryder,@gaz_ennis defiantly city don't need to look at the turn surely it wasn't the #ryder cup haha ,Sun Oct 02 21:48:14 +0000 2016,RossMarkey1,ryder
#ryder,"Victoria USA #Ryder sin paliativos. Gran Rafa, buen Sergio. Mal Clarke, peor Lee. Objetivo Pars 2018, all estaremos.

Pd: Bubba 0-2 J.B ",Sun Oct 02 21:47:25 +0000 2016,riusenyor,ryder
#ryder,"RT @Italians4Trump: Congratulations to the #USA for winning the @RyderCup!
#RyderCup 
#RyderCup2016 
#Ryder 
#RyderRED https://t.co/avka4uY",Sun Oct 02 21:45:52 +0000 2016,repubfan,"usa, rydercup, rydercup2016, ryder, ryderred"
#ryder,#Ryder Cup #2016: #United #States #BEAT #Europe at #Hazeltine - https://t.co/3zwhwNFNjl |,Sun Oct 02 21:45:46 +0000 2016,nvision_360,"ryder, united, states, beat, europe, hazeltine"
#ryder,USA 17 Europe 11  #Ryder Cup,Sun Oct 02 21:39:56 +0000 2016,GlennMellonius,ryder
#ryder,Y finaliza la #Ryder! https://t.co/IzxBEoLPc0,Sun Oct 02 21:39:40 +0000 2016,willmedinac,ryder
#ryder,Looks like Darren Clark and I couldn't get it done at the #Ryder cup. Good thing I have a real job. #tecvoc https://t.co/AbY5Rw6BUE,Sun Oct 02 21:37:51 +0000 2016,DennSig,"ryder, tecvoc"
#ryder,United States takes victory in rowdy Ryder Cup #usa #pro #golf #rydercup #ryder #golfcourse https://t.co/mYECwiHklt,Sun Oct 02 21:35:28 +0000 2016,chrisjarceneaux,"usa, pro, golf, rydercup, ryder, golfcourse"
#ryder,"RT @Italians4Trump: Congratulations to the #USA for winning the @RyderCup!
#RyderCup 
#RyderCup2016 
#Ryder 
#RyderRED https://t.co/avka4uY",Sun Oct 02 21:34:42 +0000 2016,judycharlesjc,"usa, rydercup, rydercup2016, ryder, ryderred"
#ryder,"I love watching good golf #Ryder Cup 
USA wins but...
Spaeth is a big baby!#growup",Sun Oct 02 21:33:54 +0000 2016,afuhs44,"ryder, growup"
#ryder,"RT @Italians4Trump: Congratulations to the #USA for winning the @RyderCup!
#RyderCup 
#RyderCup2016 
#Ryder 
#RyderRED https://t.co/avka4uY",Sun Oct 02 21:30:51 +0000 2016,adboa95,"usa, rydercup, rydercup2016, ryder, ryderred"
#ryder,Sieg ber Europas Golfer: USA gewinnen #Ryder #Cup... ... https://t.co/7mSxZpoEHX https://t.co/0mZ6Lzu31z,Sun Oct 02 21:30:36 +0000 2016,twee_at,"ryder, cup"
#ryder,"#Ryder cup I think Arnold Palmer was guiding the USA putts to the hole, RIP Arnold.",Sun Oct 02 21:30:22 +0000 2016,GaryFurness,ryder
#ryder,RT @aerialsky: #Hazeltine National - The #Ryder Cup has brought a lot of color to the course. https://t.co/hJ0E2CHdyW,Sun Oct 02 21:28:56 +0000 2016,daveota,"hazeltine, ryder"
#ryder,I have to say we never looked like winning! #ryder cup! Well done #USA see you in #2018,Sun Oct 02 21:26:46 +0000 2016,robport111,"ryder, usa"
#ryder,Missed the last hour of #ryder cup but was over earlier. Drive for show putt for dough although v hard to with crowd. #anticlimax,Sun Oct 02 21:25:42 +0000 2016,tomgoriordan,"ryder, anticlimax"
#ryder,#United States #Wins #Ryder Cup for first #Time since #2008 - AP https://t.co/oP1xYDgA6K,Sun Oct 02 21:25:10 +0000 2016,newzlasz,"united, wins, ryder, time"
#ryder,Team USA win the Ryder Cup 2016 against Europe #golf #Rory #Mcilroy #TeamUSA #TeamEurope #RyderCup #RyderCup2016 https://t.co/iGDz0s6rKX,Sun Oct 02 21:24:24 +0000 2016,paulmacr,"golf, rory, mcilroy, teamusa, teameurope, rydercup, rydercup2016"
#ryder,"RT @Italians4Trump: Congratulations to the #USA for winning the @RyderCup!
#RyderCup 
#RyderCup2016 
#Ryder 
#RyderRED https://t.co/avka4uY",Sun Oct 02 21:23:25 +0000 2016,3ash8W6ny,"usa, rydercup, rydercup2016, ryder, ryderred"
#ryder,"@MichaelBreed Dear #Europe, great matches at #Ryder Cup. Please don't judge all Americans based on a few idiots. Here's to 2018!",Sun Oct 02 21:22:56 +0000 2016,Bshonts11,"europe, ryder"
#ryder,RT @SmokinIce79: Blubbering Bubba is a complete weirdo #Ryder cup  @offtheball @SportsJOEdotie @nealcopeland @iagodesign,Sun Oct 02 21:21:08 +0000 2016,iagodesign,ryder
#ryder,"RT @Italians4Trump: Congratulations to the #USA for winning the @RyderCup!
#RyderCup 
#RyderCup2016 
#Ryder 
#RyderRED https://t.co/avka4uY",Sun Oct 02 21:21:05 +0000 2016,AnthonyBlunden,"usa, rydercup, rydercup2016, ryder, ryderred"
#ryder,RT @SmokinIce79: Blubbering Bubba is a complete weirdo #Ryder cup  @offtheball @SportsJOEdotie @nealcopeland @iagodesign,Sun Oct 02 21:21:02 +0000 2016,nealcopeland,ryder
#ryder,Golf/ #Ryder.-  #Estados  #Unidos termina con la racha de  #Europa y conquista la Ryder https://t.co/sZSoTZT9KO,Sun Oct 02 21:20:32 +0000 2016,deportes_eco,"ryder, estados, unidos, europa"
#ryder,Golf/ #Ryder.-  #Estados  #Unidos termina con la racha de  #Europa y conquista la Ryder https://t.co/a2AZHtBNpB,Sun Oct 02 21:20:31 +0000 2016,act_feed_1,"ryder, estados, unidos, europa"
#ryder,"RT @Italians4Trump: Congratulations to the #USA for winning the @RyderCup!
#RyderCup 
#RyderCup2016 
#Ryder 
#RyderRED https://t.co/avka4uY",Sun Oct 02 21:20:14 +0000 2016,wshaw1127,"usa, rydercup, rydercup2016, ryder, ryderred"
#ryder,Blubbering Bubba is a complete weirdo #Ryder cup  @offtheball @SportsJOEdotie @nealcopeland @iagodesign,Sun Oct 02 21:20:14 +0000 2016,SmokinIce79,ryder
#ryder,Ryan Moore Clinches Ryder Cup #Ryder Cup #TeamUSA # RyanMoore https://t.co/66EV1QAmvV,Sun Oct 02 21:19:49 +0000 2016,TheGManShow,"ryder, teamusa"
#ryder,#Ryder's Cup Back to US. Congrats! Phil and Sergio shined! @LRosari @trendhunter @LatinoTimes,Sun Oct 02 21:19:11 +0000 2016,LRosari,ryder
#ryder,"RT @Italians4Trump: Congratulations to the #USA for winning the @RyderCup!
#RyderCup 
#RyderCup2016 
#Ryder 
#RyderRED https://t.co/avka4uY",Sun Oct 02 21:18:52 +0000 2016,Snikk,"usa, rydercup, rydercup2016, ryder, ryderred"
#ryder,"#Ryder Cup It's only on loan, we will win it back next you yanks",Sun Oct 02 21:18:45 +0000 2016,anthonywaghorn,ryder
#ryder,Congratulations to #TeamUSA on wining the #Ryder cup. Fully deserved but well played #TeamEurope A great effort and a great sporting show ,Sun Oct 02 21:18:15 +0000 2016,wpmark,"teamusa, ryder, teameurope"
#ryder,"RT @Italians4Trump: Congratulations to the #USA for winning the @RyderCup!
#RyderCup 
#RyderCup2016 
#Ryder 
#RyderRED https://t.co/avka4uY",Sun Oct 02 21:17:34 +0000 2016,SupporterDonald,"usa, rydercup, rydercup2016, ryder, ryderred"
#ryder,USA WINS THE #RYDER CUP! USA! USA! USA! ,Sun Oct 02 21:17:30 +0000 2016,TheGolfInsiders,ryder
#ryder,"RT @Italians4Trump: Congratulations to the #USA for winning the @RyderCup!
#RyderCup 
#RyderCup2016 
#Ryder 
#RyderRED https://t.co/avka4uY",Sun Oct 02 21:17:12 +0000 2016,BethHurbrough,"usa, rydercup, rydercup2016, ryder, ryderred"
#ryder,Bubba Watson needs to man the fuck up. He wasn't even playing #ryder,Sun Oct 02 21:17:10 +0000 2016,mulberryjane,ryder
#ryder,#TeamEurope lost the #Ryder Cup thanks to the British. We'll take it back after the Brexit,Sun Oct 02 21:16:32 +0000 2016,FrankSchelfaut,"teameurope, ryder"
#ryder,Blubba Watson. Get a grip man #ryder,Sun Oct 02 21:16:31 +0000 2016,MartinWillB,ryder
#ryder,"RT @Italians4Trump: Congratulations to the #USA for winning the @RyderCup!
#RyderCup 
#RyderCup2016 
#Ryder 
#RyderRED https://t.co/avka4uY",Sun Oct 02 21:16:11 +0000 2016,Beckbert84G,"usa, rydercup, rydercup2016, ryder, ryderred"
#ryder,#RyderCup2016 #Champions #golf #usa #usarydercupchamps #Champions #RyderCup #ryder https://t.co/jwakv4rwwi,Sun Oct 02 21:15:33 +0000 2016,JLoutletdeals,"rydercup2016, champions, golf, usa, usarydercupchamps, champions, rydercup, ryder"
#ryder,It's been a crazy few days this weekend at the Ryder Cup. #pga  #ryder #cup #canon #bw #golf https://t.co/mDzHCe9uFI,Sun Oct 02 21:15:32 +0000 2016,moiht,"pga, ryder, cup, canon, bw, golf"
#ryder,"#Ryder Cup, Final Day: #Rory #McIlroy comes up short in singles as USA close in on victory https://t.co/XBxjO6nhdQ https://t.co/9MUzgtDZh9",Sun Oct 02 21:15:03 +0000 2016,jenkers_en,"ryder, rory, mcilroy"
#ryder,"RT @Italians4Trump: Congratulations to the #USA for winning the @RyderCup!
#RyderCup 
#RyderCup2016 
#Ryder 
#RyderRED https://t.co/avka4uY",Sun Oct 02 21:15:01 +0000 2016,kokomored,"usa, rydercup, rydercup2016, ryder, ryderred"
#ryder,Congrats #2016 #Ryder Cup Winners! U.S.A. All the way!,Sun Oct 02 21:13:51 +0000 2016,cruze_hot,ryder
#ryder,"RT @Italians4Trump: Congratulations to the #USA for winning the @RyderCup!
#RyderCup 
#RyderCup2016 
#Ryder 
#RyderRED https://t.co/avka4uY",Sun Oct 02 21:13:43 +0000 2016,trumpsdefeat,"usa, rydercup, rydercup2016, ryder, ryderred"
#ryder,"RT @Italians4Trump: Congratulations to the #USA for winning the @RyderCup!
#RyderCup 
#RyderCup2016 
#Ryder 
#RyderRED https://t.co/avka4uY",Sun Oct 02 21:13:39 +0000 2016,foxyinflipflops,"usa, rydercup, rydercup2016, ryder, ryderred"
#ryder,"RT @Italians4Trump: Congratulations to the #USA for winning the @RyderCup!
#RyderCup 
#RyderCup2016 
#Ryder 
#RyderRED https://t.co/avka4uY",Sun Oct 02 21:13:39 +0000 2016,deejohnston53,"usa, rydercup, rydercup2016, ryder, ryderred"
#ryder,RT @channelsmart: #ryder cup won for #TeamUSA with our @VZEnterprise  partners celebrating https://t.co/FYSGKGZner,Sun Oct 02 21:13:34 +0000 2016,vzwgovdata,"ryder, teamusa"
#ryder,"Se lleva la Ryder USA despus de 3 ediciones...una pena, Sergio y Cabrera han estado TOP #ryder https://t.co/PFbNNJlkaC",Sun Oct 02 21:13:34 +0000 2016,idiaz81,ryder
#ryder,"RT @Italians4Trump: Congratulations to the #USA for winning the @RyderCup!
#RyderCup 
#RyderCup2016 
#Ryder 
#RyderRED https://t.co/avka4uY",Sun Oct 02 21:13:28 +0000 2016,WendyWagnerAZ,"usa, rydercup, rydercup2016, ryder, ryderred"
#ryder,"USA beat Europe in the #Ryder cup, another reason I'm glad we voted to pull out of Europe",Sun Oct 02 21:13:28 +0000 2016,simonpthompson,ryder
#ryder,USA wint #Ryder Cup,Sun Oct 02 21:13:21 +0000 2016,GlennMellonius,ryder
#ryder,"RT @Italians4Trump: Congratulations to the #USA for winning the @RyderCup!
#RyderCup 
#RyderCup2016 
#Ryder 
#RyderRED https://t.co/avka4uY",Sun Oct 02 21:13:16 +0000 2016,kmclc2016brutus,"usa, rydercup, rydercup2016, ryder, ryderred"
#ryder,"I get the feeling USA wanted it more, it'll be a different story in France 2 years time #Ryder",Sun Oct 02 21:13:08 +0000 2016,scottmonty85,ryder
#ryder,"#Ryder Cup..Congrats to the USA on the Ryder Cup win, unfortunately Moore and Reed won their matches!!",Sun Oct 02 21:13:07 +0000 2016,tcsmudge,ryder
#ryder,"RT @Italians4Trump: Congratulations to the #USA for winning the @RyderCup!
#RyderCup 
#RyderCup2016 
#Ryder 
#RyderRED https://t.co/avka4uY",Sun Oct 02 21:13:06 +0000 2016,lauriemallen,"usa, rydercup, rydercup2016, ryder, ryderred"
#ryder,USA! USA! #Ryder Cup,Sun Oct 02 21:13:04 +0000 2016,jmattson5,ryder
#ryder,#ryder cup won for #TeamUSA with our @VZEnterprise  partners celebrating https://t.co/FYSGKGZner,Sun Oct 02 21:12:46 +0000 2016,channelsmart,"ryder, teamusa"
#ryder,"RT @Italians4Trump: Congratulations to the #USA for winning the @RyderCup!
#RyderCup 
#RyderCup2016 
#Ryder 
#RyderRED https://t.co/avka4uY",Sun Oct 02 21:12:35 +0000 2016,Flamed_Ice,"usa, rydercup, rydercup2016, ryder, ryderred"
#ryder,The US have won the #Ryder Cup,Sun Oct 02 21:12:33 +0000 2016,pppadraig1,ryder
#ryder,#Ryder Cup Congratulations USA,Sun Oct 02 21:12:16 +0000 2016,miltonazous,ryder
#ryder,"RT @Italians4Trump: Congratulations to the #USA for winning the @RyderCup!
#RyderCup 
#RyderCup2016 
#Ryder 
#RyderRED https://t.co/avka4uY",Sun Oct 02 21:12:08 +0000 2016,Chijohnnie63,"usa, rydercup, rydercup2016, ryder, ryderred"
#ryder,"RT @Italians4Trump: Congratulations to the #USA for winning the @RyderCup!
#RyderCup 
#RyderCup2016 
#Ryder 
#RyderRED https://t.co/avka4uY",Sun Oct 02 21:12:04 +0000 2016,SLACKJAWXL,"usa, rydercup, rydercup2016, ryder, ryderred"
#ryder,"RT @Italians4Trump: Congratulations to the #USA for winning the @RyderCup!
#RyderCup 
#RyderCup2016 
#Ryder 
#RyderRED https://t.co/avka4uY",Sun Oct 02 21:11:46 +0000 2016,DBR96A,"usa, rydercup, rydercup2016, ryder, ryderred"
#ryder,"RT @Italians4Trump: Congratulations to the #USA for winning the @RyderCup!
#RyderCup 
#RyderCup2016 
#Ryder 
#RyderRED https://t.co/avka4uY",Sun Oct 02 21:11:39 +0000 2016,mikethomas0777,"usa, rydercup, rydercup2016, ryder, ryderred"
#ryder,"RT @Italians4Trump: Congratulations to the #USA for winning the @RyderCup!
#RyderCup 
#RyderCup2016 
#Ryder 
#RyderRED https://t.co/avka4uY",Sun Oct 02 21:11:18 +0000 2016,UofAJaC,"usa, rydercup, rydercup2016, ryder, ryderred"
#ryder,"Congratulations to the #USA for winning the @RyderCup!
#RyderCup 
#RyderCup2016 
#Ryder 
#RyderRED https://t.co/avka4uYnUG",Sun Oct 02 21:11:07 +0000 2016,Italians4Trump,"usa, rydercup, rydercup2016, ryder, ryderred"
#ryder,Nice Win #USA #Ryder Cup,Sun Oct 02 21:11:07 +0000 2016,RaphaelEivots,"usa, ryder"
#usa,This #job might be a great fit for you: Emergency Maintenance Operators - CDL (Lexington Residency:... - https://t.co/iCaqiUwH42 #VDOT #USA,Sun Oct 02 23:02:14 +0000 2016,VaDOTJobs,"job, vdot, usa"
#usa,RT @BarstoolTrent: This makes me so happy #USA https://t.co/aVIku9O0Qh,Sun Oct 02 23:02:14 +0000 2016,allisoncowden,usa
#usa,#USA #Deals #ebay #8771 New Airbrush Kit Compressor Nail Art Tattoo Dual-Action Spay Air B https://t.co/rHesJI6lAD https://t.co/L8gyTptcNO,Sun Oct 02 23:02:06 +0000 2016,OjhIoi,"usa, deals, ebay"
#usa,#ebay #USA #Deals #4602 Graco RoomFor2 Duo Stand &amp; Ride Double Stroller SnugRide 30 Car Se https://t.co/WzUsBxWeoU+ https://t.co/ealEbq6oNl,Sun Oct 02 23:02:04 +0000 2016,iox_iau_pai,"ebay, usa, deals"
#usa,#USA #Deals #ebay #3390 B0110a Gold Ivory Crimson Thick Striped Silk Look Upholstery Fabric https://t.co/utxAGLZ4q5 https://t.co/lqyiraqwOp,Sun Oct 02 23:02:04 +0000 2016,OjhIoi,"usa, deals, ebay"
#usa,RT @US_Army_Vet: Somali Muslims harass American citizen on Minnesota street @AnitaDWhite @tamaraleighllc @debsellsslc @jjauthor #USAhttps,Sun Oct 02 23:02:03 +0000 2016,Julianpox,usa
#usa,"For the 1st Time, #Bees Declared Endangered in the #USA, decimated by invasive species &amp; habitat loss https://t.co/55YPICKzwr",Sun Oct 02 23:02:03 +0000 2016,luciadesouza,"bees, usa"
#usa,#ebay #USA #Deals #8534 Graco Ready2Grow LX Stand &amp; Ride Duo Double Baby Stroller - Gotham https://t.co/jVwrg2hGXx https://t.co/SYUuNqlaYP,Sun Oct 02 23:02:03 +0000 2016,iox_iau_pai,"ebay, usa, deals"
#usa,#USA #Deals #ebay #1720 Sizzix Big Shot Plus Machine-Gray/White https://t.co/jCMPa2hX3t https://t.co/iOeydyAOB2,Sun Oct 02 23:02:02 +0000 2016,OjhIoi,"usa, deals, ebay"
#usa,"#ebay #USA #Deals #5284 Baby Trend Range Travel System Folding Jogging Stroller, Spartan | https://t.co/ijWN6W6InT https://t.co/7ukuyJCcMf",Sun Oct 02 23:02:01 +0000 2016,iox_iau_pai,"ebay, usa, deals"
#usa,#USA #Deals #ebay #8613 Brother SM2700 63-Stitch Function Sewing Machine https://t.co/oRaZaTCqPV https://t.co/qskMqkcsOa,Sun Oct 02 23:02:00 +0000 2016,OjhIoi,"usa, deals, ebay"
#usa,#ebay #USA #Deals #1471 NEW Graco Pack 'n Play Playard with Newborn Napper Station DLX - C https://t.co/eRdvpc1kPM https://t.co/3pGCfzPGdb,Sun Oct 02 23:02:00 +0000 2016,iox_iau_pai,"ebay, usa, deals"
#usa,"RT @USAforTrump2016: Trump supporters chant ""USA USA USA...""  #ShowYourCrowds #USA #MakeAmericaGreatAgain  #Trump2016 https://t.co/lUaP3qqP",Sun Oct 02 23:01:59 +0000 2016,tonyponysanmore,"showyourcrowds, usa, makeamericagreatagain, trump2016"
#usa,Victory  #USA #RyderCup @ Hazeltine National Golf Club https://t.co/Z6M8RSgkuE,Sun Oct 02 23:01:59 +0000 2016,MMcDaniel85,"usa, rydercup"
#usa,#ebay #USA #Deals #6118 Comfort &amp; Harmony Portable Swing https://t.co/Or51akhLeO https://t.co/pWZSexN2sX,Sun Oct 02 23:01:58 +0000 2016,iox_iau_pai,"ebay, usa, deals"
#usa,RT @BigOrangeButch: #USA #RyderCup #RyderCup2016 https://t.co/tqJZe1wUm1,Sun Oct 02 23:01:56 +0000 2016,bphulk54,"usa, rydercup, rydercup2016"
#usa,"RT @GeorgeBakhos: #USA win the #RyderCup for the first time in 8 years 
#golf https://t.co/gs4C44GllH",Sun Oct 02 23:01:52 +0000 2016,lovelyfealways,"usa, rydercup, golf"
#usa,RT @BarstoolTrent: This makes me so happy #USA https://t.co/aVIku9O0Qh,Sun Oct 02 23:01:51 +0000 2016,Mbarillo13,usa
#usa,Amazing job guys!! #RyderCup #USA https://t.co/HRFhT2PSEP,Sun Oct 02 23:01:51 +0000 2016,Steffunka13,"rydercup, usa"
#usa,RT @RealMatSmith: This one's for Arnie. #RyderCup #USA  https://t.co/HDlzzp97ge,Sun Oct 02 23:01:50 +0000 2016,jjburdett,"rydercup, usa"
#usa,This #job might be a great fit for you: Administrative Assistant  Clinic - https://t.co/Pb98l7TpCi #mentalhealth https://t.co/WgvqBMSblm,Sun Oct 02 23:01:48 +0000 2016,MHCD_Careers,"job, mentalhealth"
#usa,RT @US_Army_Vet: Obama has allowed Muslim terrorists in with refugees @LeahR77 @girl4Trump @RitzyBacon2 @JustKate038 @amylt7215 #USAhttps,Sun Oct 02 23:01:47 +0000 2016,starlady24,usa
#usa,#ViralElection2016 #NeverKillaryClinton for #America she is owned by the people against our #Constitution https://t.co/4Y99wigjW2,Sun Oct 02 23:01:46 +0000 2016,ralphshields313,"viralelection2016, neverkillaryclinton, america, constitution"
#usa,@JoinTrybe are recruiting people to test products in the USA! #OralB #health #USA #Trybe https://t.co/o5jLHioOi2,Sun Oct 02 23:01:43 +0000 2016,TammySchiefer,"oralb, health, usa, trybe"
#usa,My favourite road trip #route66 #honeymoon #arizona #usa #historic #roadtrip #america https://t.co/kvy5nUdluc,Sun Oct 02 23:01:38 +0000 2016,RCollensPhotog,"route66, honeymoon, arizona, usa, historic, roadtrip, america"
#usa,"#Deals #USA #ebay #4657 36 Rolls Clear Box Carton Sealing Packing Tape Shipping - 2 mil 2"" https://t.co/LlnFIHE5ze https://t.co/QKaKZk8B8v",Sun Oct 02 23:01:38 +0000 2016,wsd_iej_aiu,"deals, usa, ebay"
#usa,While in #USA. Hilarious! https://t.co/9B30K4g0fG,Sun Oct 02 23:01:36 +0000 2016,mahamshykh,usa
#usa,#Deals #USA #ebay #1374 Upgraded 6in1 High Pressure Transfer Heat Press Machine LCD Digita https://t.co/ymcWjNxWjp https://t.co/2lZ039LUNa,Sun Oct 02 23:01:36 +0000 2016,wsd_iej_aiu,"deals, usa, ebay"
#usa,RT @undiosuniversal: Cmo explica la ciencia estas plagas? https://t.co/rPJsrl7Ij2#Dios #Venezuela #USA #Colombia #Brasil #Panama #Boliv,Sun Oct 02 23:01:35 +0000 2016,Magallanero965,"dios, venezuela, usa, colombia, brasil, panama"
#usa,#Deals #USA #ebay #4490 MIG-100 90AMP Flux Core Wire Welder Welding Machine w/ Cooling Fan https://t.co/guK9kFRAL3 https://t.co/aMRyTw08Xe,Sun Oct 02 23:01:33 +0000 2016,wsd_iej_aiu,"deals, usa, ebay"
#usa,#Deals #USA #ebay #8371 1500W 1.6KW Solar Panel Kit: 9*180W Solar Panel W/24-110V 3KW Pure https://t.co/MxSGCkGoSk https://t.co/5mDdYl6KV0,Sun Oct 02 23:01:31 +0000 2016,wsd_iej_aiu,"deals, usa, ebay"
#usa,@patricialopezl Se avecinan tiempos muy dificiles. El declive de hegemonia #usa causar mucho dolor. El fascismo de Trump lo multiplicar.,Sun Oct 02 23:01:30 +0000 2016,ErnestoSuidry,usa
#usa,MY hero @PReedGolf! #USA,Sun Oct 02 23:01:30 +0000 2016,FluffyDoc44,usa
#usa,#Deals #USA #ebay #1818 Electric Ice Shaver Crusher Machine Snow Cone Maker Commercial Sha https://t.co/XvoR7cnfAF https://t.co/c3jgbXquOb,Sun Oct 02 23:01:28 +0000 2016,wsd_iej_aiu,"deals, usa, ebay"
#usa,RT @US_Army_Vet: Trump was positive about Miss Universe Alicia Machado in 1997https://t.co/gjcUTWmDOd @LeahR77 @American1765 #USAhttps:/,Sun Oct 02 23:01:28 +0000 2016,starlady24,usa
#usa,RT @SlumDogPresiden: #WeThePeople #TrustTrump https://t.co/B498giBJmd @Gop @realDonaldTrump @Mike_Pence https://t.co/3RezMC9rA3 @Nra #USA h,Sun Oct 02 23:01:27 +0000 2016,Nancy62373781,"wethepeople, trusttrump, usa"
#usa,Nuestra ONG sigue investigando a este sujeto por  blanqueo @theshield37511 #Brasil #Venezuela #USA https://t.co/WzuW1prM5P,Sun Oct 02 23:01:27 +0000 2016,LucioQuincioC,"brasil, venezuela, usa"
#usa,The latest Windows 8 Metro News! https://t.co/aY9AhFN6E9 Thanks to @gzarinac @Pro_Languages_1 #usa #bestbuy,Sun Oct 02 23:01:24 +0000 2016,windows8walls,"usa, bestbuy"
#usa,My Friend Is Depressed And I Don't Know How To Help! | https://t.co/Xxc7uiWEEb -&gt; https://t.co/MbQUHcGkNG #USA,Sun Oct 02 23:01:23 +0000 2016,AmericaSociety,usa
#usa,#USA #Deals #ebay #7151 DAKINE Capitol Pack- Laptop Pack 17 Colors Laptop Backpack NEW https://t.co/LNOe2mNu6C https://t.co/WrnpIsO77l,Sun Oct 02 23:01:17 +0000 2016,jxh_a9i_izs,"usa, deals, ebay"
#usa,#USA #Deals #ebay #5188 A Kurtz Camo Details Fritz Hat 12 Colors https://t.co/603OPQBW4Z https://t.co/WtF02oXQME,Sun Oct 02 23:01:15 +0000 2016,jxh_a9i_izs,"usa, deals, ebay"
#usa,#USA #Deals #ebay #4401 Visconti Multi Colored Passport Holder Wallet 7 Colors Travel Wall https://t.co/oEOJvxpTqw https://t.co/I5h0pMHwVo,Sun Oct 02 23:01:14 +0000 2016,jxh_a9i_izs,"usa, deals, ebay"
#usa,#USA #Deals #ebay #5029 nu G Embossed Fanny Pack - Brown Cross-Body Bag NEW https://t.co/q7QdDi1Zby https://t.co/VLGeN3vzOm,Sun Oct 02 23:01:12 +0000 2016,jxh_a9i_izs,"usa, deals, ebay"
#usa,"#USA #Deals #ebay #236 American Tourister Pop Plus 3 Piece Luggage Set (21"",25"",29"") - Cho https://t.co/H4eU7sbsYa https://t.co/7n9h4xOPas",Sun Oct 02 23:01:10 +0000 2016,jxh_a9i_izs,"usa, deals, ebay"
#usa,"RT @ColoniumKoeln: #Syrien

Interview mit Al Qaeda Kommandeur: "" #USA stehen auf unserer Seite und bewaffnen uns @GermanyDiplo @OSCE  
htt",Sun Oct 02 23:01:10 +0000 2016,chvoyage,"syrien, usa"
#usa,Let's make America great again!  Visit us at https://t.co/Qe5iSE3OLz #USA #Trumppence16 #Trumptrain https://t.co/J8CA7aqSxd,Sun Oct 02 23:01:08 +0000 2016,Toddlers4Trump,"usa, trumppence16, trumptrain"
#usa,Americas #FoundingFathers Knew This Day Would Come https://t.co/ovjF3hSmYs #usrevolution #2ndrevolution #us #usa https://t.co/hUku2PmYb8,Sun Oct 02 23:01:07 +0000 2016,EU_Failed,"foundingfathers, usrevolution, 2ndrevolution, us, usa"
#usa,RT @RWitherspoon:  Congrats to team USA on a huge Ryder Cup win!!! #RyderCup #USA ,Sun Oct 02 23:01:06 +0000 2016,AJ_FranklinGirl,"rydercup, usa"
#usa,Taking a journey from #tulsa #USA to #murray #united #states? https://t.co/QoSsP587bT,Sun Oct 02 23:01:03 +0000 2016,Distantias,"tulsa, usa, murray, united, states"
#usa,Cmo explica la ciencia estas plagas? https://t.co/rPJsrl7Ij2#Dios #Venezuela #USA #Colombia #Brasil #Panama https://t.co/nRMp5fCUQ9,Sun Oct 02 23:01:03 +0000 2016,undiosuniversal,"dios, venezuela, usa, colombia, brasil, panama"
#usa,RT @MedPedsChomilo: MJ is pretty pleased with the US win #GOAT #RyderCup #USA @RyderCupUSA @rydercup @NBCSports https://t.co/IyuOxbI1Or,Sun Oct 02 23:01:02 +0000 2016,InternetSport,"goat, rydercup, usa"
#usa,Can you recommend anyone for this #job in #USA? https://t.co/gcEZ65eDx4 #Nursing #Hiring,Sun Oct 02 23:01:01 +0000 2016,StAnthonysSTL,"job, usa, nursing, hiring"
#usa,Saudi Interior Ministry Thwarting of terrorist operations linked to ISIS https://t.co/jkY1xnBSgR #UNGA71 #un #usa #us #obama,Sun Oct 02 23:00:58 +0000 2016,RAnalsheqe,"unga71, un, usa, us, obama"
#usa,RT @RealMatSmith: This one's for Arnie. #RyderCup #USA  https://t.co/HDlzzp97ge,Sun Oct 02 23:00:56 +0000 2016,Yourboywondo02,"rydercup, usa"
#usa,"La Bsqueda, ..  https://t.co/tiWtkjOVrE &gt; #USA",Sun Oct 02 23:00:54 +0000 2016,BlancaMiosi,usa
#usa,"RT @TheSaintsWatch: .@politico 

Politico, we know you'll remain silent on telling #USA the truth about evil #Democrats who allow this.. ht",Sun Oct 02 23:00:53 +0000 2016,sonyacsa,"usa, democrats"
#usa,#usa #un Saudi Interior Ministry: Thwarting of terrorist operations linked to ISIS https://t.co/jkY1xnBSgR #NewYork,Sun Oct 02 23:00:53 +0000 2016,RAnalsheqe,"usa, un, newyork"
#usa,Fining #hospitals does nothing to prevent #MedicalErrors in #California or the #USA https://t.co/TQsiLYfGUE,Sun Oct 02 23:00:52 +0000 2016,SokoloveLaw,"hospitals, medicalerrors, california, usa"
#usa,The Ronald Reagan Daily! https://t.co/YPNkhCiRxv Thanks to #USA #Merica #tcot #tlot @TodaysHeadline1 @LibertysHeroes @MhMike6987 #tcot,Sun Oct 02 23:00:52 +0000 2016,RadioFreeRon,"usa, merica, tcot, tlot, tcot"
#usa,"Despida A Su Jefe Y Sea Independiente Financieramente!, Es muy frustrante, ver pasar el tiempo y s  https://t.co/u1UHV6pvZD &gt; #USA",Sun Oct 02 23:00:51 +0000 2016,HROenOroyPlata,usa
#usa,#USA #Deals #ebay #7363 Tamron AF 70-300mm Macro Zoom Lens for Canon EOS Digital SLR Camer https://t.co/FKULul6kyI https://t.co/Z6Hgcxg4TW,Sun Oct 02 23:00:50 +0000 2016,mkanshidealda,"usa, deals, ebay"
#usa,A little behind in the program but huge Congrats to team USA on a Ryder Cup win!!! #RyderCup #USA ,Sun Oct 02 23:00:48 +0000 2016,Vanderlaan12,"rydercup, usa"
#usa,"#USA #Deals #ebay #7947 The Long, Long Trailer New DVD https://t.co/ExnDhLRZsU https://t.co/TI7ViQ2fWB",Sun Oct 02 23:00:47 +0000 2016,lfo_ydg_ouf,"usa, deals, ebay"
#usa,#USA #Deals #ebay #8611 Centennial: The Complete Series New DVD https://t.co/C6nxhpOhZ2 https://t.co/GbP7RYxyen,Sun Oct 02 23:00:45 +0000 2016,lfo_ydg_ouf,"usa, deals, ebay"
#usa,#USA #Deals #ebay #5584 Leica Q (Typ 116) 24MP Full Frame Digital Camera w/ 28mm f/1.7 Lens https://t.co/GZGSYoG3uX https://t.co/urkUt8CIb0,Sun Oct 02 23:00:45 +0000 2016,mkanshidealda,"usa, deals, ebay"
#usa,RT @Chileokulto: Colombia hace rato vot NO a la Paz . Actualmente tiene 7 bases de #USA apuntando sus caones hacia Venezuela. #ColombiaDe,Sun Oct 02 23:00:45 +0000 2016,andarieeego,usa
#usa,Cannabis #Seeds #Usa #Physical #Effects #Of #Cannabis #Pregnancy #Category #B #Drugs #List https://t.co/wk8YN7kHUW,Sun Oct 02 23:00:45 +0000 2016,TracyBeres22,"seeds, usa, physical, effects, of, cannabis, pregnancy, category, b, drugs, list"
#usa,#USA #Deals #ebay #6738 Smokey and the Bandit Pursuit Pack New DVD https://t.co/NWLxaS2WjM https://t.co/HRZnACdm1t,Sun Oct 02 23:00:44 +0000 2016,lfo_ydg_ouf,"usa, deals, ebay"
#usa,Saudi interior Ministry uncover ISIS-linked terrorist network; arrest 17 https://t.co/HVPMFvxyZO  #UN4RefugeesMigrants #UN #USA #US,Sun Oct 02 23:00:43 +0000 2016,ramadanalsheqe4,"un4refugeesmigrants, un, usa, us"
#usa,#USA #Deals #ebay #3723 Disney Junior Kid Pack Plush Character Doll  + Book + DVD Holiday  https://t.co/3w4mJy1wSX https://t.co/NtMoSqkG0g,Sun Oct 02 23:00:42 +0000 2016,lfo_ydg_ouf,"usa, deals, ebay"
#usa,"#Saudi interior ministry announces disruption of ""advanced""terrorist plot:https://t.co/HVPMFvxyZO #UN4RefugeesMigrants  #usa #un",Sun Oct 02 23:00:37 +0000 2016,ramadanalsheqe4,"saudi, un4refugeesmigrants, usa, un"
#usa,Cmo explica la ciencia estas plagas? https://t.co/t0LX5QjF2T#Dios #Venezuela #USA #Colombia #Brasil #Panama https://t.co/ikS6cYg6hE,Sun Oct 02 23:00:37 +0000 2016,divangessen,"dios, venezuela, usa, colombia, brasil, panama"
#usa,Saudi Interior Ministry Thwarting of terrorist operations linked to ISIS https://t.co/VHwbClTUd2 #UNGA71 #un #usa #us #obama,Sun Oct 02 23:00:36 +0000 2016,fouadimohammed2,"unga71, un, usa, us, obama"
#usa,RT @bigdawgt10: Lefty is one bad man #USA,Sun Oct 02 23:00:34 +0000 2016,Tskins12,usa
#usa,"Cannabis Update
Watch the full video https://t.co/vV7pKm2UP2
#cannabis #thc #cbd #hemp #seattle #usa #canada #spain https://t.co/ePCG5a45IJ",Sun Oct 02 23:00:32 +0000 2016,sixinchfilms,"cannabis, thc, cbd, hemp, seattle, usa, canada, spain"
#usa,This #job might be a great fit for you: Mental Health Therapist II  Deaf and Hard of Hearing - https://t.co/gcg7MrM17a,Sun Oct 02 23:00:32 +0000 2016,MHCD_Careers,job
#usa,"#Saudi interior ministry announces disruption of ""advanced""terrorist plot vs religious &amp; security targets: https://t.co/h2OeBLCGxr #usa #un",Sun Oct 02 23:00:31 +0000 2016,ramadanalsheq,"saudi, usa, un"
#usa,Our Cup!! #USA,Sun Oct 02 23:00:29 +0000 2016,Blair_Doug1,usa
#usa,Saudi Interior Ministry Thwarting of terrorist operations linked to ISIS https://t.co/JWm94KeUbq #UNGA71 #un #usa #us #obama,Sun Oct 02 23:00:29 +0000 2016,radwanoqailtdrd,"unga71, un, usa, us, obama"
#usa,Saudi security forces have thwarted ISIS-linked terrorist operations https://t.co/h2OeBLCGxr  #usa #un #us #UN4RefugeesMigrants,Sun Oct 02 23:00:27 +0000 2016,ramadanalsheq,"usa, un, us, un4refugeesmigrants"
#usa,#USA #Bargains #3139 Lexmark 35S0400 MS610DN Laser Printer 50 ppm 1200 dpi x 1200 dpi Dupl https://t.co/i5ju6FCkuy https://t.co/MEfNSLq6Ol,Sun Oct 02 23:00:24 +0000 2016,hatdyisystsk,"usa, bargains"
#usa,#usa #un Saudi Interior Ministry: Thwarting of terrorist operations linked to ISIS https://t.co/JWm94KeUbq #NewYork,Sun Oct 02 23:00:24 +0000 2016,radwanoqailtdrd,"usa, un, newyork"
#usa,RT @NHMS: RETWEET to congratulate #USA on its #RyderCup championship! https://t.co/Hr8GoJhZbM,Sun Oct 02 23:00:24 +0000 2016,Cravenfan,"usa, rydercup"
#usa,And rural #America loves Mr #Trump ! In front of an old John Deere #WeNeedTrump #TrumpPence2016 https://t.co/YVsxDuOVy2,Sun Oct 02 23:00:24 +0000 2016,zakerforce7,"america, trump, weneedtrump, trumppence2016"
#usa,#USA #Bargains #7090 Apple iPad AV Adapter 30Pin to HDMI Mirror to TV + Lighting to 30-Pin https://t.co/vYOZ55cLt6 https://t.co/55fQumhfkL,Sun Oct 02 23:00:23 +0000 2016,hatdyisystsk,"usa, bargains"
#usa,Austin Texas USA !  #luxury #travel #Austin #Texas #USA https://t.co/gXAfN2EL9k,Sun Oct 02 23:00:21 +0000 2016,AiroheadLimited,"luxury, travel, austin, texas, usa"
#usa,#USA #Bargains #8743 Logitech M705 Marathon Mouse - Wireless Mouse with 3 Year Battery Life https://t.co/rkXpOr7JfA https://t.co/cVA14LknDs,Sun Oct 02 23:00:21 +0000 2016,hatdyisystsk,"usa, bargains"
#usa,#USA #Bargains #9042 LifeProof Nuud Waterproof Case for Apple iPad Mini 1 2 &amp; 3  - Glacier https://t.co/bjHGqvQijq https://t.co/u03kwGzxwg,Sun Oct 02 23:00:19 +0000 2016,hatdyisystsk,"usa, bargains"
#usa,RT @CelinaGreenwald: #USA Intellectual Property Lawyers #legal #advice https://t.co/iM7mdV1q6a #RealEstate,Sun Oct 02 23:00:18 +0000 2016,ArmandoOrton,"usa, legal, advice, realestate"
#usa,"#USA #Bargains #5127 Microsoft Surface Pro 3 12"" i5-4300U 128GB Win10 Pro Wi-Fi Tablet MQ2 https://t.co/4Kz7RssGqt https://t.co/clUEvXvHuh",Sun Oct 02 23:00:16 +0000 2016,hatdyisystsk,"usa, bargains"
#usa,Saudi Interior Ministry: Thwarting of terrorist operations linked to ISIS https://t.co/iqUbseDHFB #UNGA71 #un #usa #us #obama,Sun Oct 02 23:00:16 +0000 2016,ramadanalshe,"unga71, un, usa, us, obama"
#usa,"#Saudi interior ministry announces disruption of ""advanced""terrorist plot:https://t.co/pZpnP3xv0Q #UN4RefugeesMigrants  #usa #un",Sun Oct 02 23:00:15 +0000 2016,eqeryram,"saudi, un4refugeesmigrants, usa, un"
#usa,Saudi interior Ministry uncover ISIS-linked terrorist network; arrest 17 https://t.co/JJMEqoDBSV  #UN4RefugeesMigrants #UN #USA #US,Sun Oct 02 23:00:14 +0000 2016,rabearowihyiyvt,"un4refugeesmigrants, un, usa, us"
#usa,           #usa      #__,Sun Oct 02 23:00:14 +0000 2016,E_Sgaw_Radwan,"usa, __"
#usa,"#Saudi interior ministry announces disruption of ""advanced""terrorist plot vs religious &amp; security targets: https://t.co/pZpnP3xv0Q #usa #un",Sun Oct 02 23:00:11 +0000 2016,eqeryram,"saudi, usa, un"
#usa,#bestbuy #USA #4640 iPad Pro 9.7 / 12.9 Case 2016 Model with Apple Pencil Holder Leather S https://t.co/qEvUDlkjKO https://t.co/EAOxJQnt69,Sun Oct 02 23:00:10 +0000 2016,zkufufjcopdk,"bestbuy, usa"
#usa,"#Saudi interior ministry announces disruption of ""advanced""terrorist plot:https://t.co/JJMEqoDBSV #UN4RefugeesMigrants  #usa #un",Sun Oct 02 23:00:09 +0000 2016,rabearowihyiyvt,"saudi, un4refugeesmigrants, usa, un"
#usa,"aiHitBot: Sep 04 - Oct 02 #USA
#REALSTARTER (https://t.co/b4AAJyoWMJ) changed #CMO
https://t.co/YZ2wAKdFt9
#news",Sun Oct 02 23:00:09 +0000 2016,dobarsky,"usa, realstarter, cmo, news"
#usa,#US #Error #Stamps CKStamps: US Error EFO Stamps #Collection Scott#2011 Mint NH OG Misperf https://t.co/Ey6O8wO6sC https://t.co/8txYIFY938,Sun Oct 02 23:00:09 +0000 2016,UsaStampsShop,"us, error, stamps, collection"
#usa,RT @FreeDavidKing: I pledge allegiance to the flag of the United States of America!!! Do you? Retweet to notify @jaketapper! #USA https://t,Sun Oct 02 23:00:09 +0000 2016,clannadlore,usa
