Hashtag,Total Count
rydercup,140
gousa,105
ebay,55
usa,36
deals,23
teameurope,20
teamusa,11
job,9
camera,8
hiring,6
rydercup2016,5
best,5
cheap,4
venezuela,4
un,4
sales,4
letsgolefty,4
riparnie,4
salon,3
deal,3
france2018,3
us,3
brasil,3
america,3
sale,3
talentawards,2
go,2
makeamericagreatagain,2
candle,2
panama,2
discounts,2
trump2016,2
tcot,2
newyork,2
bangkok,2
kids,2
showyourcrowds,2
win,2
colombia,2
card,2
beeswax,2
dios,2
lazadath,2
mlb,2
car,2
mall,2
tealight,2
travel,2
paytm,2
priceabate,2
thailand,2
daily,2
mxico,2
yemen,2
colleges,1
mcilroy,1
aerospace,1
show,1
hazeltine,1
laptop,1
shoponline,1
murray,1
bethpage,1
modesto,1
democrats,1
golf,1
whitehouse,1
overwhelmed,1
99p,1
trumppence16,1
boycottthenfl,1
hecheeredhislittleheartout,1
nomoregolftweetsfrommeforawhile,1
sergiogarcia,1
wethepeople,1
roadtrip,1
offers,1
black,1
philmickelson,1
halloween,1
interested,1
onsale,1
good,1
photo,1
tulsa,1
cuba,1
online,1
fav,1
dc,1
trybe,1
dalvssf,1
historic,1
blacklivesmatter,1
topps,1
stillalice,1
bluejays,1
rental,1
theking,1
ccot,1
,1
gift,1
iphone6,1
books,1
usastandbag,1
bestbuy,1
detroit,1
neverkillaryclinton,1
saudi,1
thanksdonald,1
hrc33,1
pilotjobs,1
noclass,1
comitdeprensa,1
theamericanway,1
syrien,1
love,1
skol,1
trend,1
arizona,1
instantwingame,1
cowboys,1
eu,1
rt,1
brexit,1
hookem,1
lasttimetrumppaidtaxes,1
health,1
mickelson,1
route66,1
seaisland,1
jobs,1
vdot,1
dbt4gh17,1
lefty,1
tlot,1
discount,1
california,1
br,1
jemen,1
news,1
,1
mex,1
coupons,1
mvp,1
trumptaxes,1
pt,1
micromax,1
trump,1
components,1
airline,1
plus,1
t7wedge,1
unga71,1
baseball,1
share,1
retail,1
forarnie,1
husla3x,1
reds,1
clinton,1
apple,1
mets,1
honeymoon,1
,1
eyelashextensions,1
toys,1
actress,1
viralelection2016,1
computer,1
mentalhealth,1
bees,1
top,1
lol,1
mart,1
gilbertaz,1
golfchannel,1
merica,1
bringithome,1
_,1
shopping,1
medicalerrors,1
dailydeals,1
it,1
jordan,1
pjnet,1
women,1
animals,1
seeyouinparis,1
rights,1
cards,1
_,1
dvd,1
fun,1
nofilter,1
beautiful,1
nursing,1
portugal,1
blacklives,1
canon,1
oralb,1
states,1
,1
tfbjp,1
romance,1
trusttrump,1
2ndrevolution,1
amazonin,1
hospitals,1
ryderred,1
funny,1
contest,1
michaeljordan,1
jerry,1
eleicoes2016,1
snrtg,1
hot,1
foundingfathers,1
juliannemoore,1
thistown,1
new,1
latino,1
colombiadecide,1
goat,1
espanha,1
status,1
obama,1
benedictchamblee,1
sennheiser,1
vouchers,1
united,1
roshhashanah,1
trumptrain,1
avengers,1
autograph,1
constitution,1
supersonic,1
customerservice,1
la2024,1
curry,1
proud,1
hispanic,1
poldark,1
time,1
usrevolution,1
original,1
marvel,1
