Hashtag,Total Count
vpdebate,1013
imwithher,129
mormon,101
pence,94
vpdebate2016,92
kaine,85
trump,81
timkaine,81
debates2016,75
debatenight,71
mikepence,66
lds,50
hillaryclinton,49
gopdebate,44
hillary,42
debates,39
strongertogether,38
congress,35
election2016,33
vicepresidentialdebate,29
debate,25
donaldtrump,22
maga,22
cnn,22
kainevspence,20
imwithtim,19
nevertrump,18
trumppence16,17
cnndebate,17
clinton,17
bbcqt,15
clintonkaine,14
trumptrain,14
clintonkaine2016,13
msnbc,12
ynwa,12
ldsconf,12
coys,12
benghazi,11
vpdebates,10
gop,10
foxnews,10
ggmu,10
usa,9
veepdebate,9
wakeupamerica,9
hillary2016,9
halamadrid,9
longwooddebate,9
valuevotersummit,8
trump2016,8
twitterstake,8
voteyourfuture,7
crookedhillary,7
yeswekaine,6
indiana,6
uspoli,6
ldschurch,6
america,6
sharegoodness,6
news,6
americafirst,6
neverhillary,5
farmville,5
climatechange,5
imwiththem,5
hiphopawards,5
obama,5
democrats,5
vote2016,5
vp,5
usflag,5
election,5
longwood,5
politics,5
obamacare,4
voteblue,4
women,4
hrc,4
potus,4
civilrights,4
president,4
register,4
makeamericagreatagain,4
myvote,4
truth,4
deplorables,4
vote,4
clash,4
clintonfoundation,4
polls,4
fcbarcelona,4
outnumbered,4
forzajuve,4
tracker,4
factcheck,4
cmonman,4
hillyes,4
barbarajohns,4
odds,4
veterans,3
imwithher2016,3
prescottvalley,3
movies,3
love,3
presidentialcampaign,3
amjoy,3
lgbtq,3
trumpchump,3
pray,3
hillarysarmy,3
arizona,3
tcot,3
decision2016,3
fear,3
saudiarabia,3
xvideos,3
clintonemails,3
presidentialdebate,3
vpdebateactionmovie,3
virginia,3
kainetrain,3
poll,3
uniteblue,3
question,3
imwithkaine,3
feedly,3
sheswithus,3
pencekaine,3
liar,2
hillaryforprison,2
integrity,2
swoon,2
longwooduniversity,2
donthecon,2
deplorable,2
growingup,2
dem,2
christian,2
lgbt,2
dontlethimwin,2
proudtobepa,2
leadership,2
live,2
vps,2
scary,2
americanpeople,2
norwood,2
presidenttrump,2
tax,2
obamalegacy,2
registertovote,2
magazine,2
fromevernote,2
snl,2
facebook,2
trade,2
debbiedowner,2
november8th,2
texas,2
iowa,2
leadright2016,2
khakikaine,2
bluejays,2
artist,2
tempermant,2
newyorktimes,2
clinton2016,2
militaryfamilies,2
rp,2
blacks,2
blm,2
health,2
ohhillyes,2
free,2
marine,2
vicepresidentialnominee,2
theventurebrothers,2
msm,2
california,2
southcarolina,2
boring,2
changeagent,2
marijuana,2
omfg,2
latino,2
letstalktax,2
dumptrump,2
abc,2
latinos,2
lovetrumpshate,2
billclinton,2
daddebate,2
dj,2
donald_trump,2
youtubeheroes,2
neverpence,2
penceisthedevil,2
gotimkaine,2
brownvboardeducation,2
basementdwellers,2
itrusther,2
vetsvshate,2
newhampshire,2
nra,2
p2,2
wellspoken,2
voters,2
demdebate,2
guccifer2,2
cino,2
matthew,2
unitedstates,2
putin,2
hispanic,2
cnnelection,2
pense,2
smarm,2
rnc,2
utah,2
knot,2
superdad,2
giveemhill,2
trends,2
nonsensepence,2
cnnsotu,2
imwithveterans,2
aca,2
dnc,2
iamwithher,2
smalltown,2
crappycnn,2
hqvols,2
lies,2
hilaryclinton,2
racism,2
hr,2
trumppence2016,2
streamys,2
uniteddemhq,2
pjnet,2
nationaltacoday,2
tie,2
bigleaguetruth,2
nazidump,1
gorams,1
kaineyounot,1
vile,1
vaticano,1
judgesmatter,1
edm,1
opho2016,1
sanctuary,1
notallpepes,1
shittytrumpconspiracy,1
electionday,1
children,1
glasssteagall,1
patriarchalbullshit,1
teamtim,1
releaseyourtaxes,1
kidsfirst,1
pinoypride,1
paris,1
penceisadickweed,1
sanantonio,1
vcusmclass,1
timkainethekindadad,1
sound,1
woman,1
virginialove,1
americavotes,1
pscpioneersdebatewatch,1
vegan,1
rednationrising,1
ac360,1
anonymous,1
presdebate,1
wheresbill,1
coblue,1
litecoin,1
proxywar,1
saveusa,1
fhe,1
tokyo,1
vpotus,1
subway,1
bettertogether,1
small,1
superpredators,1
pbo,1
ysa,1
bill,1
hillarysheart,1
theinsider,1
kimkardashian,1
poopypantspence,1
legacystrong,1
sanctuarycities,1
letsgotim,1
immigrantsfortrump,1
twilightzone,1
constitution,1
pmsnbc,1
jillstein2016,1
demonicgop,1
rutgers,1
libtards,1
ronaldreagan,1
swingstate,1
newyork,1
wasthatsupposedtohappen,1
clownsightings,1
studio,1
govoteky,1
tk4vp,1
ccot,1
genz,1
genx,1
usvpdebate,1
vegetarian,1
vicepresident,1
experience,1
donnytheloser,1
hillsquad,1
evangelicals,1
popcorn,1
military,1
taipei,1
eyebrows,1
lasen,1
aryastark,1
morals,1
hillaryforamerica,1
hoco2k17,1
ppammvotes2016,1
mileycyrus,1
myteam,1
doyourjob,1
lagov,1
hindsight,1
cloud,1
gobbledegook,1
imwithelaine,1
oregonshooting,1
aapisforhillary,1
gotv,1
gameon,1
predictions,1
selling,1
demonspawn,1
doubt,1
music,1
calgary,1
novaginasforpence,1
crushingcalls,1
syria,1
trump201,1
21cenwork,1
streamyawards,1
snarkydebate,1
nbc,1
emailgate,1
tampa,1
trumpsucks,1
importantdesition,1
biden,1
timcaine,1
barrhall,1
mj,1
halloweenunderground,1
antifeminist,1
txlege,1
smstake,1
history,1
rhodeisland,1
confused,1
states,1
follow4follow,1
armthepeople,1
newhaven,1
askthegays,1
mellencampdebateprep,1
plantbased,1
vincefoster,1
breaking,1
womensrights,1
nyt,1
satanism,1
movember,1
vancouver,1
nyc,1
swva,1
senator_tim_kaine,1
economy,1
ripphizzurp,1
draftdodger,1
ft,1
londn,1
azure,1
wrong,1
lesbian,1
trumpkin,1
myfirsttweet,1
fathers,1
read,1
tweeting,1
green,1
buskwithtimkaine,1
talentpool,1
legalizeit,1
blacklivesmatter,1
mexican,1
producer,1
elmundo,1
thejoker,1
tampabay,1
broadway,1
ffa,1
islam,1
cato2016,1
didyoumove,1
toopoliticallycorrect,1
smallbiz,1
cripthevote,1
winnipeg,1
bernieorbust,1
wearescrewed,1
newsengagementday,1
cantstandhim,1
swastika,1
americanpoli,1
dad,1
good,1
feelthebern,1
latinosfortrump,1
washington,1
ldsgeneralconference,1
shutitdown,1
drinkinggame,1
schools,1
trumpsajoke,1
housemusicawards,1
statethatworks,1
dadfight,1
reince,1
blackvote,1
basketofdeplorables,1
2a,1
drinkfordebates,1
rodrigoduterte,1
obamabiden,1
moronichannel,1
house,1
wakethevote,1
kane,1
nyfw,1
prop63,1
rhettreese,1
hoosiersforhillary,1
event,1
nhsen,1
space,1
god,1
irony,1
research,1
tomkaine,1
lucifer,1
vcu,1
smh,1
wisconsin,1
realestateagent,1
satanic,1
team,1
ocra,1
wincinnati,1
vets,1
mmj,1
freemasonry,1
jewsfortrump,1
imwithleftie,1
morningjoe,1
hacked,1
chortle,1
imwithkendrick,1
success,1
honest,1
american,1
musicians,1
cain,1
peaceout,1
nevertrumpers,1
reinventobsession,1
purvipatel,1
legislation,1
msn,1
philadelphia,1
fnfwatchparty,1
mormonleaks,1
katykat,1
wikileaks,1
mlb,1
talesofthetimes,1
oneortheother,1
corruptmedia,1
bears,1
bitcoin,1
jumatberkah,1
1a,1
jillnothill,1
readyforhillary,1
wheredoyoustand,1
imbored,1
gopsenate,1
beavoter,1
trumpsplaining,1
newsmedia,1
immigrant,1
azvictory,1
toronto,1
fucktrump,1
thedabate,1
freud,1
bethany,1
kindle,1
marines,1
russia,1
newportbeachtemple,1
openquestion,1
electionfatigue,1
philippine,1
genflynn,1
conspiracy,1
squinty,1
35daystoelectionday,1
philly,1
downballotdems,1
tombrokaw,1
votingmachine,1
ldstemple,1
calledtoserve,1
saratogasprings,1
presidentialelection2016,1
clintoncash,1
veteran,1
responsible,1
able,1
muybien,1
inthenameoflove,1
oops,1
johnmellencamp,1
rapist,1
avoidcnn,1
thepurgeelectionyear,1
nodoubt,1
nationalcinnamonrollday,1
yawn,1
hiphop,1
thisshouldbegood,1
shewon,1
100yrs,1
democratic,1
plumbet,1
benghazi4,1
tytlive,1
proud,1
voterfraud,1
dealbreaker,1
norwooduniversity,1
foxandfriends,1
tpp,1
voting,1
microsoft,1
youbuiltthat,1
womenalsoknowstuff,1
ky3news,1
queen,1
notwatchingvpdebate,1
queer,1
thetimes,1
whitehouse,1
motonhigh,1
meetthepress,1
wny,1
bornagain,1
floresville,1
demtownhall,1
rocklanone,1
mexicans,1
actof1871,1
satan,1
vpddebate,1
hiv,1
debatequestion,1
azerbaijan,1
rachelgreen,1
mlbplayoffs,1
haiti,1
crs,1
doyouevenknowwhereyouare,1
news2me,1
progressive,1
lefthanded,1
bigly,1
wegotthis,1
joker,1
iknowhim,1
clowns,1
banmuslims,1
gwenifil,1
coldblooded,1
eachday,1
kreepykaine,1
fightlikehill,1
honesty,1
lancerstrong,1
kommiekaine,1
religiousliberty,1
corrupt,1
jobs,1
ebay,1
taiwan,1
stats,1
yestimkaine,1
record,1
muy,1
state,1
wnyhomes,1
uselections2016,1
reading,1
pencemustgo,1
lasttimedonaldtrumppaidtaxes,1
korea,1
nobrakesonthekainetrain,1
believeme,1
darpa,1
facepalm,1
wfpb,1
elderperry,1
pens,1
hillaryclintonforpresident,1
whereisweld,1
wapo,1
jeffcobestco,1
veep,1
mega,1
feminist,1
eyeroll,1
minorities,1
2016debates,1
turnncblue,1
trumppence,1
baltimore,1
therally,1
sjwlogic,1
rpx,1
cult,1
bobdole,1
november,1
nationalist,1
turkey,1
hillaryforwi,1
apostle,1
trumptaxreturns,1
theoffice,1
oneteam,1
liberals,1
airstrikes,1
baal,1
orioles,1
scribbling,1
louisiana,1
h3h3productions,1
pepethefrog,1
whattafuckingtool,1
gay,1
republicans,1
wikileaks10,1
bible,1
votetrump,1
temperament,1
musicislife,1
julianassange,1
greatstart,1
snifflestheparasiticbigot,1
endaids,1
presidency,1
socialist,1
cbsnreax,1
socialism,1
feminism,1
cubs,1
fun,1
kreppykaine,1
voice,1
anewspaper,1
stpete,1
va,1
pence2016,1
trumpstaxes,1
mkepence,1
vpdebateepichaiku,1
dems,1
designatedsecondplace,1
confirmed,1
smallbusiness,1
author,1
imahoosierthathateshim,1
factsmatterquestionmark,1
themoreyouknow,1
rockthevote,1
xpolitics,1
slave,1
evangelical,1
nsa,1
seekhelp,1
optrump,1
davebrat,1
kaineisable,1
35days,1
mormonswithher,1
thecircus,1
anti2a,1
cnnrealitycheck,1
ruvoting,1
trumpunhinged,1
geny,1
dodd16,1
blacksfortrump,1
roma,1
redtape,1
lancerpride,1
prochoice,1
indvsjax,1
kkk,1
imwithtimmeh,1
datenight,1
jonsnow,1
slime,1
quotes,1
pooramerica,1
fuckingmoron,1
ad,1
latenightwithpence,1
yes,1
cuasia2016,1
utahcapitol,1
hal,1
family,1
makeamericasuckagain,1
orlandoshooting,1
hag,1
nhtogether,1
kanevspence,1
astronaut,1
hopehesnevercommanderinchief,1
moronich,1
officechristmasparty,1
syrianrefugees,1
question1,1
votebluestraightticket,1
equality,1
coverup,1
bced,1
psu,1
leanright2016,1
masonic,1
trumpery,1
bringbackthetowelcharm,1
bushcheney,1
corrupttrump,1
smalltowngirl,1
knowyourhistory,1
security,1
passionate,1
refugees,1
ptsd,1
clintonkid,1
mtedchat,1
greatdebate,1
livetweet,1
realdonaldtrump,1
va07,1
votevote,1
righthandperson,1
for,1
millennials,1
noh8,1
nazi,1
hurricane,1
illegalimmigrants,1
track,1
doublestandard,1
wearewithher,1
libtard,1
specialreport,1
wtmf,1
hillarybros,1
draftkings,1
voteakl,1
buyinbuffalo,1
freemason,1
votetrumppence16,1
cannabis,1
poltiics,1
yourvoiceyourvote,1
buschcampus,1
notacult,1
votersrights,1
donaltrump,1
trumptaxes,1
shrm,1
hotbros4hill,1
bbcnews,1
timcain,1
rydercup,1
hrvotes,1
registration,1
ows,1
spam,1
gayslovetrump,1
senatorkaine,1
timekaine,1
racist,1
syrrelpol,1
bhshoco2016,1
cspan,1
ocmormons,1
war,1
lalege,1
remix,1
solar,1
notrump,1
congratulations,1
isis,1
comm4473,1
firedup,1
mtv,1
debate2016,1
factsmatter,1
kidsmatter,1
dmv,1
blrbattles,1
highlight,1
lsat,1
houseofcards,1
rva,1
youhavesacrificednothing,1
toss,1
pic,1
medicaid,1
mormons,1
cbs,1
dod,1
tithing,1
galaxynote7,1
education,1
squinter,1
champion,1
ancestors,1
trumpnotnormal,1
democratparty,1
thedebate,1
idiot,1
tuesdaymotivation,1
mormonchannel,1
ny,1
vicepresidentaldebate,1
boom,1
southcarolinaprimary,1
debatnight,1
joshdonaldson,1
texasdemocrat,1
jewishtimes,1
tacotrucksoneverycorner,1
gaybasher,1
football,1
blackvotes,1
muslims,1
raisingkaine,1
wgan,1
pantsuitpower,1
imnotinsane,1
clinton4prison,1
statusquo,1
alwildcard,1
keane,1
buffalo,1
righthandman,1
