Hashtag,Total Count
debate,124
donald,90
hillary,30
commission,25
trump,25
wikileaks,11
isis,11
maga,10
poll,10
election2016,9
minoritypolitics,8
ccot,8
2a,8
tcot,8
clintonkaine,8
clinton,8
strongertogether,8
millenials,8
teamtrump,8
wakeupamerica,8
imwithher,8
lyinghillary,5
donaldtrump,3
debates2016,3
video,3
hillaryshoaxes,3
kellyfile,2
republican,2
presidential,2
election,2
mainstreammedia,2
trumpwon,2
hillaryclinton,2
libya,2
organizers,2
vote,2
hilary,2
nominee,2
eric,2
microphone,2
america,2
cameo,1
drumpf,1
elonmusk,1
bottomofyourclass,1
vote2016,1
winner,1
liarliarpantsonfire,1
veterans,1
boris,1
opendebates,1
lunatic,1
di,1
very,1
debatenight,1
malfunctioned,1
trumpsarmy,1
debates,1
crookedhillary,1
lies,1
ivanks,1
unstable,1
widow,1
stump,1
trumpwins,1
fridaynitelive,1
waterbottle,1
viero,1
katrina,1
blacks,1
nuclear,1
scottie,1
enough,1
hill,1
email,1
specialreport,1
growup,1
standard,1
elections2016,1
cough,1
birther,1
florida,1
forestwood,1
military,1
chickentrump,1
pakistan,1
appeared,1
candycrowley,1
unelectable,1
hilaryclinton,1
lesterholt,1
blacktwitter,1
hannity,1
nicetrytrump,1
lawsuits,1
porn,1
mars,1
twitter,1
sondages,1
oktoberfest,1
playboy,1
neverstudy,1
bullshitting,1
yourfired,1
saralynnmichener,1
melania,1
vindication,1
hotties4trump,1
women,1
softcore,1
double,1
inside,1
teleprompter,1
elections,1
perfectdescription,1
un,1
del,1
carmen,1
russia,1
openquestion,1
defending,1
in,1
kayleigh,1
mic,1
neurotic,1
lovetrumpshatebecause,1
speech,1
trumpisanabuser,1
endorsement,1
rogerailes,1
colombiadecide,1
jeffrey,1
kristallnacht,1
demexit,1
president,1
friends,1
a,1
cuban,1
nevertrump,1
inners,1
donaldtrumpunfit2leadorgovern,1
blacksfortrump,1
narcos,1
tpp,1
rudigulliani,1
lying,1
