Hashtag,Total Count
ebay,319
gaming,190
watch,177
watches,176
retrogaming,160
nintendo,152
games,131
deals,118
credit,115
loan,107
gamer,99
videogames,89
usa,87
game,81
snes,79
mortgage,77
quartz,77
nes,69
super,67
ps4,64
share,56
xbox,47
home,46
fitbitsurge,46
news,39
finance,38
rates,37
car,36
stainless,36
gamersunite,35
fitbit,33
minecraft,32
free,31
calculator,29
refinance,28
sales,27
toys,27
playstation,26
youtube,26
twitch,25
trends,25
refinancing,25
xbox360,25
indiedev,24
life,23
sega,23
auto,23
xbone,22
zone,21
gamers,21
new,20
pokemongo,20
videogame,20
fx,20
forex,20
xboxone,20
gamedev,19
n64,19
funny,18
center,18
money,17
salon,16
passion,16
mario,15
pcgaming,15
agario,15
trolling,15
turkey,15
mart,15
business,15
trolls,15
europe,15
retro,15
un,15
indiegame,15
loans,15
illuminati,15
rate,14
gps,14
realestate,14
gameplay,13
pokemon,13
igames,13
zelda,13
fitness,13
jewelry,13
wii,13
job,13
steam,12
score,12
bargains,12
deal,12
for,12
anime,12
letsplay,12
shoes,12
card,12
complete,12
follow,12
casio,12
minecon,12
gamergirl,11
bad,11
gameboy,11
supernintendo,11
forsale,11
online,11
gamedesign,11
dispenser,11
soap,11
daily,10
market,10
megadrive,10
ps3,10
sony,10
retrogames,10
play,10
pc,10
payment,10
etc,10
like,10
movado,10
changes,9
bank,9
amazon,9
gamecube,9
hiring,9
design,9
nintendo64,9
3ds,9
youtubegaming,9
mobile,9
us,9
video,9
related,9
boutique,9
pcgamer,9
console,9
investment,8
playstation4,8
best,8
love,8
live,8
get,8
pixelart,8
jobs,8
laptops,8
atari,8
a,8
retrogamer,8
insurance,8
mathematical,8
streaming,8
manappuram,8
nfl,8
tickets,7
how,7
fashion,7
amortization,7
football,7
xboxlive,7
wiiu,7
iphone,7
gamenews,7
aliexpress,7
canada,7
cards,7
components,7
superdeals,7
superdeal,7
gamerslife,7
androidgame,7
android,7
itunes,6
nba2k17,6
steel,6
report,6
reddit,6
un4refugeesmigrants,6
cool,6
adjustable,6
cat,6
sale,6
mod,6
nesmini,6
with,6
code,6
horror,6
teameurope,6
google,6
fifa17,6
arcade,6
yeezy,6
newgames,6
thenewthing,6
system,6
should,6
subscribe,6
auction,5
twitchcon,5
music,5
yahoo,5
bomberman,5
travel,5
silver,5
genesis,5
handmade,5
kitten,5
cute,5
ring,5
cheap,5
atari2600,5
no,5
your,5
psvita,5
biweekly,5
art,5
nike,5
supermario,5
buzz,5
castlevania,5
repayments,5
sketch,5
win,5
halloween,5
walkthroughfox,5
gucci,5
vintage,5
megaman,4
rydercup2016,4
residentevil,4
re1,4
burial,4
toy,4
be3,4
psplus,4
check,4
playstation3,4
mens,4
saturn,4
gameart,4
kid,4
gift,4
savile,4
rydercup,4
roseville,4
np,4
md,4
collateral,4
patriots,4
bridging,4
segasaturn,4
remake,4
idubbbztv,4
income,4
october,4
ign,4
to,4
dreamcast,4
saudi,4
intellivision,4
ifunny,4
oldschool,4
elderscrolls,4
obama,4
compare,4
services,4
etsy,4
ps4live,4
condo,4
buynow,4
cripplingdepression,4
bestseller,4
clinton,4
custom,4
commodore64,4
nice,4
ge,4
,4
apple,4
atarijaguar,4
banking,4
dailydeals,4
skyrim,4
fixed,4
computer,4
djnightcrawler,4
unga71,4
comment,4
ca,4
concours,4
graphics,4
indiegames,4
inktober,4
8bit,4
fha,3
prolifegen,3
xfactor,3
,3
phone,3
hot,3
twitchtv,3
personal,3
top,3
raspberrypi,3
streetfighter,3
blastworks,3
gamerlife,3
tech,3
whitehouse,3
geek,3
bag,3
fair,3
gamer4life,3
debt,3
cod,3
sacramento,3
investments,3
sporting,3
adidas,3
aww,3
post,3
nowplaying,3
batman,3
classic,3
konami,3
boost,3
dendy,3
baseball,3
sports,3
today,3
,3
can,3
clothing,3
newscott,3
amazing,3
gta5,3
mesquite,3
adopt,3
auburn,3
hukd,3
federal,3
,3
shopping,3
bags,3
youtubers,3
c64,3
mortgages,3
ps2,3
blog,3
kirby,3
jewellery,3
comparison,3
gamenugz,3
assets,3
supportsmallstreamers,3
children,3
mother2,3
foster,3
nba,3
action,3
tester,3
musics,3
browns,3
mojostars,3
blackops3,3
surveillance,3
bestbuy,3
pc4,3
house,3
contra,3
livestream,3
excitebike,3
bo3,3
gamehistory,3
pokemonmoon,3
used,3
homeautomation,3
fucking,3
womens,3
lender,3
jumbo,3
colecovision,3
dendyzona,3
schedule,3
newyork,3
heyyouapp,3
youtuber,3
from,3
camera,3
vehicle,3
playinggames,3
pendant,3
homephone,3
retweet,3
cellphone,3
taxes,3
jersey,3
cd,3
rpg,3
vr,3
ios,3
student,3
i,3
drawing,3
c17,3
,3
payments,3
nba2k,3
surge,3
feedly,3
ajkgovt,2
sorry,2
shaving,2
rescue,2
c03,2
blue,2
mortgagetips,2
huntingtonbeach,2
economics,2
calculators,2
fantastic,2
composite,2
setup,2
gamespot,2
indie,2
india,2
tacoma,2
prolife,2
sellingca,2
pottiteam,2
fix,2
coffee,2
acme,2
detroit,2
f4f,2
cameras,2
tcot,2
nursejoygamer,2
swfl,2
features,2
bitcoin,2
listen,2
pakistani,2
darksouls3,2
boston,2
vga,2
laptop,2
lenders,2
xcom2,2
rings,2
wear,2
kitchen,2
,2
character,2
interest,2
contreebo,2
property,2
top5,2
accessories,2
newmixalert,2
collectibles,2
unique,2
humor,2
marketing,2
smallyoutuber,2
support,2
ps4share,2
asset,2
failure,2
congratulations,2
urgent,2
madden17,2
looneytunes,2
nm,2
fs15,2
nx,2
digital,2
developers,2
americanidol,2
scores,2
windows10,2
charge,2
veterans,2
secondtimego,2
box,2
durham,2
socal,2
drago,2
interracial,2
mastersystem,2
requirements,2
rtpic,2
deathrow,2
nyc,2
ripphizzurp,2
sp,2
manga,2
arm,2
csc,2
gta,2
videogamehistory,2
cogxbox,2
stillalice,2
gousa,2
rock,2
retrosunday,2
gamerp,2
cars,2
punks,2
advance,2
programming,2
secretofmana,2
tecnologasdelainformacin,2
ultimatenesremix,2
indiegamerrt,2
juliannemoore,2
larams,2
reno,2
3dmodel,2
wiki,2
wristcheck,2
style,2
learning,2
vintagelooneytunes,2
gameinsight,2
cash,2
canon,2
technology,2
customjewelry,2
amiibo,2
summer,2
actress,2
esprit,2
psn,2
psx,2
world,2
gameofthrones,2
pcaddicts,2
throwback,2
watchlover,2
threesome,2
madden,2
promote,2
comics,2
au,2
nerd,2
inktober2016,2
otd,2
gifts,2
watchgram,2
overwatch,2
egame,2
brewers,2
puzzles,2
developing,2
mensfashion,2
retrovideogames,2
sper,2
component,2
fullhd,2
uncharted,2
caravan,2
cgn,2
piggyback,2
markets,2
teen,2
fanboys,2
jellyman,2
history,2
scifi,2
golfnews,2
quartzwatch,2
rentals,2
indiegamerfb,2
good,2
,2
trailer,2
kobe,2
giveaway,2
daisy,2
gamingpc,2
lainformticacomomateria,2
authors,2
dogs,2
thankspapi,2
ngcpic,2
warnerbros,2
quote,2
freegame,2
asus,2
golf,2
find,2
retropalooza4,2
bf4,2
expert,2
steelers,2
ps,2
mlb,2
triple,2
famicom,2
jammukashmir,2
xone,2
trendy,2
pet,2
lottery,2
handbags,2
fast,2
robotron,2
appdev,2
roimentor,2
junior,2
windows,2
reddict,2
gamedevelopment,2
dvd,2
ags,2
edm,2
teamusa,2
gc,2
go,2
facebook,2
pledge,2
download,2
payday,2
mgwv,2
teamsupport,2
hdmi,2
commercial,2
great,2
watchesofinstagram,2
women,2
arcadegaming,2
control,2
daffyduck,2
kickstarter,2
punchout,2
hunnit,2
pixel,2
cre,2
greekmythology,2
scary,2
atomuniverse,2
mafia3,2
footagealert,2
duckhunt,2
academy,2
superbowl51,2
buy,2
pewdiepie,2
dallas,2
montana,2
handbag,2
exclusive,2
ngc,2
photography,2
retrogame,2
autos,2
edition,2
destiny,2
figures,2
bugsbunny,2
characterdesign,2
spain,2
highscore,2
gmed,2
web,2
lake,2
c16,2
government,2
,2
recore,2
beats,2
ink,2
crystals,2
incredible,2
projectgothamracing,1
todays,1
etsyjewelry,1
asian,1
nzdchf,1
daylightsavingtime,1
sanantonio,1
richlife,1
jerseycity,1
piti,1
sellers,1
ios10,1
school,1
unity3d,1
retropie,1
pocketwatch,1
tired,1
direct,1
idubbbz,1
psvr,1
gbpjpy,1
liberty,1
giftforbaby,1
sb50,1
disney,1
pats,1
men,1
lgbt,1
protection,1
webcamsex,1
kids,1
daughter,1
smoky,1
creditscore,1
wirewrapped,1
iphonegamesstrategy,1
military,1
brownsville,1
sundayfunday,1
strap,1
eunchae,1
sammamish,1
motivate,1
gooddeal,1
program,1
beeswax,1
calc,1
until,1
loveyou,1
feareffect,1
airjordan,1
sgdjpy,1
happyhalloween,1
ma,1
work,1
smallbiz,1
battlefront,1
cgametutorial,1
,1
recipes,1
addictive,1
autoleasing,1
gamergate,1
originalmix,1
michaeljackson,1
titanium,1
leasecalculator,1
splatoon,1
butzbach,1
consolerepair,1
rookie,1
interview,1
twitterfollowers,1
hoy,1
linkinbio,1
,1
promotion,1
indiegamelover,1
fashiondaily,1
justinbieber,1
daredevil,1
harlem,1
thelifesway,1
fifa,1
london,1
usdtry,1
japan,1
vita,1
socialmedia,1
craterofdiamonds,1
writing,1
bgamemovie,1
eugene,1
ibelievethatwehavewon,1
band,1
crowncharm,1
rental,1
miitomo,1
phrynosoma,1
carboot,1
unitedstates,1
consolidate,1
tell5friends,1
nigerian,1
indianapolis,1
bestvideooftheday,1
rv,1
trending,1
businessclimate,1
network,1
god,1
diesel,1
george,1
re,1
got,1
sme,1
gov,1
gop,1
dracula,1
darkpit,1
druzy,1
wlsb,1
fayetville,1
lyftcode,1
r2,1
usausausa,1
terraria,1
rakuten,1
fifa16,1
sober,1
spinach,1
hawks,1
aventuragrficas,1
gamingandtechnology,1
foxnews,1
petitlemans,1
creditdefaultswap,1
western,1
honolulu,1
arnoldpalmer,1
weare13,1
delichurrospericoapa,1
acquisition,1
lbp,1
weldedart,1
spectrum,1
ginger,1
leafs,1
leafy,1
smalltimestreamer,1
hkdjpy,1
contact,1
workmates,1
peoria,1
pennanocontrole,1
wedontkneel,1
macbook,1
djcampen,1
dog,1
marvel,1
saying,1
inspire,1
yatesway,1
louisville,1
publicservice,1
radio,1
ufc200,1
fisheye,1
playstation2,1
edtech,1
mariogolf,1
rihanna,1
sgamers,1
dl,1
fragradio,1
saiyan,1
dc,1
ryderblue,1
wedding,1
dw,1
gears,1
hornedlizard,1
raidernation,1
lancaster,1
speedruns,1
,1
stamps,1
bestofetsy,1
tweetblastpromo,1
pirate,1
omg,1
nationwide,1
90skid,1
wtf,1
amortized,1
against,1
donquijote,1
psytrance,1
likers,1
tmnt,1
bubblebobble2,1
san,1
billyjoel,1
beef,1
retrocollectiveus,1
beer,1
bees,1
opalite,1
esports,1
digitalgamebros,1
aid,1
chilling,1
edwardgaming,1
mexico,1
in,1
bet365,1
integritytt,1
videostream,1
girlgamer,1
,1
turok,1
sakura,1
80s,1
elliott,1
emulator,1
byeweek,1
vermont,1
ps4news,1
fortworth,1
goriking,1
clips4sale,1
roma,1
romo,1
alabama,1
twitchgamer,1
human,1
mascaradelatexoaxaca,1
salinas,1
gode,1
buyers,1
fortwayne,1
legion,1
frage,1
save,1
hat,1
torrance,1
zarjpy,1
,1
bands,1
mensjewellery,1
letthemusicguideya,1
kidicarusuprising,1
oaxaca,1
amor,1
people,1
fob,1
stockphotography,1
christmas,1
tgnarmy,1
giftcard,1
fortlauderdale,1
view,1
forkids,1
zacefron,1
f12016,1
coral,1
magazine,1
subs,1
selfie,1
singleeliminationtournament,1
virgin,1
usdjpy,1
waw,1
form,1
offer,1
tigers,1
toystory,1
rainbowsixsiege,1
watchlife,1
crystal,1
tucson,1
gaam,1
bringbacklma,1
daddy,1
nerds,1
taylorsteele,1
giftsgalore,1
mousepad,1
archive,1
nj,1
successful,1
pixelheart,1
tie,1
picture,1
variable,1
weekend,1
jewerly,1
gameready,1
arniesarmy,1
time,1
twirobo,1
coach,1
rating,1
dance,1
creditbpo,1
celebs,1
llc,1
chair,1
bomber,1
indiedevhour,1
vet,1
flask,1
burlington,1
battlefield1pic,1
terror,1
smartphone,1
advantage,1
recipe,1
dalvssf,1
vegas,1
cumple,1
etsymntt,1
mcmgp,1
blast,1
peeps,1
diy,1
guy,1
rt4rt,1
shave,1
starwars,1
videochat,1
trend,1
boca,1
linktober,1
twitchcon2016,1
cost,1
bo2,1
boardgames,1
current,1
beasley,1
international,1
donkeykongcountry,1
makeup,1
agreement,1
redskins,1
address,1
miiverse,1
enroll,1
canadian,1
brilliant,1
bow,1
g2a,1
birthstone,1
retrogamepic,1
ipa,1
bloody,1
romainter,1
hotels,1
usdcnh,1
working,1
australian,1
banjaymulligan67,1
usdchf,1
antwort,1
jessicajones,1
phillies,1
supermariobros3,1
consoles,1
shutterstock,1
djedwarde,1
reviews,1
geeky,1
heart,1
figure,1
geeks,1
wacom,1
badwifi,1
counting,1
behindthescenes,1
arbor,1
aolcom,1
vancouver,1
fps,1
homeready,1
economy,1
uncharted4,1
,1
fairwaysandgreens,1
data,1
supersonic,1
natural,1
st,1
,1
,1
lochiamavanojeegrobot,1
estero,1
battlefield1,1
yorkshire,1
offers,1
majorall,1
artisan,1
tweets,1
eurnzd,1
octobit,1
onlinestore,1
motels,1
g,1
james,1
drop,1
almuerzo,1
tollig,1
stockholm,1
fleetmanagement,1
nespic,1
casualgame,1
kane,1
selfacceptance,1
girl,1
gemstonejewelry,1
ip,1
nudes,1
vaporwave,1
eagle,1
monster,1
metalart,1
teddybears,1
capcom,1
vinyl,1
amigos,1
inmotion,1
,1
legendofzelda,1
supermarioworld,1
exotic,1
pologolf,1
acca,1
walkthrough,1
impossible,1
u2,1
tomorrow,1
liquorflowing,1
releases,1
hartford,1
islamisevil,1
tiendavertigo,1
streaker,1
dragonball,1
gemstones,1
watchfam,1
loverboy,1
sneakersteven,1
soofunny,1
lolpbgmoment,1
orgy,1
and,1
homeowners,1
futebol,1
premier,1
anger,1
dragon,1
gamechanger,1
,1
terrific,1
interior,1
personalized,1
pain,1
norman,1
shark,1
gopats,1
america,1
sunset,1
senior,1
suicidesquad,1
luminox,1
knoxville,1
show,1
jewelery,1
lukecage,1
decoupage,1
egamer,1
shoe,1
gbpnzd,1
maine,1
nemesis,1
dragonquestbuilders,1
stained,1
letstalk,1
lansing,1
black,1
atlantahawks,1
televisions,1
cooljewelry,1
goodluck,1
bracelets,1
is,1
naked,1
modesto,1
casualconversation,1
huckabee,1
surgery,1
sport,1
clips,1
31daysofhalloween,1
alienware,1
review,1
plymouth,1
forecast,1
outside,1
mortgagesbelleville,1
retron5,1
captaintoad,1
instagamer,1
gauntlet,1
klansman,1
,1
amateure,1
,1
gba,1
pcp,1
twitchgrow,1
strangerthings,1
color,1
jeans,1
msuvscmu,1
nintendo,1
arcades,1
supercute,1
gameover,1
yoricoyoutube,1
allyagot,1
laamo,1
gameaudio,1
nikon,1
hashtag,1
turtles,1
sub4sub,1
supergirl,1
ps4flipscreen,1
coolest,1
kindergartencop,1
bathrooms,1
indiemusic,1
tigerwoods,1
tipsdantrik,1
auspol,1
retrograde,1
lmamanager2004,1
outdoor,1
walkingdead,1
speed,1
ny,1
yt,1
usdsgd,1
wmarogers,1
kobebryant,1
noida,1
mumfest,1
dungarees,1
sba504,1
ytgaming,1
carrollton,1
psp,1
bestinspirationalvideo,1
iphone6,1
nissan,1
bracelet,1
twin,1
hotsauce,1
inter,1
exposed,1
twitctv,1
table,1
unlocked,1
primaire,1
,1
pcgearlab,1
rt,1
eurjpy,1
silenthill2,1
habs,1
animalcrossing,1
credits,1
thecrohniegamer,1
stone,1
central,1
of,1
cartier,1
act,1
unetealarmypequemaniaco,1
jeeg,1
tarneeb,1
jamesharden,1
jasper,1
wade,1
jigsaw,1
lol,1
cats,1
sealed,1
wuppo,1
kittens,1
applying,1
youtubechannel,1
wholesale,1
overlandpark,1
imexhausted,1
videos,1
,1
politics,1
britishislands,1
film,1
gamestudies,1
d2s,1
event,1
finishthissentence,1
poor,1
60s,1
rp,1
building,1
invest,1
lowpoly,1
womensluxurywatches,1
homeinsurance,1
headbutting,1
mandala,1
buyingahome,1
wyoming,1
nzdcad,1
dressing,1
huddersfield,1
freebet,1
woman,1
lakewood,1
fav,1
epiconetsy,1
haveatit,1
fan,1
fall,1
ticket,1
returnofthejedi,1
dictatorship,1
wastedpodcast,1
bridgeport,1
claudio,1
small,1
anal,1
wearex,1
maxpayne,1
pase,1
past,1
quebec,1
casual,1
90s,1
what,1
clock,1
androiddev,1
sun,1
lasttimetrumppaidtaxes,1
tribute,1
footballmanager,1
creampie,1
berkeley,1
ucuzoyun,1
2kfreeagent,1
tiffanytrump,1
sanfrancisco,1
freebets,1
pics,1
portstlucie,1
family,1
africa,1
cosmetic,1
capital,1
glitch,1
startup,1
aesthetics,1
urbanlife,1
headshothottie,1
,1
paterson,1
assistance,1
trabajo,1
euth,1
expedia,1
ramona,1
company,1
scallions,1
gameoverpic,1
desmoines,1
fashionfotography,1
cherryblossoms,1
gameoftheyear,1
der,1
prettypaparazzi,1
beautiful,1
f1,1
ford,1
scam,1
,1
brainteasers,1
pokemonart,1
needs,1
amistad,1
smsf,1
comedy,1
photooftheday,1
uglyamericans,1
crowdfunding,1
kitty,1
bookies,1
smalltuber,1
consolidation,1
lighting,1
deals_us,1
authentic,1
legioncompanionapp,1
leewestwood,1
crafts,1
shuswap,1
bcuk,1
help,1
youbeworkinonyournextlevel,1
superbowl,1
winorloseonthebooze,1
mustread,1
soccer,1
prequalify,1
food,1
gadget,1
felizdomingo,1
consolas,1
iridescent,1
oxford,1
terrorism,1
detroittigers,1
sundays,1
2d,1
gamemusic,1
england,1
3dgameprogramming,1
health,1
leagueoflegends,1
trump2016,1
paradise,1
elsegundo,1
usdmxn,1
atari7800,1
wisconsin,1
rickie,1
livestreaming,1
kidssafe,1
finejewelry,1
basketball,1
ask,1
hermes,1
refer,1
chronotrigger,1
santamaria,1
survivalhorror,1
copper,1
myraiders,1
number,1
gtaonline,1
financialadvisors,1
horse,1
paint,1
dfs,1
nigeria,1
store,1
megatollig,1
superghoulsnghosts,1
gamerchicksarmy,1
vallance,1
ste,1
financing,1
horizons,1
youth,1
etsychaching,1
gameboycolor,1
motivation,1
costarica,1
tealight,1
gala,1
listndiario,1
feelinggood,1
trance,1
lit,1
video_game_,1
dayton,1
cogps4,1
livecam,1
biglovejewelry,1
littlerock,1
,1
wichita,1
shoutout,1
cadjpy,1
gold,1
pixelcupsoccer17,1
datingsim,1
cdi,1
booze,1
session,1
interestrates,1
homeloan,1
ssb4,1
scooter,1
roa,1
flights,1
condon,1
amstad,1
equity,1
columns,1
giants,1
express,1
fakemon,1
needham,1
majorleague,1
retroconsole,1
awinnerisme,1
shoppingjewelry,1
tabby,1
giftsgalore2016,1
your_twitt,1
x,1
3d,1
bestservice,1
rolex,1
newyoutube,1
digitalart,1
technikerschule,1
cosplay,1
degree,1
century,1
fans,1
horrorgames,1
donate,1
losangeles,1
atarist,1
mortgagebroker,1
veeiscalling,1
bronze,1
persistprint,1
reverse,1
annual,1
let,1
usdsek,1
electrician,1
dancer,1
ghoulsandghosts,1
dwclassicblack,1
stamp,1
strategy,1
reduction,1
pa,1
ireland,1
karls,1
orioles,1
retrocollective,1
collectible,1
sweetheart,1
lifeinspiringcareers,1
sackboy,1
understand,1
pianoman,1
forza,1
packers,1
newmusic,1
handling,1
jeuvideo,1
sandiego,1
legendsoaxaca,1
fun,1
guide,1
comingsoon,1
jpn,1
controlyourroll,1
noislam,1
onlineshopping,1
deadpool,1
925ss,1
nomanssky,1
read,1
mumlife,1
ewp,1
babyboots,1
womenswatches,1
bonus,1
halloweencostume,1
subaru,1
kidsroom,1
chickens,1
selfemployed,1
,1
givintheotherplayer,1
swiss,1
laramsd,1
craftbuzz,1
crystalgems,1
bankrate,1
twitchgiveaway,1
hiphopawards2016,1
ambiant,1
followforfollow,1
jger,1
excited,1
australia,1
big,1
d,1
signal,1
audnzd,1
ebexpo,1
mensstyle,1
unitedkingdom,1
candle,1
eshop,1
newark,1
menstyle,1
bc,1
costumes,1
needforspeed,1
rolexwatch,1
faith,1
bureaus,1
netflix,1
morningdew,1
melbourne,1
boxer,1
vine,1
icebreaker,1
france,1
ontario,1
stpetersburg,1
suit,1
kyboenyc,1
gamefreaks,1
familia,1
line,1
cib,1
planet,1
z,1
genial,1
eroge,1
miasanmia,1
associates,1
chat,1
chulavista,1
fashiondesign,1
respectmusikindieindonesia,1
moneyphotos,1
rainbow,1
ragequit,1
peace,1
gainesville,1
application,1
forchildrens,1
swirl,1
lucio,1
theexorcist,1
callofduty,1
microsoft,1
xbl,1
lomaspopular,1
leaked,1
hampton,1
gt,1
hazeltine,1
6man,1
gb,1
supportsmallstreams,1
debtconsolidation,1
young,1
friendly,1
foreleft,1
pcsosuertreslotto,1
torture,1
bedrooms,1
slapio,1
toastarmy,1
knight,1
cogvideogames,1
metalgearsolid,1
365daysofart,1
dgbs,1
boots,1
suertreslotto,1
chicago,1
richmond,1
reporting,1
pokemoncatch,1
sexy,1
susangar,1
impossiblecircle,1
bakersfield,1
midnightmonstercat,1
,1
kyboe,1
zestoonbroadway,1
luckybrand,1
castlevania30thanniversary,1
claim,1
app,1
minnesota,1
fed,1
stream,1
doodle,1
fes,1
nuevaps4pro,1
oktober,1
awesome,1
pedromartinez,1
plussize,1
on,1
teamtitleist,1
,1
superfamicom,1
baby,1
professores,1
starter,1
animals,1
salad,1
inotesof1d,1
,1
webpunk,1
tag,1
hilton,1
streamer,1
chakra,1
dj,1
skilledtrade,1
neogeo,1
fordgt,1
1uptv,1
gamergirls,1
creditreport,1
animal,1
miflojita,1
wristwatch,1
disneylover,1
wrist,1
yoshiki,1
pocket,1
supermariobrothers,1
glitchart,1
robot,1
mariobros,1
houston,1
fresno,1
costume,1
schoolday,1
badger,1
azzijewelers,1
la,1
winning,1
redhead,1
crazyhat,1
rsvp,1
kelloggs,1
topps,1
pokmongo,1
worlds,1
rutilated,1
zeist,1
billy,1
rockets,1
onlinegaming,1
lfc,1
9holes,1
alaska,1
sprinfield,1
special,1
ret,1
farm,1
arkansas,1
philipplein,1
myleague,1
tempe,1
organic,1
giftideas,1
yardiegyalgames,1
49ers,1
transfer,1
austin,1
iphonegamestravel,1
virginiabeach,1
principalandinterest,1
warcraft,1
theman,1
bears,1
publicmines,1
statesamerica,1
phonecase,1
evansville,1
adorable,1
lot,1
nfsp,1
gradius,1
fashionpost,1
sex,1
ipad,1
gearedformore,1
culture,1
littlebigplanet,1
defense,1
loves,1
bet,1
robocop,1
recyclable,1
studying,1
mix,1
bonanza,1
funds,1
mortgage101,1
trivia,1
achievementhunters,1
lively,1
accountants,1
staseraintv,1
sony,1
realtor,1
url,1
businessman,1
painting,1
japo,1
gameprogramming,1
dbz,1
ottoman,1
fear,1
knowledge,1
unions,1
piano,1
local,1
animalovers,1
fashionaddict,1
katyperry,1
gbc,1
brain,1
h,1
wedonttakeaknee,1
soundclound,1
bitstory,1
eurdkk,1
wasistdas,1
minimaltrance,1
wichtig,1
national,1
jaypcoolreal,1
btc,1
gmail,1
nebula,1
purses,1
eastillhasworktodo,1
shoppershour,1
game162,1
gemstone,1
bought,1
brentwood,1
greatday,1
joy,1
accountingprofession,1
cake,1
key,1
repost,1
gardengrove,1
nostalgi,1
rams,1
swarovski,1
geek_code,1
gaypride,1
kings,1
fashionstyle,1
league,1
necaxa,1
controller,1
atlanta,1
atarilynx,1
value,1
augusta,1
favoffavs,1
wild,1
danielwellington,1
luchoporunsueo,1
designs,1
visalia,1
crash,1
,1
grinder,1
autism,1
unity,1
parts,1
followtraintv,1
ball,1
pinay,1
squashcollective,1
login,1
builder,1
oneida,1
part1,1
boho,1
audio,1
galaxys7edge,1
sources,1
retrogamers,1
tcg,1
nicky,1
ads,1
vida,1
sky,1
vide,1
forbes,1
css3,1
advertising,1
smokedout,1
historic,1
calcualtor,1
miami,1
artofeli,1
tennessee,1
epoxy,1
soft,1
replacement,1
socialiste,1
twitter,1
banstevortex,1
export,1
gearsofwar4,1
ausecon,1
northdakota,1
7up,1
amstrad,1
indiefilm,1
kitsch,1
rare,1
justin,1
column,1
fashionjewelry,1
longbeach,1
reptile,1
childrens,1
three,1
brush,1
bestgirlfriend,1
bostonbombing,1
delusione,1
latedecember,1
bgames,1
nzdusd,1
bso7,1
dontholdback,1
,1
brand,1
gaylove,1
ha,1
ph,1
flip,1
below,1
gamegrumpslive,1
affectionate,1
nerdismo,1
education,1
eric,1
cupom,1
dzeko,1
wonogiri,1
handcrafted,1
raspberry_pi,1
friends,1
inspiration,1
ghost,1
lakeland,1
etsygifts,1
fashionfoto,1
pension,1
watchemeplay,1
