Hashtag,Total Count
@realdonaldtrump,23
#donaldtrump,21
#imwithher,20
#trump,19
#hillaryclinton,18
@hillaryclinton,16
#maga,16
#debatenight,13
#hillary,13
#trumptaxes,11
#debates2016,11
#debates,10
#election2016,9
#steinbaraka,7
#jillnothill,7
#demexit,7
#dncleak,7
#nodapl,6
#bernieorbust,6
#snl,6
#liar,6
#crookedhillary,6
#bringbernieback,6
#trumptrain,6
#strongertogether,5
#debate,5
#nevertrump,4
@nbcsnl,4
#stoptpp,4
@lesterholtnbc,4
#america,4
#trump2016,4
#clinton,4
#clintonfoundation,3
#neverhillary,3
#millennials,3
#tcot,3
@kingjames,3
#clintonscandals,3
#opdeny270,3
#basketofdeplorables,3
#basementdwellers,3
@cnnpolitics,3
#vpdebate,3
#lebronjames,3
#dnc,3
#badweek,2
#trumppence2016,2
@rednationrising,2
#elections2016,2
#mademyeyeswater,2
#corruption,2
@msnbc,2
#stopcommoncore,2
#womenintech,2
#cybersecurity,2
#whitegenocide,2
#clintoncash,2
#riggedsystem,2
#uniteblue,2
#blacklivesmatter,2
#florida,2
#women,2
#votetrump,2
#cnn,2
@cnn,2
#clintoncrimefamily,2
#latinoswithtrump,2
@realjtp,2
#hillary2016,2
@juddlegum,2
#poopofjustice,2
@c0nvey,2
#womensvoices16,2
@tgowdysc,2
@juliet777777,2
#puppet,2
#pjnet,2
#ourrevolution,2
#giuliani,2
#hillarytrial,2
@always_trump,2
#trumpwondeeznutz,2
#lesterholt,2
#clintoncrime,2
#trumppence16,2
#verbaldiarrhea,2
@chicagorealtors,2
#democrats,2
#retweet,2
#trumpincuba,2
#mumbojumbo,2
#wordsalad,2
#imwithyou,2
#warmongeringmoney,1
#followthemoney,1
#vote4hillary,1
#presidential,1
@beckystlouis,1
@theticket2016,1
@govgaryjohnson,1
#russian,1
#cheatinghillary,1
#makeamericawhiteagain,1
#epic,1
#drumpf,1
@asianamerica,1
#world,1
#politica,1
#lasttimetrumppaidtaxes,1
#illustration,1
#obamahastogo,1
#blackamericaagain,1
#hitler,1
#debodecir,1
@globeandmail,1
#dishonestmedia,1
#bernersfortrump,1
#labronjames,1
@newsweekeurope,1
#feartwd,1
@drestella,1
@tonyapb3,1
#basketofdeplrables,1
@potus,1
@iheartradio,1
#dncleaks,1
@maggyw519,1
#castro,1
@jeannehopkins,1
#bush,1
@nytimes,1
@crowenation2016,1
#hackjobholt,1
#notmypresident,1
#deplorablesrising,1
#warisabusinessopportunity,1
#usa,1
#fernandovilar,1
#ttip,1
#trumpstrong,1
#americafirst,1
@seanhannity,1
@fbi,1
#syria,1
#xfactor,1
#taxes,1
#presidentialdebate,1
@sweetpea593,1
#selfie,1
#topknotsforhillary,1
#machado,1
#clintonemails,1
#peru,1
#markets,1
#benghazi,1
@vivelafra,1
#shimmy,1
#rape,1
#bigleaguetruth,1
#charlotte,1
#jacquelineroche,1
#dumptrump,1
#timkaine,1
@_aaronmiles,1
#oklahoma,1
#pennsylvania,1
@senatemajldr,1
@jasoninthehouse,1
@barackobama,1
#holtswithher,1
@billkristol,1
@_tonyhdz,1
@cernovich,1
#newzealand,1
#airstrike,1
#draftdodged,1
#soundcloud,1
@imsledgren,1
#electoralcollege,1
#nra,1
#passion,1
@prestoncedwards,1
@youtube,1
#quiennoconoceadios,1
#liberallogic,1
#nationalanthem,1
#independents,1
#cuba,1
#serialrapist,1
#canada,1
@xpinkpixiedollx,1
@andersoncooper,1
#auspol,1
@donaldjtrumpjr,1
#moneywhore,1
#clintonswaronwomen,1
#earpiece,1
#democracynow,1
@martharaddatz,1
#backtheblue,1
#cameraready,1
#snl42,1
@lesideburns,1
#stevepieczenik,1
@erictrump,1
#patriots,1
@abelduartebot,1
#fatshaming,1
#shameless,1
@zachwahls,1
#superfans,1
@americanmex067,1
#donald,1
#fluoride,1
@1kimsey,1
#obstructionofjustice,1
@chrishohnholz,1
@kare11,1
#trumpinlancaster,1
#comeytheweasel,1
@donallen02,1
#gop,1
#berniesanders,1
#democrat,1
@ladytragik,1
#facebook,1
#schmuck,1
#millenial,1
@ejhirschberger,1
#potus,1
#lyingpress,1
#hillaryscages,1
#corruptclinton,1
#mikepence,1
#keepmovingforward,1
#westworld,1
@shotcalla,1
#millennialsfortrump,1
@danabashcnn,1
@iamjohnoliver,1
#coined,1
#meme,1
@cubs,1
#letgarydebate,1
@kstp,1
#latinos,1
#liberalismisamentaldisorder,1
#pov,1
#_,1
#worldwar3,1
#realist,1
#corruptmedia,1
#alangarcia,1
#girlpower,1
#trumpvshillary,1
#shoes,1
#melanin,1
#concentrationcamps,1
#snapshot,1
#deplorables,1
#tisa,1
@drudge_report,1
@ravi_4prince,1
@womencount,1
@hbo,1
#kkk,1
#poppyolivera,1
@speakerryan,1
@medialiarz,1
#nomorewar,1
#haitimoney,1
#thisiscle,1
#medicare,1
#hawaii,1
@mittromney,1
#hillaryshelper,1
#ziannaoliphant,1
@cdniron,1
@natureguy101,1
#obama,1
@constitutionnat,1
#veterans,1
@thewelshtwitt,1
#lol,1
@ajdelgado13,1
#nbcclowncar,1
#liberalsunite,1
#payforplay,1
#socialmedia,1
#crookedclintons,1
#debates20,1
#trumpsarmy,1
@cory_bennett,1
#constitution,1
@benphilpottkut,1
#_,1
@lastweektonight,1
@occupydemocrats,1
#corrupthillary,1
@thehill,1
@itwixie,1
#obamalegacy,1
#debate2016,1
#awnewyork,1
#mediabias,1
#itrusthillary,1
#np,1
#potatosecurity,1
#uselection2016,1
#shareblue,1
#fuckdonaldtrump,1
#election,1
#bee,1
@agua61,1
@dawnwells_,1
#crisisofcharacter,1
#snldebate,1
#obamatownhall,1
#obamacare,1
#sheswithus,1
#p2,1
@byjayroot,1
#morons,1
#sickhillary,1
@missuniverse,1
#lyingcrookedhillary,1
#rnc,1
#twittertantrums,1
#lesterholtfail,1
@progtopiabooks,1
#nba,1
#nbc,1
#voterfraud,1
#riggeddebate,1
#iowa,1
#voting,1
#riggedmedia,1
@danscavino,1
#formation,1
#makeamericagreatagain,1
#losangeles,1
#hillarysemails,1
@barb_kinney,1
#surgicalstrikesagainstpak,1
#dronestrikes,1
#hillarywon,1
#lasttimedonaldtrumppaidtaxes,1
#sociopath,1
@joyannreid,1
#trumptaxreturns,1
#nevada,1
#shimmylikeclinton,1
@trumpcard555,1
#dems,1
@foxnews,1
#water,1
#trumpwins,1
#lorettalynch,1
#truthbomb,1
@darren32895836,1
#hrc,1
#teamhillary,1
#hesnotwithus,1
@acrutchfield14,1
@rochejacqueline,1
#vicepresidential,1
