Hashtag,Total Count
usa,183
us,126
fl,88
clinton,80
nc,75
ny,74
hillary,67
nv,66
co,65
oh,60
va,59
un4refugeesmigrants,58
jobs,55
cnn,55
un,54
ia,53
pa,52
unga71,50
il,49
job,48
mi,47
hiring,46
nh,46
msnbc,45
hillaryclinton,45
obama,45
jobsearch,45
wi,44
imwithher,42
nm,42
basementdwellers,40
saudi,39
berniesanders,39
ga,38
trump,37
ca,37
me,34
ri,34
ut,34
columbus,33
mn,32
sun,30
ma,30
nj,30
itsinourhands,30
florida,29
ct,29
md,28
de,28
or,28
newyork,27
whitehouse,22
wa,22
greenparty,20
al,19
maga,18
trumptrain,18
deals,16
ebay,16
lyinghillary,15
branch,15
dallas,14
ky,14
az,13
process,12
crookedhillary,12
health,12
careerarc,12
production,11
ohio,11
dentist,11
realestate,10
stamp,10
jobs4u,9
neverhillary,9
stamps,9
haitimoney,9
isis,9
sunset,9
foxnews,8
beautiful,8
beograd,8
demexit,8
beach,8
muslim,7
nursing,7
trump2016,7
news,7
sky,7
miami,7
france,7
islam,7
uk,7
tx,6
tn,6
america1st,6
video,6
tampa,6
trumptaxes,6
retail,6
unga,6
jax,6
nature,6
sanders,6
politics,6
general,6
congress,6
gigs4u,5
follow,5
gigs,5
regional,5
licensed,5
love,5
americafirst,5
healthcare,5
indianapolis,5
insurance,5
american,5
donaldtrump,5
trumppence16,5
art,5
summer,5
orlando,5
fortlauderdale,5
weather,5
happy,5
fun,4
secureborder,4
in,4
president,4
hospitality,4
washingtondc,4
cool,4
gop,4
thecareerjobs,4
design,4
teamusa,4
election2016,4
cuba,4
century,4
mia,4
jacksonville,4
whitegenocide,4
accountant,4
galaxynote7,4
dog,4
petersburg,3
clouds,3
wsj,3
inshot,3
blur,3
lex,3
homesforsale,3
genf,3
bucs,3
sports,3
pretty,3
nyt,3
hot,3
sc,3
auburnjobs,3
cute,3
auburn,3
birds,3
saturn,3
naacp,3
makeamericagreatagain,3
bestbuy,3
colombia,3
girls,3
benghazi,3
pittsburgh,3
fashion,3
clintoncash,3
hillary2016,3
blacklivesmatter,3
sickhillary,3
maine,3
cash,3
lexington,3
allaboutdamoneyhillary,3
millennials,3
apartments,3
hair,3
rydercup,3
jailher,3
education,3
sunrise,3
nevertrump,3
nwo,2
smile,2
trutherbotchart,2
donthecon,2
venezuela,2
seattle,2
brexit,2
abc,2
panama,2
new,2
bikeovernight,2
social,2
sundayfunday,2
mexico,2
msm,2
strongertogether,2
india,2
dios,2
women,2
graphic,2
car,2
,2
recession,2
juliako,2
potus,2
michigan,2
denvstb,2
map6,2
paper,2
citizenship,2
style,2
iowa,2
republican,2
seniors,2
siegetheday,2
eu,2
canada,2
god,2
internet,2
2016shift,2
mexicannationals,2
wisconsin,2
tcot,2
thedeplorables,2
gotv,2
brasil,2
syria,2
ophiuchus,2
lasvegas,2
texas,2
findit,2
tree,2
bet,2
rent,2
philly,2
dumptrump,2
america,2
adopt,2
sage,2
democrats,2
vinscully,2
bush,2
billclinton,2
watch,2
feelthebern,2
startup,2
sea,2
corrupt,2
13hous,2
listing,2
voterregistration,2
pakistan,2
indict,2
learning,2
sunday,2
life,2
northcarolina,2
sales,2
p2,2
ap,2
dems,2
technology,2
clerical,2
media,2
unc,2
used,2
buccaneers,2
i,2
virgina,2
broncos,2
forbes,2
mansions,2
cnnsotu,2
for,2
ourrevolution,2
innovation,2
business,2
marketing,2
losing,2
buckscounty,2
colorado,2
2015shift,2
washington,2
friends,2
bolivia,2
failure,2
intern,2
schner,2
ai,2
pit,2
pennstate,2
granada,2
digital,2
,2
misshousekeeping,1
hampton,1
rok,1
liar,1
trumptrump,1
global,1
drumpf,1
alldungmatters,1
marcapersonal,1
highlow,1
lonetree,1
blm,1
vet,1
blackamericans,1
paris,1
tweet,1
engelhardt,1
veterans,1
depostion,1
faz,1
vhscareers,1
garden,1
automotive,1
aurora,1
lima,1
screwed,1
debatenight,1
energyplan,1
rydercup2016,1
recreation,1
letsgo,1
democrat,1
nowall,1
westend,1
deplorable,1
bernie,1
starwars,1
wuvip,1
charleston,1
lorraine,1
tvddc,1
usastrangers,1
sunrise_sunset_aroundworld,1
pathetic,1
newjersey,1
asia,1
braggadoscious,1
lasttimetrumppaidtaxes,1
taewoong,1
ufc,1
iran,1
erb,1
water,1
change,1
wait,1
eurasien,1
sanfrancisco,1
uslatino,1
buckeyesonsunday,1
my,1
ep,1
pinetrees,1
jobstoday,1
rpof,1
chesterfield,1
acuerdogobiernofarc,1
hillaryfor2016,1
investigate,1
family,1
paidsickleave,1
sign,1
trumpbake,1
fake,1
scandal,1
cocaine,1
instagramhub,1
landscape,1
sanantonio,1
dnc,1
predictions,1
indie,1
camera,1
johnrocca2,1
care,1
awesome,1
inocencia,1
broughttoheel,1
hillarys,1
internacionales,1
personalbrand,1
oregon,1
instablackface,1
studiocity,1
qotfu,1
debates,1
tokyo,1
mo,1
roosevelt,1
nateparker,1
hrc,1
refugee,1
horgen,1
wallart,1
estate,1
billstill,1
tax,1
chalfont,1
alotofpeoplearesaying,1
paperballot,1
uae,1
rape,1
uspolitics,1
greatamericanballpark,1
,1
dialysis,1
amjoy,1
contrump,1
animal,1
nyc,1
secstate,1
blessedsunday,1
canadajobs,1
photooftheday,1
highgate,1
unbelievable,1
fx,1
stop,1
mapleglen,1
bunnydance,1
hotjob,1
perjury,1
terrorist,1
englishbay,1
waves,1
billings,1
rudy,1
npr,1
sz,1
stillsanders,1
funday,1
johnson,1
bluebell,1
sr,1
trumpets,1
coralsprings,1
haroldhamm,1
jacquelinekennedygarden,1
cubs,1
countryside,1
deck,1
indeed,1
artwork,1
gettysburg,1
foxnew,1
makeup,1
nottrump,1
itt,1
thegreenrubberroom,1
harperrecession,1
furlong,1
fairbanks,1
christie,1
omama,1
labor,1
bernieorbust,1
electionyear2016,1
philmickelson,1
petition,1
zucker,1
campaigned,1
finance,1
gresham,1
breakingnews,1
magic,1
twilight,1
chicago,1
tisa,1
argentina,1
varnell,1
colombiadecide,1
powell,1
2a,1
medicaljobs,1
fitness,1
coloradosprings,1
financial,1
concord,1
house,1
flatearth,1
fairbanksjobs,1
police,1
vote,1
trumphotels,1
ceta,1
deplorables,1
margaretsanger,1
elcentro,1
votetrump2016,1
voteblue,1
trending,1
driving,1
space,1
pensacola,1
lukestribling,1
strangers,1
salute,1
dncleak,1
divaday2016,1
nbcnews,1
phxjobs,1
teddybears,1
free,1
switzerland,1
orl,1
techno,1
california,1
york,1
sxsl,1
orc,1
sanluisobispo,1
clownfactory,1
guiliani,1
benefits,1
clintonkaine,1
raleigh,1
dubli,1
latam,1
nonprofit,1
cleaning,1
trumpwin,1
americana,1
flpolitics,1
jesus,1
thousandoaks,1
naturalbeauty,1
uribe,1
canino,1
bluesky,1
pinterest,1
fineartamerica,1
hurricanematthew,1
bighouse,1
corruptmedia,1
biketrave,1
top,1
stoptpp,1
viezec,1
sandiegocounty,1
westpalmbeach,1
africanamericans,1
rosario,1
murder,1
businessmgmt,1
gym,1
eastwing,1
massages,1
divaday,1
sorpresa,1
statecollege,1
sex,1
centralbucks,1
buckeye,1
imwithhim,1
quinnipiac,1
nzz,1
clickthelinkinmybio,1
twinsburg,1
asean,1
light,1
russia,1
writeinberniesanders,1
animalabuse,1
gaslighting,1
hillaryshealth,1
burundi,1
palisadespark,1
vaca,1
inconvenienttruth,1
clearwater,1
machado,1
ff,1
primaries,1
,1
surf,1
ewabeach,1
actualiteparis,1
whodat,1
corpgov,1
coatza,1
pureza,1
germany,1
tallmadge,1
model,1
usapeople,1
realtor,1
forever,1
instadaily,1
wichita,1
coatzacoalcos,1
papaginos,1
chester,1
dayton,1
tpp,1
ned,1
laws,1
boycotttrump,1
ttip,1
trumpdump,1
colors,1
bayareajobs,1
debate,1
liberalidiots,1
keys,1
justice,1
shitshow,1
dannywillet,1
fresno,1
roadtrip,1
tagsforlikes,1
sanjosejobs,1
artwithmeaning,1
halloween,1
boris,1
his,1
merkel,1
dc,1
trees,1
dhackett,1
october,1
report,1
tampabay,1
vote2016,1
4unity,1
propoganda,1
atardecer,1
surrealism,1
wellness,1
clinton2016,1
redhedgehog,1
taxes,1
lewinsky,1
banking,1
skyline,1
glendale,1
didyouknow,1
inside,1
followthemoney,1
view,1
westnewton,1
koaliver,1
nohillary,1
losangeles,1
irredeemable,1
japan,1
imscaredin4words,1
musicales,1
digitalart,1
trumpanzees,1
supplychain,1
pasen,1
pennsylvania,1
camping,1
happyvalley,1
irs,1
melrose,1
gopwomen,1
uselections2016,1
instabake,1
corruption,1
check,1
longisland,1
santamaria,1
blitzer,1
creativejobs,1
wth,1
wh,1
wapo,1
newhampshire,1
climate,1
umpronounchallenge,1
swanton,1
libya,1
lgbt,1
secrets,1
follo,1
asshat,1
jaystewart,1
elginjobs,1
holbox,1
clb,1
biketravel,1
oakland,1
newfreedom,1
itsoverpeople,1
trumptaxreturns,1
ucla,1
liberals,1
maintenance,1
funnyafterall,1
wx,1
amazing,1
buckeyestate,1
realtalk,1
drugs,1
lifeinspiringcareers,1
,1
heartsurgeryindelhiindia,1
makeadifference,1
ruby,1
travelling,1
latergram,1
physician,1
gilbertjobs,1
presidency,1
bill,1
instagood,1
career,1
rutgers,1
caninodesign,1
homework,1
flythew,1
davenport,1
saudiaramco,1
humaabedin,1
canon,1
it,1
hoax,1
,1
io,1
instaweather,1
funny,1
productivity,1
chijobs,1
oakwood,1
cleargram,1
trip,1
matthew,1
fdlx,1
clotheohio,1
phi,1
theodore,1
horsham,1
heartcare,1
instaphoto,1
student,1
republicanwomen,1
warming,1
reflection,1
ccp,1
flbeer,1
baltimore,1
the,1
icantwait,1
sanjose,1
icymi,1
,1
photo,1
ne,1
sexoffenders,1
yes,1
manheim,1
rose,1
woodstock,1
spokanevalley,1
aristegui,1
prison,1
save,1
feminism,1
real,1
kills,1
katiemcginty,1
world,1
rudygiuliani,1
stlucie,1
2017shift,1
zingers,1
seigetheday,1
like,1
healthcaretreatmentinindia,1
loser,1
lightning,1
taxpayers,1
benefit,1
nytimesirrelevent,1
night,1
harleysville,1
huffpostpol,1
nationalpark,1
lebanon,1
mercyplease,1
taxevasion,1
election,1
mirror,1
home,1
wxtards,1
snuper,1
pet,1
seehofer,1
live5news,1
moon,1
novi,1
santaclara,1
iljobs,1
tech,1
seine,1
bolo,1
ameliaisland,1
thebighouse,1
flpol,1
manufacturing,1
adventurecycling,1
latinos,1
faith,1
ok,1
jameiswinston,1
womens,1
sidney,1
bringbackbernie,1
fortcollins,1
uniteblue,1
parsippany,1
hillarylies,1
rolla,1
brands,1
cardiff,1
vaughan,1
wadsworth,1
anthonyweiner,1
landolakes,1
waco,1
azjobs,1
rcp,1
philadelphia,1
orwell,1
christians,1
hehet,1
ftpierce,1
washingtonpost,1
napa,1
hr,1
thief,1
orangecounty,1
pjwillett,1
he,1
fraud,1
2016election,1
camtocam,1
hosting,1
padems,1
westcolumbia,1
1000islands,1
marco2016,1
trumppence,1
moore,1
montgomerycounty,1
ak,1
circus,1
warrenbuffet,1
engineering,1
ar,1
photography,1
kerry,1
veracruz,1
balcony,1
magreb,1
maybe,1
handmade,1
green,1
event,1
solarpanels,1
np,1
nice,1
pier,1
tacotrucksoneverycorner,1
students,1
thefts,1
flower,1
lovefl,1
corruptclintons,1
catering,1
pool,1
customerservice,1
olmstedfalls,1
acrobatic,1
hagerstown,1
radicalislamists,1
cristie,1
bestplace,1
firstorder,1
fireisland,1
